ISO-10303-21;
HEADER;
/* Generated by software containing ST-Developer
 * from STEP Tools, Inc. (www.steptools.com) 
 */
/* OPTION: using custom schema-name function */

FILE_DESCRIPTION(
/* description */ (''),
/* implementation_level */ '2;1');

FILE_NAME(
/* name */ 'Collector Housing Plate Back 2 v1.2.stp',
/* time_stamp */ '2021-05-13T18:38:26+02:00',
/* author */ (''),
/* organization */ (''),
/* preprocessor_version */ 'ST-DEVELOPER v16.7',
/* originating_system */ 'SIEMENS PLM Software NX 12.0',
/* authorisation */ '');

FILE_SCHEMA (('AP203_CONFIGURATION_CONTROLLED_3D_DESIGN_OF_MECHANICAL_PARTS_AND_ASSEMBLIES_MIM_LF { 1 0 10303 403 2 1 2}'));
ENDSEC;

DATA;
#10=SHAPE_REPRESENTATION_RELATIONSHIP('None',
'relationship between Collector Housing Plate Back 2 v1.2-None and Col
lector Housing Plate Back 2 v1.2-None',#92,#11);
#11=ADVANCED_BREP_SHAPE_REPRESENTATION(
'Collector Housing Plate Back 2 v1.2-None',(#102),#665);
#12=CC_DESIGN_APPROVAL(#24,(#82));
#13=CC_DESIGN_APPROVAL(#25,(#84));
#14=CC_DESIGN_APPROVAL(#26,(#31));
#15=APPROVAL_PERSON_ORGANIZATION(#69,#24,#18);
#16=APPROVAL_PERSON_ORGANIZATION(#70,#25,#19);
#17=APPROVAL_PERSON_ORGANIZATION(#71,#26,#20);
#18=APPROVAL_ROLE('approver');
#19=APPROVAL_ROLE('approver');
#20=APPROVAL_ROLE('approver');
#21=APPROVAL_DATE_TIME(#39,#24);
#22=APPROVAL_DATE_TIME(#40,#25);
#23=APPROVAL_DATE_TIME(#41,#26);
#24=APPROVAL(#27,' ');
#25=APPROVAL(#28,' ');
#26=APPROVAL(#29,' ');
#27=APPROVAL_STATUS('not_yet_approved');
#28=APPROVAL_STATUS('not_yet_approved');
#29=APPROVAL_STATUS('not_yet_approved');
#30=CC_DESIGN_SECURITY_CLASSIFICATION(#31,(#84));
#31=SECURITY_CLASSIFICATION(' ',' ',#32);
#32=SECURITY_CLASSIFICATION_LEVEL('confidential');
#33=CC_DESIGN_DATE_AND_TIME_ASSIGNMENT(#37,#35,(#82));
#34=CC_DESIGN_DATE_AND_TIME_ASSIGNMENT(#38,#36,(#31));
#35=DATE_TIME_ROLE('creation_date');
#36=DATE_TIME_ROLE('classification_date');
#37=DATE_AND_TIME(#52,#42);
#38=DATE_AND_TIME(#53,#43);
#39=DATE_AND_TIME(#54,#44);
#40=DATE_AND_TIME(#55,#45);
#41=DATE_AND_TIME(#56,#46);
#42=LOCAL_TIME(0,0,0.,#47);
#43=LOCAL_TIME(0,0,0.,#48);
#44=LOCAL_TIME(0,0,0.,#49);
#45=LOCAL_TIME(0,0,0.,#50);
#46=LOCAL_TIME(0,0,0.,#51);
#47=COORDINATED_UNIVERSAL_TIME_OFFSET(0,0,.BEHIND.);
#48=COORDINATED_UNIVERSAL_TIME_OFFSET(0,0,.BEHIND.);
#49=COORDINATED_UNIVERSAL_TIME_OFFSET(0,0,.BEHIND.);
#50=COORDINATED_UNIVERSAL_TIME_OFFSET(0,0,.BEHIND.);
#51=COORDINATED_UNIVERSAL_TIME_OFFSET(0,0,.BEHIND.);
#52=CALENDAR_DATE(0,1,1);
#53=CALENDAR_DATE(0,1,1);
#54=CALENDAR_DATE(0,1,1);
#55=CALENDAR_DATE(0,1,1);
#56=CALENDAR_DATE(0,1,1);
#57=CC_DESIGN_PERSON_AND_ORGANIZATION_ASSIGNMENT(#65,#61,(#82,#84));
#58=CC_DESIGN_PERSON_AND_ORGANIZATION_ASSIGNMENT(#66,#62,(#86));
#59=CC_DESIGN_PERSON_AND_ORGANIZATION_ASSIGNMENT(#67,#63,(#84));
#60=CC_DESIGN_PERSON_AND_ORGANIZATION_ASSIGNMENT(#68,#64,(#31));
#61=PERSON_AND_ORGANIZATION_ROLE('creator');
#62=PERSON_AND_ORGANIZATION_ROLE('design_owner');
#63=PERSON_AND_ORGANIZATION_ROLE('design_supplier');
#64=PERSON_AND_ORGANIZATION_ROLE('classification_officer');
#65=PERSON_AND_ORGANIZATION(#79,#72);
#66=PERSON_AND_ORGANIZATION(#79,#73);
#67=PERSON_AND_ORGANIZATION(#79,#74);
#68=PERSON_AND_ORGANIZATION(#79,#75);
#69=PERSON_AND_ORGANIZATION(#79,#76);
#70=PERSON_AND_ORGANIZATION(#79,#77);
#71=PERSON_AND_ORGANIZATION(#79,#78);
#72=ORGANIZATION(' ',' ',' ');
#73=ORGANIZATION(' ',' ',' ');
#74=ORGANIZATION(' ',' ',' ');
#75=ORGANIZATION(' ',' ',' ');
#76=ORGANIZATION(' ',' ',' ');
#77=ORGANIZATION(' ',' ',' ');
#78=ORGANIZATION(' ',' ',' ');
#79=PERSON(' ',' ',' ',(' '),$,$);
#80=SHAPE_DEFINITION_REPRESENTATION(#81,#92);
#81=PRODUCT_DEFINITION_SHAPE('','',#82);
#82=PRODUCT_DEFINITION(' ','',#84,#83);
#83=DESIGN_CONTEXT('',#91,'design');
#84=PRODUCT_DEFINITION_FORMATION_WITH_SPECIFIED_SOURCE(' ',' ',#86,
 .NOT_KNOWN.);
#85=PRODUCT_RELATED_PRODUCT_CATEGORY('detail','',(#86));
#86=PRODUCT('Collector Housing Plate Back 2 v1.2',
'Collector Housing Plate Back 2 v1.2',' ',(#89));
#87=PRODUCT_CATEGORY('part',' ');
#88=PRODUCT_CATEGORY(' ','');
#89=MECHANICAL_CONTEXT(' ',#91,'mechanical');
#90=APPLICATION_PROTOCOL_DEFINITION('international standard',
'config_control_design',2010,#91);
#91=APPLICATION_CONTEXT(
'configuration controlled 3D designs of mechanical parts and assemblie
s');
#92=SHAPE_REPRESENTATION('Collector Housing Plate Back 2 v1.2-None',(#436),
#665);
#93=PRESENTATION_LAYER_ASSIGNMENT('1','Layer 1',(#102));
#94=STYLED_ITEM('',(#95),#102);
#95=PRESENTATION_STYLE_ASSIGNMENT((#96));
#96=SURFACE_STYLE_USAGE(.BOTH.,#97);
#97=SURFACE_SIDE_STYLE('',(#98));
#98=SURFACE_STYLE_FILL_AREA(#99);
#99=FILL_AREA_STYLE('',(#100));
#100=FILL_AREA_STYLE_COLOUR('',#101);
#101=COLOUR_RGB('Medium Gray',0.490196078431373,0.490196078431373,0.490196078431373);
#102=MANIFOLD_SOLID_BREP('',#103);
#103=CLOSED_SHELL('',(#190,#191,#192,#193,#194,#195,#196,#197,#198,#199,
#200,#201,#202,#203,#204,#205,#206,#207));
#104=CYLINDRICAL_SURFACE('',#467,2.5);
#105=CYLINDRICAL_SURFACE('',#468,2.49999999999994);
#106=CYLINDRICAL_SURFACE('',#469,2.49999999999994);
#107=CYLINDRICAL_SURFACE('',#470,2.5);
#108=CYLINDRICAL_SURFACE('',#471,2.5);
#109=CYLINDRICAL_SURFACE('',#472,2.5);
#110=CYLINDRICAL_SURFACE('',#473,2.5);
#111=CYLINDRICAL_SURFACE('',#474,2.5);
#112=CYLINDRICAL_SURFACE('',#475,2.5);
#113=CYLINDRICAL_SURFACE('',#476,2.5);
#114=CYLINDRICAL_SURFACE('',#477,2.5);
#115=CYLINDRICAL_SURFACE('',#478,2.5);
#116=FACE_BOUND('',#222,.T.);
#117=FACE_BOUND('',#223,.T.);
#118=FACE_BOUND('',#224,.T.);
#119=FACE_BOUND('',#225,.T.);
#120=FACE_BOUND('',#226,.T.);
#121=FACE_BOUND('',#227,.T.);
#122=FACE_BOUND('',#228,.T.);
#123=FACE_BOUND('',#229,.T.);
#124=FACE_BOUND('',#230,.T.);
#125=FACE_BOUND('',#231,.T.);
#126=FACE_BOUND('',#232,.T.);
#127=FACE_BOUND('',#233,.T.);
#128=FACE_BOUND('',#234,.T.);
#129=FACE_BOUND('',#235,.T.);
#130=FACE_BOUND('',#236,.T.);
#131=FACE_BOUND('',#237,.T.);
#132=FACE_BOUND('',#238,.T.);
#133=FACE_BOUND('',#239,.T.);
#134=FACE_BOUND('',#240,.T.);
#135=FACE_BOUND('',#241,.T.);
#136=FACE_BOUND('',#242,.T.);
#137=FACE_BOUND('',#243,.T.);
#138=FACE_BOUND('',#244,.T.);
#139=FACE_BOUND('',#245,.T.);
#140=FACE_BOUND('',#246,.T.);
#141=FACE_BOUND('',#247,.T.);
#142=FACE_BOUND('',#248,.T.);
#143=FACE_BOUND('',#249,.T.);
#144=FACE_BOUND('',#250,.T.);
#145=FACE_BOUND('',#251,.T.);
#146=FACE_BOUND('',#252,.T.);
#147=FACE_BOUND('',#253,.T.);
#148=FACE_BOUND('',#254,.T.);
#149=FACE_BOUND('',#255,.T.);
#150=FACE_BOUND('',#256,.T.);
#151=FACE_BOUND('',#257,.T.);
#152=FACE_BOUND('',#258,.T.);
#153=FACE_BOUND('',#259,.T.);
#154=FACE_BOUND('',#260,.T.);
#155=FACE_BOUND('',#261,.T.);
#156=FACE_BOUND('',#262,.T.);
#157=FACE_BOUND('',#263,.T.);
#158=FACE_BOUND('',#264,.T.);
#159=FACE_BOUND('',#265,.T.);
#160=FACE_BOUND('',#266,.T.);
#161=FACE_BOUND('',#267,.T.);
#162=FACE_BOUND('',#268,.T.);
#163=FACE_BOUND('',#269,.T.);
#164=FACE_BOUND('',#270,.T.);
#165=FACE_BOUND('',#271,.T.);
#166=CIRCLE('',#441,2.5);
#167=CIRCLE('',#442,2.5);
#168=CIRCLE('',#443,2.5);
#169=CIRCLE('',#444,2.5);
#170=CIRCLE('',#445,2.5);
#171=CIRCLE('',#446,2.5);
#172=CIRCLE('',#447,2.5);
#173=CIRCLE('',#448,2.5);
#174=CIRCLE('',#449,2.5);
#175=CIRCLE('',#450,2.49999999999994);
#176=CIRCLE('',#451,2.49999999999994);
#177=CIRCLE('',#452,2.5);
#178=CIRCLE('',#454,2.5);
#179=CIRCLE('',#455,2.5);
#180=CIRCLE('',#456,2.5);
#181=CIRCLE('',#457,2.5);
#182=CIRCLE('',#458,2.5);
#183=CIRCLE('',#459,2.5);
#184=CIRCLE('',#460,2.5);
#185=CIRCLE('',#461,2.5);
#186=CIRCLE('',#462,2.5);
#187=CIRCLE('',#463,2.49999999999994);
#188=CIRCLE('',#464,2.49999999999994);
#189=CIRCLE('',#465,2.5);
#190=ADVANCED_FACE('',(#214),#208,.T.);
#191=ADVANCED_FACE('',(#215),#209,.T.);
#192=ADVANCED_FACE('',(#216),#210,.T.);
#193=ADVANCED_FACE('',(#217),#211,.T.);
#194=ADVANCED_FACE('',(#116,#117,#118,#119,#120,#121,#122,#123,#124,#125,
#126,#127,#128),#212,.F.);
#195=ADVANCED_FACE('',(#129,#130,#131,#132,#133,#134,#135,#136,#137,#138,
#139,#140,#141),#213,.T.);
#196=ADVANCED_FACE('',(#142,#143),#104,.F.);
#197=ADVANCED_FACE('',(#144,#145),#105,.F.);
#198=ADVANCED_FACE('',(#146,#147),#106,.F.);
#199=ADVANCED_FACE('',(#148,#149),#107,.F.);
#200=ADVANCED_FACE('',(#150,#151),#108,.F.);
#201=ADVANCED_FACE('',(#152,#153),#109,.F.);
#202=ADVANCED_FACE('',(#154,#155),#110,.F.);
#203=ADVANCED_FACE('',(#156,#157),#111,.F.);
#204=ADVANCED_FACE('',(#158,#159),#112,.F.);
#205=ADVANCED_FACE('',(#160,#161),#113,.F.);
#206=ADVANCED_FACE('',(#162,#163),#114,.F.);
#207=ADVANCED_FACE('',(#164,#165),#115,.F.);
#208=PLANE('',#437);
#209=PLANE('',#438);
#210=PLANE('',#439);
#211=PLANE('',#440);
#212=PLANE('',#453);
#213=PLANE('',#466);
#214=FACE_OUTER_BOUND('',#218,.T.);
#215=FACE_OUTER_BOUND('',#219,.T.);
#216=FACE_OUTER_BOUND('',#220,.T.);
#217=FACE_OUTER_BOUND('',#221,.T.);
#218=EDGE_LOOP('',(#272,#273,#274,#275));
#219=EDGE_LOOP('',(#276,#277,#278,#279));
#220=EDGE_LOOP('',(#280,#281,#282,#283));
#221=EDGE_LOOP('',(#284,#285,#286,#287));
#222=EDGE_LOOP('',(#288));
#223=EDGE_LOOP('',(#289));
#224=EDGE_LOOP('',(#290));
#225=EDGE_LOOP('',(#291));
#226=EDGE_LOOP('',(#292));
#227=EDGE_LOOP('',(#293));
#228=EDGE_LOOP('',(#294));
#229=EDGE_LOOP('',(#295));
#230=EDGE_LOOP('',(#296));
#231=EDGE_LOOP('',(#297));
#232=EDGE_LOOP('',(#298));
#233=EDGE_LOOP('',(#299));
#234=EDGE_LOOP('',(#300,#301,#302,#303));
#235=EDGE_LOOP('',(#304));
#236=EDGE_LOOP('',(#305));
#237=EDGE_LOOP('',(#306));
#238=EDGE_LOOP('',(#307));
#239=EDGE_LOOP('',(#308));
#240=EDGE_LOOP('',(#309));
#241=EDGE_LOOP('',(#310));
#242=EDGE_LOOP('',(#311));
#243=EDGE_LOOP('',(#312));
#244=EDGE_LOOP('',(#313));
#245=EDGE_LOOP('',(#314));
#246=EDGE_LOOP('',(#315));
#247=EDGE_LOOP('',(#316,#317,#318,#319));
#248=EDGE_LOOP('',(#320));
#249=EDGE_LOOP('',(#321));
#250=EDGE_LOOP('',(#322));
#251=EDGE_LOOP('',(#323));
#252=EDGE_LOOP('',(#324));
#253=EDGE_LOOP('',(#325));
#254=EDGE_LOOP('',(#326));
#255=EDGE_LOOP('',(#327));
#256=EDGE_LOOP('',(#328));
#257=EDGE_LOOP('',(#329));
#258=EDGE_LOOP('',(#330));
#259=EDGE_LOOP('',(#331));
#260=EDGE_LOOP('',(#332));
#261=EDGE_LOOP('',(#333));
#262=EDGE_LOOP('',(#334));
#263=EDGE_LOOP('',(#335));
#264=EDGE_LOOP('',(#336));
#265=EDGE_LOOP('',(#337));
#266=EDGE_LOOP('',(#338));
#267=EDGE_LOOP('',(#339));
#268=EDGE_LOOP('',(#340));
#269=EDGE_LOOP('',(#341));
#270=EDGE_LOOP('',(#342));
#271=EDGE_LOOP('',(#343));
#272=ORIENTED_EDGE('',*,*,#376,.F.);
#273=ORIENTED_EDGE('',*,*,#377,.F.);
#274=ORIENTED_EDGE('',*,*,#378,.T.);
#275=ORIENTED_EDGE('',*,*,#379,.T.);
#276=ORIENTED_EDGE('',*,*,#380,.F.);
#277=ORIENTED_EDGE('',*,*,#379,.F.);
#278=ORIENTED_EDGE('',*,*,#381,.T.);
#279=ORIENTED_EDGE('',*,*,#382,.T.);
#280=ORIENTED_EDGE('',*,*,#383,.F.);
#281=ORIENTED_EDGE('',*,*,#382,.F.);
#282=ORIENTED_EDGE('',*,*,#384,.T.);
#283=ORIENTED_EDGE('',*,*,#385,.T.);
#284=ORIENTED_EDGE('',*,*,#386,.F.);
#285=ORIENTED_EDGE('',*,*,#385,.F.);
#286=ORIENTED_EDGE('',*,*,#387,.T.);
#287=ORIENTED_EDGE('',*,*,#377,.T.);
#288=ORIENTED_EDGE('',*,*,#388,.F.);
#289=ORIENTED_EDGE('',*,*,#389,.F.);
#290=ORIENTED_EDGE('',*,*,#390,.F.);
#291=ORIENTED_EDGE('',*,*,#391,.F.);
#292=ORIENTED_EDGE('',*,*,#392,.F.);
#293=ORIENTED_EDGE('',*,*,#393,.F.);
#294=ORIENTED_EDGE('',*,*,#394,.F.);
#295=ORIENTED_EDGE('',*,*,#395,.F.);
#296=ORIENTED_EDGE('',*,*,#396,.F.);
#297=ORIENTED_EDGE('',*,*,#397,.F.);
#298=ORIENTED_EDGE('',*,*,#398,.F.);
#299=ORIENTED_EDGE('',*,*,#399,.F.);
#300=ORIENTED_EDGE('',*,*,#378,.F.);
#301=ORIENTED_EDGE('',*,*,#387,.F.);
#302=ORIENTED_EDGE('',*,*,#384,.F.);
#303=ORIENTED_EDGE('',*,*,#381,.F.);
#304=ORIENTED_EDGE('',*,*,#400,.F.);
#305=ORIENTED_EDGE('',*,*,#401,.F.);
#306=ORIENTED_EDGE('',*,*,#402,.F.);
#307=ORIENTED_EDGE('',*,*,#403,.F.);
#308=ORIENTED_EDGE('',*,*,#404,.F.);
#309=ORIENTED_EDGE('',*,*,#405,.F.);
#310=ORIENTED_EDGE('',*,*,#406,.F.);
#311=ORIENTED_EDGE('',*,*,#407,.F.);
#312=ORIENTED_EDGE('',*,*,#408,.T.);
#313=ORIENTED_EDGE('',*,*,#409,.T.);
#314=ORIENTED_EDGE('',*,*,#410,.T.);
#315=ORIENTED_EDGE('',*,*,#411,.T.);
#316=ORIENTED_EDGE('',*,*,#376,.T.);
#317=ORIENTED_EDGE('',*,*,#380,.T.);
#318=ORIENTED_EDGE('',*,*,#383,.T.);
#319=ORIENTED_EDGE('',*,*,#386,.T.);
#320=ORIENTED_EDGE('',*,*,#399,.T.);
#321=ORIENTED_EDGE('',*,*,#411,.F.);
#322=ORIENTED_EDGE('',*,*,#398,.T.);
#323=ORIENTED_EDGE('',*,*,#410,.F.);
#324=ORIENTED_EDGE('',*,*,#397,.T.);
#325=ORIENTED_EDGE('',*,*,#409,.F.);
#326=ORIENTED_EDGE('',*,*,#396,.T.);
#327=ORIENTED_EDGE('',*,*,#408,.F.);
#328=ORIENTED_EDGE('',*,*,#407,.T.);
#329=ORIENTED_EDGE('',*,*,#395,.T.);
#330=ORIENTED_EDGE('',*,*,#406,.T.);
#331=ORIENTED_EDGE('',*,*,#394,.T.);
#332=ORIENTED_EDGE('',*,*,#405,.T.);
#333=ORIENTED_EDGE('',*,*,#393,.T.);
#334=ORIENTED_EDGE('',*,*,#404,.T.);
#335=ORIENTED_EDGE('',*,*,#392,.T.);
#336=ORIENTED_EDGE('',*,*,#403,.T.);
#337=ORIENTED_EDGE('',*,*,#391,.T.);
#338=ORIENTED_EDGE('',*,*,#402,.T.);
#339=ORIENTED_EDGE('',*,*,#390,.T.);
#340=ORIENTED_EDGE('',*,*,#401,.T.);
#341=ORIENTED_EDGE('',*,*,#389,.T.);
#342=ORIENTED_EDGE('',*,*,#400,.T.);
#343=ORIENTED_EDGE('',*,*,#388,.T.);
#344=VERTEX_POINT('',#579);
#345=VERTEX_POINT('',#580);
#346=VERTEX_POINT('',#582);
#347=VERTEX_POINT('',#584);
#348=VERTEX_POINT('',#588);
#349=VERTEX_POINT('',#590);
#350=VERTEX_POINT('',#594);
#351=VERTEX_POINT('',#596);
#352=VERTEX_POINT('',#603);
#353=VERTEX_POINT('',#605);
#354=VERTEX_POINT('',#607);
#355=VERTEX_POINT('',#609);
#356=VERTEX_POINT('',#611);
#357=VERTEX_POINT('',#613);
#358=VERTEX_POINT('',#615);
#359=VERTEX_POINT('',#617);
#360=VERTEX_POINT('',#619);
#361=VERTEX_POINT('',#621);
#362=VERTEX_POINT('',#623);
#363=VERTEX_POINT('',#625);
#364=VERTEX_POINT('',#628);
#365=VERTEX_POINT('',#630);
#366=VERTEX_POINT('',#632);
#367=VERTEX_POINT('',#634);
#368=VERTEX_POINT('',#636);
#369=VERTEX_POINT('',#638);
#370=VERTEX_POINT('',#640);
#371=VERTEX_POINT('',#642);
#372=VERTEX_POINT('',#644);
#373=VERTEX_POINT('',#646);
#374=VERTEX_POINT('',#648);
#375=VERTEX_POINT('',#650);
#376=EDGE_CURVE('',#344,#345,#412,.T.);
#377=EDGE_CURVE('',#346,#344,#413,.T.);
#378=EDGE_CURVE('',#346,#347,#414,.T.);
#379=EDGE_CURVE('',#347,#345,#415,.T.);
#380=EDGE_CURVE('',#345,#348,#416,.T.);
#381=EDGE_CURVE('',#347,#349,#417,.T.);
#382=EDGE_CURVE('',#349,#348,#418,.T.);
#383=EDGE_CURVE('',#348,#350,#419,.T.);
#384=EDGE_CURVE('',#349,#351,#420,.T.);
#385=EDGE_CURVE('',#351,#350,#421,.T.);
#386=EDGE_CURVE('',#350,#344,#422,.T.);
#387=EDGE_CURVE('',#351,#346,#423,.T.);
#388=EDGE_CURVE('',#352,#352,#166,.T.);
#389=EDGE_CURVE('',#353,#353,#167,.T.);
#390=EDGE_CURVE('',#354,#354,#168,.T.);
#391=EDGE_CURVE('',#355,#355,#169,.T.);
#392=EDGE_CURVE('',#356,#356,#170,.T.);
#393=EDGE_CURVE('',#357,#357,#171,.T.);
#394=EDGE_CURVE('',#358,#358,#172,.T.);
#395=EDGE_CURVE('',#359,#359,#173,.T.);
#396=EDGE_CURVE('',#360,#360,#174,.T.);
#397=EDGE_CURVE('',#361,#361,#175,.T.);
#398=EDGE_CURVE('',#362,#362,#176,.T.);
#399=EDGE_CURVE('',#363,#363,#177,.T.);
#400=EDGE_CURVE('',#364,#364,#178,.T.);
#401=EDGE_CURVE('',#365,#365,#179,.T.);
#402=EDGE_CURVE('',#366,#366,#180,.T.);
#403=EDGE_CURVE('',#367,#367,#181,.T.);
#404=EDGE_CURVE('',#368,#368,#182,.T.);
#405=EDGE_CURVE('',#369,#369,#183,.T.);
#406=EDGE_CURVE('',#370,#370,#184,.T.);
#407=EDGE_CURVE('',#371,#371,#185,.T.);
#408=EDGE_CURVE('',#372,#372,#186,.T.);
#409=EDGE_CURVE('',#373,#373,#187,.T.);
#410=EDGE_CURVE('',#374,#374,#188,.T.);
#411=EDGE_CURVE('',#375,#375,#189,.T.);
#412=LINE('',#578,#424);
#413=LINE('',#581,#425);
#414=LINE('',#583,#426);
#415=LINE('',#585,#427);
#416=LINE('',#587,#428);
#417=LINE('',#589,#429);
#418=LINE('',#591,#430);
#419=LINE('',#593,#431);
#420=LINE('',#595,#432);
#421=LINE('',#597,#433);
#422=LINE('',#599,#434);
#423=LINE('',#600,#435);
#424=VECTOR('',#481,1.);
#425=VECTOR('',#482,1.);
#426=VECTOR('',#483,1.);
#427=VECTOR('',#484,1.);
#428=VECTOR('',#487,1.);
#429=VECTOR('',#488,1.);
#430=VECTOR('',#489,1.);
#431=VECTOR('',#492,1.);
#432=VECTOR('',#493,1.);
#433=VECTOR('',#494,1.);
#434=VECTOR('',#497,1.);
#435=VECTOR('',#498,1.);
#436=AXIS2_PLACEMENT_3D('',#577,#479,#480);
#437=AXIS2_PLACEMENT_3D('',#586,#485,#486);
#438=AXIS2_PLACEMENT_3D('',#592,#490,#491);
#439=AXIS2_PLACEMENT_3D('',#598,#495,#496);
#440=AXIS2_PLACEMENT_3D('',#601,#499,#500);
#441=AXIS2_PLACEMENT_3D('',#602,#501,#502);
#442=AXIS2_PLACEMENT_3D('',#604,#503,#504);
#443=AXIS2_PLACEMENT_3D('',#606,#505,#506);
#444=AXIS2_PLACEMENT_3D('',#608,#507,#508);
#445=AXIS2_PLACEMENT_3D('',#610,#509,#510);
#446=AXIS2_PLACEMENT_3D('',#612,#511,#512);
#447=AXIS2_PLACEMENT_3D('',#614,#513,#514);
#448=AXIS2_PLACEMENT_3D('',#616,#515,#516);
#449=AXIS2_PLACEMENT_3D('',#618,#517,#518);
#450=AXIS2_PLACEMENT_3D('',#620,#519,#520);
#451=AXIS2_PLACEMENT_3D('',#622,#521,#522);
#452=AXIS2_PLACEMENT_3D('',#624,#523,#524);
#453=AXIS2_PLACEMENT_3D('',#626,#525,#526);
#454=AXIS2_PLACEMENT_3D('',#627,#527,#528);
#455=AXIS2_PLACEMENT_3D('',#629,#529,#530);
#456=AXIS2_PLACEMENT_3D('',#631,#531,#532);
#457=AXIS2_PLACEMENT_3D('',#633,#533,#534);
#458=AXIS2_PLACEMENT_3D('',#635,#535,#536);
#459=AXIS2_PLACEMENT_3D('',#637,#537,#538);
#460=AXIS2_PLACEMENT_3D('',#639,#539,#540);
#461=AXIS2_PLACEMENT_3D('',#641,#541,#542);
#462=AXIS2_PLACEMENT_3D('',#643,#543,#544);
#463=AXIS2_PLACEMENT_3D('',#645,#545,#546);
#464=AXIS2_PLACEMENT_3D('',#647,#547,#548);
#465=AXIS2_PLACEMENT_3D('',#649,#549,#550);
#466=AXIS2_PLACEMENT_3D('',#651,#551,#552);
#467=AXIS2_PLACEMENT_3D('',#652,#553,#554);
#468=AXIS2_PLACEMENT_3D('',#653,#555,#556);
#469=AXIS2_PLACEMENT_3D('',#654,#557,#558);
#470=AXIS2_PLACEMENT_3D('',#655,#559,#560);
#471=AXIS2_PLACEMENT_3D('',#656,#561,#562);
#472=AXIS2_PLACEMENT_3D('',#657,#563,#564);
#473=AXIS2_PLACEMENT_3D('',#658,#565,#566);
#474=AXIS2_PLACEMENT_3D('',#659,#567,#568);
#475=AXIS2_PLACEMENT_3D('',#660,#569,#570);
#476=AXIS2_PLACEMENT_3D('',#661,#571,#572);
#477=AXIS2_PLACEMENT_3D('',#662,#573,#574);
#478=AXIS2_PLACEMENT_3D('',#663,#575,#576);
#479=DIRECTION('',(0.,0.,1.));
#480=DIRECTION('',(1.,0.,0.));
#481=DIRECTION('',(1.,1.5681116167022E-16,0.));
#482=DIRECTION('',(0.,0.,-1.));
#483=DIRECTION('',(1.,1.5681116167022E-16,0.));
#484=DIRECTION('',(0.,0.,-1.));
#485=DIRECTION('',(-1.5681116167022E-16,1.,0.));
#486=DIRECTION('',(-1.,-1.66533453693773E-16,0.));
#487=DIRECTION('',(0.,-1.,0.));
#488=DIRECTION('',(0.,-1.,0.));
#489=DIRECTION('',(0.,0.,-1.));
#490=DIRECTION('',(1.,0.,0.));
#491=DIRECTION('',(0.,0.,-1.));
#492=DIRECTION('',(-1.,0.,0.));
#493=DIRECTION('',(-1.,0.,0.));
#494=DIRECTION('',(0.,0.,-1.));
#495=DIRECTION('',(0.,-1.,0.));
#496=DIRECTION('',(0.,0.,-1.));
#497=DIRECTION('',(-2.97657208126093E-17,1.,0.));
#498=DIRECTION('',(-2.97657208126093E-17,1.,0.));
#499=DIRECTION('',(-1.,-2.97657208126093E-17,0.));
#500=DIRECTION('',(2.97657208126093E-17,-1.,0.));
#501=DIRECTION('',(0.,0.,1.));
#502=DIRECTION('',(1.,0.,0.));
#503=DIRECTION('',(0.,0.,1.));
#504=DIRECTION('',(0.999999999999979,0.,0.));
#505=DIRECTION('',(0.,0.,1.));
#506=DIRECTION('',(0.999999999999979,0.,0.));
#507=DIRECTION('',(0.,0.,1.));
#508=DIRECTION('',(0.999999999999979,0.,0.));
#509=DIRECTION('',(0.,0.,1.));
#510=DIRECTION('',(1.,0.,0.));
#511=DIRECTION('',(0.,0.,1.));
#512=DIRECTION('',(1.,0.,0.));
#513=DIRECTION('',(0.,0.,1.));
#514=DIRECTION('',(1.,0.,0.));
#515=DIRECTION('',(0.,0.,1.));
#516=DIRECTION('',(0.999999999999979,0.,0.));
#517=DIRECTION('',(0.,0.,1.));
#518=DIRECTION('',(1.,0.,0.));
#519=DIRECTION('',(0.,0.,1.));
#520=DIRECTION('',(1.,0.,0.));
#521=DIRECTION('',(0.,0.,1.));
#522=DIRECTION('',(1.,0.,0.));
#523=DIRECTION('',(0.,0.,1.));
#524=DIRECTION('',(1.,0.,0.));
#525=DIRECTION('',(0.,0.,-1.));
#526=DIRECTION('',(-1.,0.,0.));
#527=DIRECTION('',(0.,0.,-1.));
#528=DIRECTION('',(-1.,0.,0.));
#529=DIRECTION('',(0.,0.,-1.));
#530=DIRECTION('',(-0.999999999999979,0.,0.));
#531=DIRECTION('',(0.,0.,-1.));
#532=DIRECTION('',(-0.999999999999979,0.,0.));
#533=DIRECTION('',(0.,0.,-1.));
#534=DIRECTION('',(-0.999999999999979,0.,0.));
#535=DIRECTION('',(0.,0.,-1.));
#536=DIRECTION('',(-1.,0.,0.));
#537=DIRECTION('',(0.,0.,-1.));
#538=DIRECTION('',(-1.,0.,0.));
#539=DIRECTION('',(0.,0.,-1.));
#540=DIRECTION('',(-1.,0.,0.));
#541=DIRECTION('',(0.,0.,-1.));
#542=DIRECTION('',(-0.999999999999979,0.,0.));
#543=DIRECTION('',(0.,0.,1.));
#544=DIRECTION('',(1.,0.,0.));
#545=DIRECTION('',(0.,0.,1.));
#546=DIRECTION('',(1.,0.,0.));
#547=DIRECTION('',(0.,0.,1.));
#548=DIRECTION('',(1.,0.,0.));
#549=DIRECTION('',(0.,0.,1.));
#550=DIRECTION('',(1.,0.,0.));
#551=DIRECTION('',(0.,0.,-1.));
#552=DIRECTION('',(-1.,0.,0.));
#553=DIRECTION('',(0.,0.,-1.));
#554=DIRECTION('',(-1.,0.,0.));
#555=DIRECTION('',(0.,0.,-1.));
#556=DIRECTION('',(-1.,0.,0.));
#557=DIRECTION('',(0.,0.,-1.));
#558=DIRECTION('',(-1.,0.,0.));
#559=DIRECTION('',(0.,0.,-1.));
#560=DIRECTION('',(-1.,0.,0.));
#561=DIRECTION('',(0.,0.,1.));
#562=DIRECTION('',(0.999999999999979,0.,0.));
#563=DIRECTION('',(0.,0.,1.));
#564=DIRECTION('',(1.,0.,0.));
#565=DIRECTION('',(0.,0.,1.));
#566=DIRECTION('',(1.,0.,0.));
#567=DIRECTION('',(0.,0.,1.));
#568=DIRECTION('',(1.,0.,0.));
#569=DIRECTION('',(0.,0.,1.));
#570=DIRECTION('',(0.999999999999979,0.,0.));
#571=DIRECTION('',(0.,0.,1.));
#572=DIRECTION('',(0.999999999999979,0.,0.));
#573=DIRECTION('',(0.,0.,1.));
#574=DIRECTION('',(0.999999999999979,0.,0.));
#575=DIRECTION('',(0.,0.,1.));
#576=DIRECTION('',(1.,0.,0.));
#577=CARTESIAN_POINT('',(0.,0.,0.));
#578=CARTESIAN_POINT('',(0.,180.,0.));
#579=CARTESIAN_POINT('',(0.,180.,0.));
#580=CARTESIAN_POINT('',(708.,180.,0.));
#581=CARTESIAN_POINT('',(0.,180.,5.));
#582=CARTESIAN_POINT('',(0.,180.,5.));
#583=CARTESIAN_POINT('',(0.,180.,5.));
#584=CARTESIAN_POINT('',(708.,180.,5.));
#585=CARTESIAN_POINT('',(708.,180.,5.));
#586=CARTESIAN_POINT('',(0.,180.,5.));
#587=CARTESIAN_POINT('',(708.,180.,0.));
#588=CARTESIAN_POINT('',(708.,0.,0.));
#589=CARTESIAN_POINT('',(708.,180.,5.));
#590=CARTESIAN_POINT('',(708.,0.,5.));
#591=CARTESIAN_POINT('',(708.,0.,5.));
#592=CARTESIAN_POINT('',(708.,180.,5.));
#593=CARTESIAN_POINT('',(708.,0.,0.));
#594=CARTESIAN_POINT('',(0.,0.,0.));
#595=CARTESIAN_POINT('',(708.,0.,5.));
#596=CARTESIAN_POINT('',(0.,0.,5.));
#597=CARTESIAN_POINT('',(0.,0.,5.));
#598=CARTESIAN_POINT('',(708.,0.,5.));
#599=CARTESIAN_POINT('',(0.,0.,0.));
#600=CARTESIAN_POINT('',(0.,0.,5.));
#601=CARTESIAN_POINT('',(0.,0.,5.));
#602=CARTESIAN_POINT('',(172.,59.4999999999999,5.));
#603=CARTESIAN_POINT('',(174.5,59.4999999999999,5.));
#604=CARTESIAN_POINT('',(536.,39.5,5.));
#605=CARTESIAN_POINT('',(538.5,39.5,5.));
#606=CARTESIAN_POINT('',(536.,59.5,5.));
#607=CARTESIAN_POINT('',(538.5,59.5,5.));
#608=CARTESIAN_POINT('',(590.,39.5000000000001,5.));
#609=CARTESIAN_POINT('',(592.5,39.5000000000001,5.));
#610=CARTESIAN_POINT('',(118.,39.4999999999999,5.));
#611=CARTESIAN_POINT('',(120.5,39.4999999999999,5.));
#612=CARTESIAN_POINT('',(118.,59.4999999999999,5.));
#613=CARTESIAN_POINT('',(120.5,59.4999999999999,5.));
#614=CARTESIAN_POINT('',(172.,39.4999999999999,5.));
#615=CARTESIAN_POINT('',(174.5,39.4999999999999,5.));
#616=CARTESIAN_POINT('',(590.,59.5000000000001,5.));
#617=CARTESIAN_POINT('',(592.5,59.5000000000001,5.));
#618=CARTESIAN_POINT('',(358.,140.,5.));
#619=CARTESIAN_POINT('',(360.5,140.,5.));
#620=CARTESIAN_POINT('',(318.,170.,5.));
#621=CARTESIAN_POINT('',(320.5,170.,5.));
#622=CARTESIAN_POINT('',(318.,140.,5.));
#623=CARTESIAN_POINT('',(320.5,140.,5.));
#624=CARTESIAN_POINT('',(358.,170.,5.));
#625=CARTESIAN_POINT('',(360.5,170.,5.));
#626=CARTESIAN_POINT('',(0.,0.,5.));
#627=CARTESIAN_POINT('',(172.,59.4999999999999,0.));
#628=CARTESIAN_POINT('',(169.5,59.4999999999999,0.));
#629=CARTESIAN_POINT('',(536.,39.5,0.));
#630=CARTESIAN_POINT('',(533.5,39.5,0.));
#631=CARTESIAN_POINT('',(536.,59.5,0.));
#632=CARTESIAN_POINT('',(533.5,59.5,0.));
#633=CARTESIAN_POINT('',(590.,39.5000000000001,0.));
#634=CARTESIAN_POINT('',(587.5,39.5000000000001,0.));
#635=CARTESIAN_POINT('',(118.,39.4999999999999,0.));
#636=CARTESIAN_POINT('',(115.5,39.4999999999999,0.));
#637=CARTESIAN_POINT('',(118.,59.4999999999999,0.));
#638=CARTESIAN_POINT('',(115.5,59.4999999999999,0.));
#639=CARTESIAN_POINT('',(172.,39.4999999999999,0.));
#640=CARTESIAN_POINT('',(169.5,39.4999999999999,0.));
#641=CARTESIAN_POINT('',(590.,59.5000000000001,0.));
#642=CARTESIAN_POINT('',(587.5,59.5000000000001,0.));
#643=CARTESIAN_POINT('',(358.,140.,0.));
#644=CARTESIAN_POINT('',(360.5,140.,0.));
#645=CARTESIAN_POINT('',(318.,170.,0.));
#646=CARTESIAN_POINT('',(320.5,170.,0.));
#647=CARTESIAN_POINT('',(318.,140.,0.));
#648=CARTESIAN_POINT('',(320.5,140.,0.));
#649=CARTESIAN_POINT('',(358.,170.,0.));
#650=CARTESIAN_POINT('',(360.5,170.,0.));
#651=CARTESIAN_POINT('',(0.,0.,0.));
#652=CARTESIAN_POINT('',(358.,170.,5.));
#653=CARTESIAN_POINT('',(318.,140.,5.));
#654=CARTESIAN_POINT('',(318.,170.,5.));
#655=CARTESIAN_POINT('',(358.,140.,5.));
#656=CARTESIAN_POINT('',(590.,59.5000000000001,-0.5));
#657=CARTESIAN_POINT('',(172.,39.4999999999999,-0.5));
#658=CARTESIAN_POINT('',(118.,59.4999999999999,-0.5));
#659=CARTESIAN_POINT('',(118.,39.4999999999999,-0.5));
#660=CARTESIAN_POINT('',(590.,39.5000000000001,-0.5));
#661=CARTESIAN_POINT('',(536.,59.5,-0.5));
#662=CARTESIAN_POINT('',(536.,39.5,-0.5));
#663=CARTESIAN_POINT('',(172.,59.4999999999999,-0.5));
#664=MECHANICAL_DESIGN_GEOMETRIC_PRESENTATION_REPRESENTATION('',(#94),#665);
#665=(
GEOMETRIC_REPRESENTATION_CONTEXT(3)
GLOBAL_UNCERTAINTY_ASSIGNED_CONTEXT((#666))
GLOBAL_UNIT_ASSIGNED_CONTEXT((#672,#668,#667))
REPRESENTATION_CONTEXT('Collector Housing Plate Back 2 v1',
'TOP_LEVEL_ASSEMBLY_PART')
);
#666=UNCERTAINTY_MEASURE_WITH_UNIT(LENGTH_MEASURE(2.E-5),#672,
'DISTANCE_ACCURACY_VALUE','Maximum Tolerance applied to model');
#667=(
NAMED_UNIT(*)
SI_UNIT($,.STERADIAN.)
SOLID_ANGLE_UNIT()
);
#668=(
CONVERSION_BASED_UNIT('DEGREE',#670)
NAMED_UNIT(#669)
PLANE_ANGLE_UNIT()
);
#669=DIMENSIONAL_EXPONENTS(0.,0.,0.,0.,0.,0.,0.);
#670=PLANE_ANGLE_MEASURE_WITH_UNIT(PLANE_ANGLE_MEASURE(0.0174532925),#671);
#671=(
NAMED_UNIT(*)
PLANE_ANGLE_UNIT()
SI_UNIT($,.RADIAN.)
);
#672=(
LENGTH_UNIT()
NAMED_UNIT(*)
SI_UNIT(.MILLI.,.METRE.)
);
ENDSEC;
END-ISO-10303-21;
