ISO-10303-21;
HEADER;
/* Generated by software containing ST-Developer
 * from STEP Tools, Inc. (www.steptools.com) 
 */
/* OPTION: using custom schema-name function */

FILE_DESCRIPTION(
/* description */ (''),
/* implementation_level */ '2;1');

FILE_NAME(
/* name */ 'Collector Housing Plate Back 1 v1.2.stp',
/* time_stamp */ '2021-05-13T18:38:27+02:00',
/* author */ (''),
/* organization */ (''),
/* preprocessor_version */ 'ST-DEVELOPER v16.7',
/* originating_system */ 'SIEMENS PLM Software NX 12.0',
/* authorisation */ '');

FILE_SCHEMA (('AP203_CONFIGURATION_CONTROLLED_3D_DESIGN_OF_MECHANICAL_PARTS_AND_ASSEMBLIES_MIM_LF { 1 0 10303 403 2 1 2}'));
ENDSEC;

DATA;
#10=SHAPE_REPRESENTATION_RELATIONSHIP('None',
'relationship between Collector Housing Plate Back 1 v1.2-None and Col
lector Housing Plate Back 1 v1.2-None',#92,#11);
#11=ADVANCED_BREP_SHAPE_REPRESENTATION(
'Collector Housing Plate Back 1 v1.2-None',(#102),#1014);
#12=CC_DESIGN_APPROVAL(#24,(#82));
#13=CC_DESIGN_APPROVAL(#25,(#84));
#14=CC_DESIGN_APPROVAL(#26,(#31));
#15=APPROVAL_PERSON_ORGANIZATION(#69,#24,#18);
#16=APPROVAL_PERSON_ORGANIZATION(#70,#25,#19);
#17=APPROVAL_PERSON_ORGANIZATION(#71,#26,#20);
#18=APPROVAL_ROLE('approver');
#19=APPROVAL_ROLE('approver');
#20=APPROVAL_ROLE('approver');
#21=APPROVAL_DATE_TIME(#39,#24);
#22=APPROVAL_DATE_TIME(#40,#25);
#23=APPROVAL_DATE_TIME(#41,#26);
#24=APPROVAL(#27,' ');
#25=APPROVAL(#28,' ');
#26=APPROVAL(#29,' ');
#27=APPROVAL_STATUS('not_yet_approved');
#28=APPROVAL_STATUS('not_yet_approved');
#29=APPROVAL_STATUS('not_yet_approved');
#30=CC_DESIGN_SECURITY_CLASSIFICATION(#31,(#84));
#31=SECURITY_CLASSIFICATION(' ',' ',#32);
#32=SECURITY_CLASSIFICATION_LEVEL('confidential');
#33=CC_DESIGN_DATE_AND_TIME_ASSIGNMENT(#37,#35,(#82));
#34=CC_DESIGN_DATE_AND_TIME_ASSIGNMENT(#38,#36,(#31));
#35=DATE_TIME_ROLE('creation_date');
#36=DATE_TIME_ROLE('classification_date');
#37=DATE_AND_TIME(#52,#42);
#38=DATE_AND_TIME(#53,#43);
#39=DATE_AND_TIME(#54,#44);
#40=DATE_AND_TIME(#55,#45);
#41=DATE_AND_TIME(#56,#46);
#42=LOCAL_TIME(0,0,0.,#47);
#43=LOCAL_TIME(0,0,0.,#48);
#44=LOCAL_TIME(0,0,0.,#49);
#45=LOCAL_TIME(0,0,0.,#50);
#46=LOCAL_TIME(0,0,0.,#51);
#47=COORDINATED_UNIVERSAL_TIME_OFFSET(0,0,.BEHIND.);
#48=COORDINATED_UNIVERSAL_TIME_OFFSET(0,0,.BEHIND.);
#49=COORDINATED_UNIVERSAL_TIME_OFFSET(0,0,.BEHIND.);
#50=COORDINATED_UNIVERSAL_TIME_OFFSET(0,0,.BEHIND.);
#51=COORDINATED_UNIVERSAL_TIME_OFFSET(0,0,.BEHIND.);
#52=CALENDAR_DATE(0,1,1);
#53=CALENDAR_DATE(0,1,1);
#54=CALENDAR_DATE(0,1,1);
#55=CALENDAR_DATE(0,1,1);
#56=CALENDAR_DATE(0,1,1);
#57=CC_DESIGN_PERSON_AND_ORGANIZATION_ASSIGNMENT(#65,#61,(#82,#84));
#58=CC_DESIGN_PERSON_AND_ORGANIZATION_ASSIGNMENT(#66,#62,(#86));
#59=CC_DESIGN_PERSON_AND_ORGANIZATION_ASSIGNMENT(#67,#63,(#84));
#60=CC_DESIGN_PERSON_AND_ORGANIZATION_ASSIGNMENT(#68,#64,(#31));
#61=PERSON_AND_ORGANIZATION_ROLE('creator');
#62=PERSON_AND_ORGANIZATION_ROLE('design_owner');
#63=PERSON_AND_ORGANIZATION_ROLE('design_supplier');
#64=PERSON_AND_ORGANIZATION_ROLE('classification_officer');
#65=PERSON_AND_ORGANIZATION(#79,#72);
#66=PERSON_AND_ORGANIZATION(#79,#73);
#67=PERSON_AND_ORGANIZATION(#79,#74);
#68=PERSON_AND_ORGANIZATION(#79,#75);
#69=PERSON_AND_ORGANIZATION(#79,#76);
#70=PERSON_AND_ORGANIZATION(#79,#77);
#71=PERSON_AND_ORGANIZATION(#79,#78);
#72=ORGANIZATION(' ',' ',' ');
#73=ORGANIZATION(' ',' ',' ');
#74=ORGANIZATION(' ',' ',' ');
#75=ORGANIZATION(' ',' ',' ');
#76=ORGANIZATION(' ',' ',' ');
#77=ORGANIZATION(' ',' ',' ');
#78=ORGANIZATION(' ',' ',' ');
#79=PERSON(' ',' ',' ',(' '),$,$);
#80=SHAPE_DEFINITION_REPRESENTATION(#81,#92);
#81=PRODUCT_DEFINITION_SHAPE('','',#82);
#82=PRODUCT_DEFINITION(' ','',#84,#83);
#83=DESIGN_CONTEXT('',#91,'design');
#84=PRODUCT_DEFINITION_FORMATION_WITH_SPECIFIED_SOURCE(' ',' ',#86,
 .NOT_KNOWN.);
#85=PRODUCT_RELATED_PRODUCT_CATEGORY('detail','',(#86));
#86=PRODUCT('Collector Housing Plate Back 1 v1.2',
'Collector Housing Plate Back 1 v1.2',' ',(#89));
#87=PRODUCT_CATEGORY('part',' ');
#88=PRODUCT_CATEGORY(' ','');
#89=MECHANICAL_CONTEXT(' ',#91,'mechanical');
#90=APPLICATION_PROTOCOL_DEFINITION('international standard',
'config_control_design',2010,#91);
#91=APPLICATION_CONTEXT(
'configuration controlled 3D designs of mechanical parts and assemblie
s');
#92=SHAPE_REPRESENTATION('Collector Housing Plate Back 1 v1.2-None',(#662),
#1014);
#93=PRESENTATION_LAYER_ASSIGNMENT('1','Layer 1',(#102));
#94=STYLED_ITEM('',(#95),#102);
#95=PRESENTATION_STYLE_ASSIGNMENT((#96));
#96=SURFACE_STYLE_USAGE(.BOTH.,#97);
#97=SURFACE_SIDE_STYLE('',(#98));
#98=SURFACE_STYLE_FILL_AREA(#99);
#99=FILL_AREA_STYLE('',(#100));
#100=FILL_AREA_STYLE_COLOUR('',#101);
#101=COLOUR_RGB('Medium Gray',0.490196078431373,0.490196078431373,0.490196078431373);
#102=MANIFOLD_SOLID_BREP('',#103);
#103=CLOSED_SHELL('',(#134,#135,#136,#137,#138,#139,#140,#141,#142,#143,
#144,#145,#146,#147,#148,#149,#150,#151,#152,#153,#154,#155,#156,#157,#158,
#159,#160,#161,#162,#163,#164,#165));
#104=CONICAL_SURFACE('',#697,2.5,45.);
#105=CONICAL_SURFACE('',#698,2.5,45.);
#106=CONICAL_SURFACE('',#699,2.5,45.);
#107=CONICAL_SURFACE('',#700,2.5,45.);
#108=CONICAL_SURFACE('',#701,25.,45.0000000000002);
#109=CYLINDRICAL_SURFACE('',#680,2.5);
#110=CYLINDRICAL_SURFACE('',#682,2.5);
#111=CYLINDRICAL_SURFACE('',#684,2.5);
#112=CYLINDRICAL_SURFACE('',#686,2.5);
#113=CYLINDRICAL_SURFACE('',#688,25.);
#114=FACE_OUTER_BOUND('',#348,.T.);
#115=FACE_OUTER_BOUND('',#349,.T.);
#116=FACE_OUTER_BOUND('',#350,.T.);
#117=FACE_OUTER_BOUND('',#351,.T.);
#118=FACE_OUTER_BOUND('',#362,.T.);
#119=FACE_OUTER_BOUND('',#363,.T.);
#120=FACE_OUTER_BOUND('',#364,.T.);
#121=FACE_OUTER_BOUND('',#365,.T.);
#122=FACE_OUTER_BOUND('',#366,.T.);
#123=FACE_OUTER_BOUND('',#367,.T.);
#124=FACE_OUTER_BOUND('',#368,.T.);
#125=FACE_OUTER_BOUND('',#369,.T.);
#126=FACE_OUTER_BOUND('',#380,.T.);
#127=FACE_OUTER_BOUND('',#381,.T.);
#128=FACE_OUTER_BOUND('',#382,.T.);
#129=FACE_OUTER_BOUND('',#383,.T.);
#130=FACE_OUTER_BOUND('',#384,.T.);
#131=FACE_OUTER_BOUND('',#385,.T.);
#132=FACE_OUTER_BOUND('',#386,.T.);
#133=FACE_OUTER_BOUND('',#387,.T.);
#134=ADVANCED_FACE('',(#298,#299,#300,#301,#302,#303,#304),#166,.F.);
#135=ADVANCED_FACE('',(#305,#306,#307,#308,#309,#310,#311,#312),#167,.T.);
#136=ADVANCED_FACE('',(#114),#168,.T.);
#137=ADVANCED_FACE('',(#115),#169,.T.);
#138=ADVANCED_FACE('',(#116),#170,.T.);
#139=ADVANCED_FACE('',(#117),#171,.T.);
#140=ADVANCED_FACE('',(#313,#314),#109,.F.);
#141=ADVANCED_FACE('',(#315,#316),#110,.F.);
#142=ADVANCED_FACE('',(#317,#318),#111,.F.);
#143=ADVANCED_FACE('',(#319,#320),#112,.F.);
#144=ADVANCED_FACE('',(#321,#322),#113,.F.);
#145=ADVANCED_FACE('',(#118),#172,.T.);
#146=ADVANCED_FACE('',(#119),#173,.T.);
#147=ADVANCED_FACE('',(#120),#174,.T.);
#148=ADVANCED_FACE('',(#121),#175,.T.);
#149=ADVANCED_FACE('',(#122),#176,.F.);
#150=ADVANCED_FACE('',(#123),#177,.F.);
#151=ADVANCED_FACE('',(#124),#178,.F.);
#152=ADVANCED_FACE('',(#125),#179,.F.);
#153=ADVANCED_FACE('',(#323,#324),#104,.F.);
#154=ADVANCED_FACE('',(#325,#326),#105,.F.);
#155=ADVANCED_FACE('',(#327,#328),#106,.F.);
#156=ADVANCED_FACE('',(#329,#330),#107,.F.);
#157=ADVANCED_FACE('',(#331,#332),#108,.F.);
#158=ADVANCED_FACE('',(#126),#180,.F.);
#159=ADVANCED_FACE('',(#127),#181,.T.);
#160=ADVANCED_FACE('',(#128),#182,.F.);
#161=ADVANCED_FACE('',(#129),#183,.F.);
#162=ADVANCED_FACE('',(#130),#184,.F.);
#163=ADVANCED_FACE('',(#131),#185,.T.);
#164=ADVANCED_FACE('',(#132),#186,.T.);
#165=ADVANCED_FACE('',(#133),#187,.T.);
#166=PLANE('',#668);
#167=PLANE('',#674);
#168=PLANE('',#675);
#169=PLANE('',#676);
#170=PLANE('',#677);
#171=PLANE('',#678);
#172=PLANE('',#689);
#173=PLANE('',#690);
#174=PLANE('',#691);
#175=PLANE('',#692);
#176=PLANE('',#693);
#177=PLANE('',#694);
#178=PLANE('',#695);
#179=PLANE('',#696);
#180=PLANE('',#702);
#181=PLANE('',#703);
#182=PLANE('',#704);
#183=PLANE('',#705);
#184=PLANE('',#706);
#185=PLANE('',#707);
#186=PLANE('',#708);
#187=PLANE('',#709);
#188=LINE('',#864,#243);
#189=LINE('',#867,#244);
#190=LINE('',#869,#245);
#191=LINE('',#871,#246);
#192=LINE('',#873,#247);
#193=LINE('',#875,#248);
#194=LINE('',#877,#249);
#195=LINE('',#879,#250);
#196=LINE('',#888,#251);
#197=LINE('',#891,#252);
#198=LINE('',#893,#253);
#199=LINE('',#895,#254);
#200=LINE('',#897,#255);
#201=LINE('',#900,#256);
#202=LINE('',#902,#257);
#203=LINE('',#904,#258);
#204=LINE('',#915,#259);
#205=LINE('',#918,#260);
#206=LINE('',#920,#261);
#207=LINE('',#922,#262);
#208=LINE('',#923,#263);
#209=LINE('',#926,#264);
#210=LINE('',#928,#265);
#211=LINE('',#930,#266);
#212=LINE('',#932,#267);
#213=LINE('',#933,#268);
#214=LINE('',#935,#269);
#215=LINE('',#937,#270);
#216=LINE('',#955,#271);
#217=LINE('',#957,#272);
#218=LINE('',#959,#273);
#219=LINE('',#961,#274);
#220=LINE('',#963,#275);
#221=LINE('',#965,#276);
#222=LINE('',#967,#277);
#223=LINE('',#969,#278);
#224=LINE('',#971,#279);
#225=LINE('',#973,#280);
#226=LINE('',#975,#281);
#227=LINE('',#977,#282);
#228=LINE('',#979,#283);
#229=LINE('',#981,#284);
#230=LINE('',#983,#285);
#231=LINE('',#985,#286);
#232=LINE('',#992,#287);
#233=LINE('',#993,#288);
#234=LINE('',#995,#289);
#235=LINE('',#996,#290);
#236=LINE('',#998,#291);
#237=LINE('',#1000,#292);
#238=LINE('',#1002,#293);
#239=LINE('',#1004,#294);
#240=LINE('',#1006,#295);
#241=LINE('',#1008,#296);
#242=LINE('',#1010,#297);
#243=VECTOR('',#714,1.);
#244=VECTOR('',#715,1.);
#245=VECTOR('',#716,1.);
#246=VECTOR('',#717,1.);
#247=VECTOR('',#718,1.);
#248=VECTOR('',#719,1.);
#249=VECTOR('',#720,1.);
#250=VECTOR('',#721,1.);
#251=VECTOR('',#730,1.);
#252=VECTOR('',#731,1.);
#253=VECTOR('',#732,1.);
#254=VECTOR('',#733,1.);
#255=VECTOR('',#736,1.);
#256=VECTOR('',#737,1.);
#257=VECTOR('',#738,1.);
#258=VECTOR('',#739,1.);
#259=VECTOR('',#750,1.);
#260=VECTOR('',#751,1.);
#261=VECTOR('',#752,1.);
#262=VECTOR('',#753,1.);
#263=VECTOR('',#754,1.);
#264=VECTOR('',#755,1.);
#265=VECTOR('',#756,1.);
#266=VECTOR('',#757,1.);
#267=VECTOR('',#760,1.);
#268=VECTOR('',#761,1.);
#269=VECTOR('',#764,1.);
#270=VECTOR('',#767,1.);
#271=VECTOR('',#792,1.);
#272=VECTOR('',#793,1.);
#273=VECTOR('',#794,1.);
#274=VECTOR('',#797,1.);
#275=VECTOR('',#798,1.);
#276=VECTOR('',#801,1.);
#277=VECTOR('',#802,1.);
#278=VECTOR('',#805,1.);
#279=VECTOR('',#808,1.);
#280=VECTOR('',#809,1.);
#281=VECTOR('',#810,1.);
#282=VECTOR('',#813,1.);
#283=VECTOR('',#814,1.);
#284=VECTOR('',#817,1.);
#285=VECTOR('',#818,1.);
#286=VECTOR('',#821,1.);
#287=VECTOR('',#834,1.);
#288=VECTOR('',#835,1.);
#289=VECTOR('',#838,1.);
#290=VECTOR('',#839,1.);
#291=VECTOR('',#842,1.);
#292=VECTOR('',#843,1.);
#293=VECTOR('',#846,1.);
#294=VECTOR('',#847,1.);
#295=VECTOR('',#850,1.);
#296=VECTOR('',#853,1.);
#297=VECTOR('',#856,1.);
#298=FACE_BOUND('',#333,.T.);
#299=FACE_BOUND('',#334,.T.);
#300=FACE_BOUND('',#335,.T.);
#301=FACE_BOUND('',#336,.T.);
#302=FACE_BOUND('',#337,.T.);
#303=FACE_BOUND('',#338,.T.);
#304=FACE_BOUND('',#339,.T.);
#305=FACE_BOUND('',#340,.T.);
#306=FACE_BOUND('',#341,.T.);
#307=FACE_BOUND('',#342,.T.);
#308=FACE_BOUND('',#343,.T.);
#309=FACE_BOUND('',#344,.T.);
#310=FACE_BOUND('',#345,.T.);
#311=FACE_BOUND('',#346,.T.);
#312=FACE_BOUND('',#347,.T.);
#313=FACE_BOUND('',#352,.T.);
#314=FACE_BOUND('',#353,.T.);
#315=FACE_BOUND('',#354,.T.);
#316=FACE_BOUND('',#355,.T.);
#317=FACE_BOUND('',#356,.T.);
#318=FACE_BOUND('',#357,.T.);
#319=FACE_BOUND('',#358,.T.);
#320=FACE_BOUND('',#359,.T.);
#321=FACE_BOUND('',#360,.T.);
#322=FACE_BOUND('',#361,.T.);
#323=FACE_BOUND('',#370,.T.);
#324=FACE_BOUND('',#371,.T.);
#325=FACE_BOUND('',#372,.T.);
#326=FACE_BOUND('',#373,.T.);
#327=FACE_BOUND('',#374,.T.);
#328=FACE_BOUND('',#375,.T.);
#329=FACE_BOUND('',#376,.T.);
#330=FACE_BOUND('',#377,.T.);
#331=FACE_BOUND('',#378,.T.);
#332=FACE_BOUND('',#379,.T.);
#333=EDGE_LOOP('',(#388));
#334=EDGE_LOOP('',(#389,#390,#391,#392,#393,#394,#395,#396));
#335=EDGE_LOOP('',(#397));
#336=EDGE_LOOP('',(#398));
#337=EDGE_LOOP('',(#399));
#338=EDGE_LOOP('',(#400));
#339=EDGE_LOOP('',(#401,#402,#403,#404));
#340=EDGE_LOOP('',(#405,#406,#407,#408));
#341=EDGE_LOOP('',(#409));
#342=EDGE_LOOP('',(#410));
#343=EDGE_LOOP('',(#411));
#344=EDGE_LOOP('',(#412));
#345=EDGE_LOOP('',(#413));
#346=EDGE_LOOP('',(#414,#415,#416,#417));
#347=EDGE_LOOP('',(#418,#419,#420,#421));
#348=EDGE_LOOP('',(#422,#423,#424,#425));
#349=EDGE_LOOP('',(#426,#427,#428,#429));
#350=EDGE_LOOP('',(#430,#431,#432,#433));
#351=EDGE_LOOP('',(#434,#435,#436,#437));
#352=EDGE_LOOP('',(#438));
#353=EDGE_LOOP('',(#439));
#354=EDGE_LOOP('',(#440));
#355=EDGE_LOOP('',(#441));
#356=EDGE_LOOP('',(#442));
#357=EDGE_LOOP('',(#443));
#358=EDGE_LOOP('',(#444));
#359=EDGE_LOOP('',(#445));
#360=EDGE_LOOP('',(#446));
#361=EDGE_LOOP('',(#447));
#362=EDGE_LOOP('',(#448,#449,#450,#451));
#363=EDGE_LOOP('',(#452,#453,#454,#455));
#364=EDGE_LOOP('',(#456,#457,#458,#459));
#365=EDGE_LOOP('',(#460,#461,#462,#463));
#366=EDGE_LOOP('',(#464,#465,#466,#467));
#367=EDGE_LOOP('',(#468,#469,#470,#471));
#368=EDGE_LOOP('',(#472,#473,#474,#475));
#369=EDGE_LOOP('',(#476,#477,#478,#479));
#370=EDGE_LOOP('',(#480));
#371=EDGE_LOOP('',(#481));
#372=EDGE_LOOP('',(#482));
#373=EDGE_LOOP('',(#483));
#374=EDGE_LOOP('',(#484));
#375=EDGE_LOOP('',(#485));
#376=EDGE_LOOP('',(#486));
#377=EDGE_LOOP('',(#487));
#378=EDGE_LOOP('',(#488));
#379=EDGE_LOOP('',(#489));
#380=EDGE_LOOP('',(#490,#491,#492,#493));
#381=EDGE_LOOP('',(#494,#495,#496,#497));
#382=EDGE_LOOP('',(#498,#499,#500,#501,#502));
#383=EDGE_LOOP('',(#503,#504,#505,#506));
#384=EDGE_LOOP('',(#507,#508,#509,#510,#511));
#385=EDGE_LOOP('',(#512,#513,#514,#515));
#386=EDGE_LOOP('',(#516,#517,#518,#519,#520,#521,#522,#523));
#387=EDGE_LOOP('',(#524,#525,#526,#527));
#388=ORIENTED_EDGE('',*,*,#577,.T.);
#389=ORIENTED_EDGE('',*,*,#578,.T.);
#390=ORIENTED_EDGE('',*,*,#579,.T.);
#391=ORIENTED_EDGE('',*,*,#580,.T.);
#392=ORIENTED_EDGE('',*,*,#581,.T.);
#393=ORIENTED_EDGE('',*,*,#582,.T.);
#394=ORIENTED_EDGE('',*,*,#583,.T.);
#395=ORIENTED_EDGE('',*,*,#584,.T.);
#396=ORIENTED_EDGE('',*,*,#585,.T.);
#397=ORIENTED_EDGE('',*,*,#586,.T.);
#398=ORIENTED_EDGE('',*,*,#587,.T.);
#399=ORIENTED_EDGE('',*,*,#588,.T.);
#400=ORIENTED_EDGE('',*,*,#589,.T.);
#401=ORIENTED_EDGE('',*,*,#590,.F.);
#402=ORIENTED_EDGE('',*,*,#591,.F.);
#403=ORIENTED_EDGE('',*,*,#592,.F.);
#404=ORIENTED_EDGE('',*,*,#593,.F.);
#405=ORIENTED_EDGE('',*,*,#594,.F.);
#406=ORIENTED_EDGE('',*,*,#595,.F.);
#407=ORIENTED_EDGE('',*,*,#596,.F.);
#408=ORIENTED_EDGE('',*,*,#597,.F.);
#409=ORIENTED_EDGE('',*,*,#598,.T.);
#410=ORIENTED_EDGE('',*,*,#599,.T.);
#411=ORIENTED_EDGE('',*,*,#600,.T.);
#412=ORIENTED_EDGE('',*,*,#601,.T.);
#413=ORIENTED_EDGE('',*,*,#602,.T.);
#414=ORIENTED_EDGE('',*,*,#603,.T.);
#415=ORIENTED_EDGE('',*,*,#604,.T.);
#416=ORIENTED_EDGE('',*,*,#605,.T.);
#417=ORIENTED_EDGE('',*,*,#606,.T.);
#418=ORIENTED_EDGE('',*,*,#607,.T.);
#419=ORIENTED_EDGE('',*,*,#608,.T.);
#420=ORIENTED_EDGE('',*,*,#609,.T.);
#421=ORIENTED_EDGE('',*,*,#610,.T.);
#422=ORIENTED_EDGE('',*,*,#603,.F.);
#423=ORIENTED_EDGE('',*,*,#611,.F.);
#424=ORIENTED_EDGE('',*,*,#590,.T.);
#425=ORIENTED_EDGE('',*,*,#612,.T.);
#426=ORIENTED_EDGE('',*,*,#604,.F.);
#427=ORIENTED_EDGE('',*,*,#612,.F.);
#428=ORIENTED_EDGE('',*,*,#593,.T.);
#429=ORIENTED_EDGE('',*,*,#613,.T.);
#430=ORIENTED_EDGE('',*,*,#605,.F.);
#431=ORIENTED_EDGE('',*,*,#613,.F.);
#432=ORIENTED_EDGE('',*,*,#592,.T.);
#433=ORIENTED_EDGE('',*,*,#614,.T.);
#434=ORIENTED_EDGE('',*,*,#606,.F.);
#435=ORIENTED_EDGE('',*,*,#614,.F.);
#436=ORIENTED_EDGE('',*,*,#591,.T.);
#437=ORIENTED_EDGE('',*,*,#611,.T.);
#438=ORIENTED_EDGE('',*,*,#615,.T.);
#439=ORIENTED_EDGE('',*,*,#602,.F.);
#440=ORIENTED_EDGE('',*,*,#616,.T.);
#441=ORIENTED_EDGE('',*,*,#601,.F.);
#442=ORIENTED_EDGE('',*,*,#617,.T.);
#443=ORIENTED_EDGE('',*,*,#600,.F.);
#444=ORIENTED_EDGE('',*,*,#618,.T.);
#445=ORIENTED_EDGE('',*,*,#599,.F.);
#446=ORIENTED_EDGE('',*,*,#619,.T.);
#447=ORIENTED_EDGE('',*,*,#598,.F.);
#448=ORIENTED_EDGE('',*,*,#620,.T.);
#449=ORIENTED_EDGE('',*,*,#621,.T.);
#450=ORIENTED_EDGE('',*,*,#622,.F.);
#451=ORIENTED_EDGE('',*,*,#608,.F.);
#452=ORIENTED_EDGE('',*,*,#622,.T.);
#453=ORIENTED_EDGE('',*,*,#623,.T.);
#454=ORIENTED_EDGE('',*,*,#624,.F.);
#455=ORIENTED_EDGE('',*,*,#609,.F.);
#456=ORIENTED_EDGE('',*,*,#624,.T.);
#457=ORIENTED_EDGE('',*,*,#625,.T.);
#458=ORIENTED_EDGE('',*,*,#626,.F.);
#459=ORIENTED_EDGE('',*,*,#610,.F.);
#460=ORIENTED_EDGE('',*,*,#626,.T.);
#461=ORIENTED_EDGE('',*,*,#627,.T.);
#462=ORIENTED_EDGE('',*,*,#620,.F.);
#463=ORIENTED_EDGE('',*,*,#607,.F.);
#464=ORIENTED_EDGE('',*,*,#628,.T.);
#465=ORIENTED_EDGE('',*,*,#629,.T.);
#466=ORIENTED_EDGE('',*,*,#630,.F.);
#467=ORIENTED_EDGE('',*,*,#594,.T.);
#468=ORIENTED_EDGE('',*,*,#631,.T.);
#469=ORIENTED_EDGE('',*,*,#632,.T.);
#470=ORIENTED_EDGE('',*,*,#628,.F.);
#471=ORIENTED_EDGE('',*,*,#597,.T.);
#472=ORIENTED_EDGE('',*,*,#633,.T.);
#473=ORIENTED_EDGE('',*,*,#634,.T.);
#474=ORIENTED_EDGE('',*,*,#631,.F.);
#475=ORIENTED_EDGE('',*,*,#596,.T.);
#476=ORIENTED_EDGE('',*,*,#630,.T.);
#477=ORIENTED_EDGE('',*,*,#635,.T.);
#478=ORIENTED_EDGE('',*,*,#633,.F.);
#479=ORIENTED_EDGE('',*,*,#595,.T.);
#480=ORIENTED_EDGE('',*,*,#586,.F.);
#481=ORIENTED_EDGE('',*,*,#618,.F.);
#482=ORIENTED_EDGE('',*,*,#587,.F.);
#483=ORIENTED_EDGE('',*,*,#616,.F.);
#484=ORIENTED_EDGE('',*,*,#588,.F.);
#485=ORIENTED_EDGE('',*,*,#615,.F.);
#486=ORIENTED_EDGE('',*,*,#589,.F.);
#487=ORIENTED_EDGE('',*,*,#617,.F.);
#488=ORIENTED_EDGE('',*,*,#577,.F.);
#489=ORIENTED_EDGE('',*,*,#619,.F.);
#490=ORIENTED_EDGE('',*,*,#636,.F.);
#491=ORIENTED_EDGE('',*,*,#582,.F.);
#492=ORIENTED_EDGE('',*,*,#637,.F.);
#493=ORIENTED_EDGE('',*,*,#634,.F.);
#494=ORIENTED_EDGE('',*,*,#638,.F.);
#495=ORIENTED_EDGE('',*,*,#579,.F.);
#496=ORIENTED_EDGE('',*,*,#639,.F.);
#497=ORIENTED_EDGE('',*,*,#627,.F.);
#498=ORIENTED_EDGE('',*,*,#640,.F.);
#499=ORIENTED_EDGE('',*,*,#632,.F.);
#500=ORIENTED_EDGE('',*,*,#637,.T.);
#501=ORIENTED_EDGE('',*,*,#581,.F.);
#502=ORIENTED_EDGE('',*,*,#641,.F.);
#503=ORIENTED_EDGE('',*,*,#642,.F.);
#504=ORIENTED_EDGE('',*,*,#629,.F.);
#505=ORIENTED_EDGE('',*,*,#640,.T.);
#506=ORIENTED_EDGE('',*,*,#643,.F.);
#507=ORIENTED_EDGE('',*,*,#635,.F.);
#508=ORIENTED_EDGE('',*,*,#642,.T.);
#509=ORIENTED_EDGE('',*,*,#644,.F.);
#510=ORIENTED_EDGE('',*,*,#583,.F.);
#511=ORIENTED_EDGE('',*,*,#636,.T.);
#512=ORIENTED_EDGE('',*,*,#639,.T.);
#513=ORIENTED_EDGE('',*,*,#578,.F.);
#514=ORIENTED_EDGE('',*,*,#645,.F.);
#515=ORIENTED_EDGE('',*,*,#621,.F.);
#516=ORIENTED_EDGE('',*,*,#638,.T.);
#517=ORIENTED_EDGE('',*,*,#625,.F.);
#518=ORIENTED_EDGE('',*,*,#646,.F.);
#519=ORIENTED_EDGE('',*,*,#584,.F.);
#520=ORIENTED_EDGE('',*,*,#644,.T.);
#521=ORIENTED_EDGE('',*,*,#643,.T.);
#522=ORIENTED_EDGE('',*,*,#641,.T.);
#523=ORIENTED_EDGE('',*,*,#580,.F.);
#524=ORIENTED_EDGE('',*,*,#645,.T.);
#525=ORIENTED_EDGE('',*,*,#585,.F.);
#526=ORIENTED_EDGE('',*,*,#646,.T.);
#527=ORIENTED_EDGE('',*,*,#623,.F.);
#528=VERTEX_POINT('',#863);
#529=VERTEX_POINT('',#865);
#530=VERTEX_POINT('',#866);
#531=VERTEX_POINT('',#868);
#532=VERTEX_POINT('',#870);
#533=VERTEX_POINT('',#872);
#534=VERTEX_POINT('',#874);
#535=VERTEX_POINT('',#876);
#536=VERTEX_POINT('',#878);
#537=VERTEX_POINT('',#881);
#538=VERTEX_POINT('',#883);
#539=VERTEX_POINT('',#885);
#540=VERTEX_POINT('',#887);
#541=VERTEX_POINT('',#889);
#542=VERTEX_POINT('',#890);
#543=VERTEX_POINT('',#892);
#544=VERTEX_POINT('',#894);
#545=VERTEX_POINT('',#898);
#546=VERTEX_POINT('',#899);
#547=VERTEX_POINT('',#901);
#548=VERTEX_POINT('',#903);
#549=VERTEX_POINT('',#906);
#550=VERTEX_POINT('',#908);
#551=VERTEX_POINT('',#910);
#552=VERTEX_POINT('',#912);
#553=VERTEX_POINT('',#914);
#554=VERTEX_POINT('',#916);
#555=VERTEX_POINT('',#917);
#556=VERTEX_POINT('',#919);
#557=VERTEX_POINT('',#921);
#558=VERTEX_POINT('',#924);
#559=VERTEX_POINT('',#925);
#560=VERTEX_POINT('',#927);
#561=VERTEX_POINT('',#929);
#562=VERTEX_POINT('',#941);
#563=VERTEX_POINT('',#944);
#564=VERTEX_POINT('',#947);
#565=VERTEX_POINT('',#950);
#566=VERTEX_POINT('',#953);
#567=VERTEX_POINT('',#956);
#568=VERTEX_POINT('',#958);
#569=VERTEX_POINT('',#962);
#570=VERTEX_POINT('',#966);
#571=VERTEX_POINT('',#972);
#572=VERTEX_POINT('',#974);
#573=VERTEX_POINT('',#978);
#574=VERTEX_POINT('',#982);
#575=VERTEX_POINT('',#999);
#576=VERTEX_POINT('',#1003);
#577=EDGE_CURVE('',#528,#528,#647,.T.);
#578=EDGE_CURVE('',#529,#530,#188,.T.);
#579=EDGE_CURVE('',#530,#531,#189,.T.);
#580=EDGE_CURVE('',#531,#532,#190,.T.);
#581=EDGE_CURVE('',#532,#533,#191,.T.);
#582=EDGE_CURVE('',#533,#534,#192,.T.);
#583=EDGE_CURVE('',#534,#535,#193,.T.);
#584=EDGE_CURVE('',#535,#536,#194,.T.);
#585=EDGE_CURVE('',#536,#529,#195,.T.);
#586=EDGE_CURVE('',#537,#537,#648,.T.);
#587=EDGE_CURVE('',#538,#538,#649,.T.);
#588=EDGE_CURVE('',#539,#539,#650,.T.);
#589=EDGE_CURVE('',#540,#540,#651,.T.);
#590=EDGE_CURVE('',#541,#542,#196,.T.);
#591=EDGE_CURVE('',#543,#541,#197,.T.);
#592=EDGE_CURVE('',#544,#543,#198,.T.);
#593=EDGE_CURVE('',#542,#544,#199,.T.);
#594=EDGE_CURVE('',#545,#546,#200,.T.);
#595=EDGE_CURVE('',#547,#545,#201,.T.);
#596=EDGE_CURVE('',#548,#547,#202,.T.);
#597=EDGE_CURVE('',#546,#548,#203,.T.);
#598=EDGE_CURVE('',#549,#549,#652,.T.);
#599=EDGE_CURVE('',#550,#550,#653,.T.);
#600=EDGE_CURVE('',#551,#551,#654,.T.);
#601=EDGE_CURVE('',#552,#552,#655,.T.);
#602=EDGE_CURVE('',#553,#553,#656,.T.);
#603=EDGE_CURVE('',#554,#555,#204,.T.);
#604=EDGE_CURVE('',#555,#556,#205,.T.);
#605=EDGE_CURVE('',#556,#557,#206,.T.);
#606=EDGE_CURVE('',#557,#554,#207,.T.);
#607=EDGE_CURVE('',#558,#559,#208,.T.);
#608=EDGE_CURVE('',#559,#560,#209,.T.);
#609=EDGE_CURVE('',#560,#561,#210,.T.);
#610=EDGE_CURVE('',#561,#558,#211,.T.);
#611=EDGE_CURVE('',#541,#554,#212,.T.);
#612=EDGE_CURVE('',#542,#555,#213,.T.);
#613=EDGE_CURVE('',#544,#556,#214,.T.);
#614=EDGE_CURVE('',#543,#557,#215,.T.);
#615=EDGE_CURVE('',#562,#562,#657,.T.);
#616=EDGE_CURVE('',#563,#563,#658,.T.);
#617=EDGE_CURVE('',#564,#564,#659,.T.);
#618=EDGE_CURVE('',#565,#565,#660,.T.);
#619=EDGE_CURVE('',#566,#566,#661,.T.);
#620=EDGE_CURVE('',#559,#567,#216,.T.);
#621=EDGE_CURVE('',#567,#568,#217,.T.);
#622=EDGE_CURVE('',#560,#568,#218,.T.);
#623=EDGE_CURVE('',#568,#569,#219,.T.);
#624=EDGE_CURVE('',#561,#569,#220,.T.);
#625=EDGE_CURVE('',#569,#570,#221,.T.);
#626=EDGE_CURVE('',#558,#570,#222,.T.);
#627=EDGE_CURVE('',#570,#567,#223,.T.);
#628=EDGE_CURVE('',#546,#571,#224,.T.);
#629=EDGE_CURVE('',#571,#572,#225,.T.);
#630=EDGE_CURVE('',#545,#572,#226,.T.);
#631=EDGE_CURVE('',#548,#573,#227,.T.);
#632=EDGE_CURVE('',#573,#571,#228,.T.);
#633=EDGE_CURVE('',#547,#574,#229,.T.);
#634=EDGE_CURVE('',#574,#573,#230,.T.);
#635=EDGE_CURVE('',#572,#574,#231,.T.);
#636=EDGE_CURVE('',#534,#574,#232,.T.);
#637=EDGE_CURVE('',#573,#533,#233,.T.);
#638=EDGE_CURVE('',#531,#570,#234,.T.);
#639=EDGE_CURVE('',#567,#530,#235,.T.);
#640=EDGE_CURVE('',#571,#575,#236,.T.);
#641=EDGE_CURVE('',#575,#532,#237,.T.);
#642=EDGE_CURVE('',#572,#576,#238,.T.);
#643=EDGE_CURVE('',#576,#575,#239,.T.);
#644=EDGE_CURVE('',#535,#576,#240,.T.);
#645=EDGE_CURVE('',#568,#529,#241,.T.);
#646=EDGE_CURVE('',#536,#569,#242,.T.);
#647=CIRCLE('',#663,28.);
#648=CIRCLE('',#664,5.50000000000001);
#649=CIRCLE('',#665,5.5);
#650=CIRCLE('',#666,5.50000000000001);
#651=CIRCLE('',#667,5.5);
#652=CIRCLE('',#669,25.);
#653=CIRCLE('',#670,2.5);
#654=CIRCLE('',#671,2.5);
#655=CIRCLE('',#672,2.5);
#656=CIRCLE('',#673,2.5);
#657=CIRCLE('',#679,2.5);
#658=CIRCLE('',#681,2.5);
#659=CIRCLE('',#683,2.5);
#660=CIRCLE('',#685,2.5);
#661=CIRCLE('',#687,25.);
#662=AXIS2_PLACEMENT_3D('',#861,#710,#711);
#663=AXIS2_PLACEMENT_3D('',#862,#712,#713);
#664=AXIS2_PLACEMENT_3D('',#880,#722,#723);
#665=AXIS2_PLACEMENT_3D('',#882,#724,#725);
#666=AXIS2_PLACEMENT_3D('',#884,#726,#727);
#667=AXIS2_PLACEMENT_3D('',#886,#728,#729);
#668=AXIS2_PLACEMENT_3D('',#896,#734,#735);
#669=AXIS2_PLACEMENT_3D('',#905,#740,#741);
#670=AXIS2_PLACEMENT_3D('',#907,#742,#743);
#671=AXIS2_PLACEMENT_3D('',#909,#744,#745);
#672=AXIS2_PLACEMENT_3D('',#911,#746,#747);
#673=AXIS2_PLACEMENT_3D('',#913,#748,#749);
#674=AXIS2_PLACEMENT_3D('',#931,#758,#759);
#675=AXIS2_PLACEMENT_3D('',#934,#762,#763);
#676=AXIS2_PLACEMENT_3D('',#936,#765,#766);
#677=AXIS2_PLACEMENT_3D('',#938,#768,#769);
#678=AXIS2_PLACEMENT_3D('',#939,#770,#771);
#679=AXIS2_PLACEMENT_3D('',#940,#772,#773);
#680=AXIS2_PLACEMENT_3D('',#942,#774,#775);
#681=AXIS2_PLACEMENT_3D('',#943,#776,#777);
#682=AXIS2_PLACEMENT_3D('',#945,#778,#779);
#683=AXIS2_PLACEMENT_3D('',#946,#780,#781);
#684=AXIS2_PLACEMENT_3D('',#948,#782,#783);
#685=AXIS2_PLACEMENT_3D('',#949,#784,#785);
#686=AXIS2_PLACEMENT_3D('',#951,#786,#787);
#687=AXIS2_PLACEMENT_3D('',#952,#788,#789);
#688=AXIS2_PLACEMENT_3D('',#954,#790,#791);
#689=AXIS2_PLACEMENT_3D('',#960,#795,#796);
#690=AXIS2_PLACEMENT_3D('',#964,#799,#800);
#691=AXIS2_PLACEMENT_3D('',#968,#803,#804);
#692=AXIS2_PLACEMENT_3D('',#970,#806,#807);
#693=AXIS2_PLACEMENT_3D('',#976,#811,#812);
#694=AXIS2_PLACEMENT_3D('',#980,#815,#816);
#695=AXIS2_PLACEMENT_3D('',#984,#819,#820);
#696=AXIS2_PLACEMENT_3D('',#986,#822,#823);
#697=AXIS2_PLACEMENT_3D('',#987,#824,#825);
#698=AXIS2_PLACEMENT_3D('',#988,#826,#827);
#699=AXIS2_PLACEMENT_3D('',#989,#828,#829);
#700=AXIS2_PLACEMENT_3D('',#990,#830,#831);
#701=AXIS2_PLACEMENT_3D('',#991,#832,#833);
#702=AXIS2_PLACEMENT_3D('',#994,#836,#837);
#703=AXIS2_PLACEMENT_3D('',#997,#840,#841);
#704=AXIS2_PLACEMENT_3D('',#1001,#844,#845);
#705=AXIS2_PLACEMENT_3D('',#1005,#848,#849);
#706=AXIS2_PLACEMENT_3D('',#1007,#851,#852);
#707=AXIS2_PLACEMENT_3D('',#1009,#854,#855);
#708=AXIS2_PLACEMENT_3D('',#1011,#857,#858);
#709=AXIS2_PLACEMENT_3D('',#1012,#859,#860);
#710=DIRECTION('',(0.,0.,1.));
#711=DIRECTION('',(1.,0.,0.));
#712=DIRECTION('',(0.,0.,-1.));
#713=DIRECTION('',(-1.,0.,0.));
#714=DIRECTION('',(-7.30409884621814E-17,1.,0.));
#715=DIRECTION('',(1.,0.,0.));
#716=DIRECTION('',(2.7390370673318E-16,-1.,0.));
#717=DIRECTION('',(1.,5.78241158658936E-16,0.));
#718=DIRECTION('',(0.,-1.,0.));
#719=DIRECTION('',(-1.,-2.89120579329468E-16,0.));
#720=DIRECTION('',(2.7390370673318E-16,-1.,0.));
#721=DIRECTION('',(-1.,-2.16840434497101E-16,0.));
#722=DIRECTION('',(0.,0.,-1.));
#723=DIRECTION('',(-1.,0.,0.));
#724=DIRECTION('',(0.,0.,-1.));
#725=DIRECTION('',(-1.,0.,0.));
#726=DIRECTION('',(0.,0.,-1.));
#727=DIRECTION('',(-1.,0.,0.));
#728=DIRECTION('',(0.,0.,-1.));
#729=DIRECTION('',(-1.,0.,0.));
#730=DIRECTION('',(1.,0.,0.));
#731=DIRECTION('',(-3.03130395828553E-17,1.,0.));
#732=DIRECTION('',(-1.,0.,0.));
#733=DIRECTION('',(2.1984614349013E-16,-1.,0.));
#734=DIRECTION('',(0.,0.,-1.));
#735=DIRECTION('',(-1.,0.,0.));
#736=DIRECTION('',(-3.46944695195363E-16,1.,0.));
#737=DIRECTION('',(-1.,-2.89120579329468E-16,0.));
#738=DIRECTION('',(0.,-1.,0.));
#739=DIRECTION('',(1.,5.78241158658936E-16,0.));
#740=DIRECTION('',(0.,0.,1.));
#741=DIRECTION('',(1.,0.,0.));
#742=DIRECTION('',(0.,0.,1.));
#743=DIRECTION('',(-1.,0.,0.));
#744=DIRECTION('',(0.,0.,1.));
#745=DIRECTION('',(-1.,0.,0.));
#746=DIRECTION('',(0.,0.,1.));
#747=DIRECTION('',(-1.,0.,0.));
#748=DIRECTION('',(0.,0.,1.));
#749=DIRECTION('',(-1.,0.,0.));
#750=DIRECTION('',(1.,0.,0.));
#751=DIRECTION('',(2.1984614349013E-16,-1.,0.));
#752=DIRECTION('',(-1.,0.,0.));
#753=DIRECTION('',(-3.03130395828553E-17,1.,0.));
#754=DIRECTION('',(-1.,0.,0.));
#755=DIRECTION('',(7.30409884621814E-17,-1.,0.));
#756=DIRECTION('',(1.,2.16840434497101E-16,0.));
#757=DIRECTION('',(-2.7390370673318E-16,1.,0.));
#758=DIRECTION('',(0.,0.,-1.));
#759=DIRECTION('',(-1.,0.,0.));
#760=DIRECTION('',(0.,0.,-1.));
#761=DIRECTION('',(0.,0.,-1.));
#762=DIRECTION('',(0.,1.,0.));
#763=DIRECTION('',(0.,0.,1.));
#764=DIRECTION('',(0.,0.,-1.));
#765=DIRECTION('',(1.,2.1984614349013E-16,0.));
#766=DIRECTION('',(-2.22044604925031E-16,1.,0.));
#767=DIRECTION('',(0.,0.,-1.));
#768=DIRECTION('',(0.,-1.,0.));
#769=DIRECTION('',(0.,0.,-1.));
#770=DIRECTION('',(-1.,-3.03130395828553E-17,0.));
#771=DIRECTION('',(3.03130395828553E-17,-1.,0.));
#772=DIRECTION('',(0.,0.,1.));
#773=DIRECTION('',(-1.,0.,0.));
#774=DIRECTION('',(0.,0.,-1.));
#775=DIRECTION('',(-1.,0.,0.));
#776=DIRECTION('',(0.,0.,1.));
#777=DIRECTION('',(-1.,0.,0.));
#778=DIRECTION('',(0.,0.,-1.));
#779=DIRECTION('',(-1.,0.,0.));
#780=DIRECTION('',(0.,0.,1.));
#781=DIRECTION('',(-1.,0.,0.));
#782=DIRECTION('',(0.,0.,-1.));
#783=DIRECTION('',(-1.,0.,0.));
#784=DIRECTION('',(0.,0.,1.));
#785=DIRECTION('',(-1.,0.,0.));
#786=DIRECTION('',(0.,0.,-1.));
#787=DIRECTION('',(-1.,0.,0.));
#788=DIRECTION('',(0.,0.,1.));
#789=DIRECTION('',(-1.,0.,0.));
#790=DIRECTION('',(0.,0.,-1.));
#791=DIRECTION('',(-1.,0.,0.));
#792=DIRECTION('',(0.,0.,1.));
#793=DIRECTION('',(7.30409884621814E-17,-1.,0.));
#794=DIRECTION('',(0.,0.,1.));
#795=DIRECTION('',(1.,7.30409884621814E-17,0.));
#796=DIRECTION('',(-7.28583859910259E-17,1.,0.));
#797=DIRECTION('',(1.,2.16840434497101E-16,0.));
#798=DIRECTION('',(0.,0.,1.));
#799=DIRECTION('',(-2.16840434497101E-16,1.,0.));
#800=DIRECTION('',(-1.,-2.15105711021124E-16,0.));
#801=DIRECTION('',(-2.7390370673318E-16,1.,0.));
#802=DIRECTION('',(0.,0.,1.));
#803=DIRECTION('',(-1.,-2.7390370673318E-16,0.));
#804=DIRECTION('',(2.74086309204336E-16,-1.,0.));
#805=DIRECTION('',(-1.,0.,0.));
#806=DIRECTION('',(0.,-1.,0.));
#807=DIRECTION('',(0.,0.,-1.));
#808=DIRECTION('',(0.,0.,1.));
#809=DIRECTION('',(3.46944695195363E-16,-1.,0.));
#810=DIRECTION('',(0.,0.,1.));
#811=DIRECTION('',(-1.,-3.46944695195363E-16,0.));
#812=DIRECTION('',(3.46944695195361E-16,-1.,0.));
#813=DIRECTION('',(0.,0.,1.));
#814=DIRECTION('',(-1.,-5.78241158658936E-16,0.));
#815=DIRECTION('',(-5.78241158658936E-16,1.,0.));
#816=DIRECTION('',(-1.,-5.82867087928207E-16,0.));
#817=DIRECTION('',(0.,0.,1.));
#818=DIRECTION('',(0.,1.,0.));
#819=DIRECTION('',(1.,0.,0.));
#820=DIRECTION('',(0.,0.,-1.));
#821=DIRECTION('',(1.,2.89120579329468E-16,0.));
#822=DIRECTION('',(2.89120579329468E-16,-1.,0.));
#823=DIRECTION('',(1.,2.91433543964104E-16,0.));
#824=DIRECTION('',(0.,0.,1.));
#825=DIRECTION('',(1.,0.,1.73039748227113E-18));
#826=DIRECTION('',(0.,0.,1.));
#827=DIRECTION('',(1.,0.,1.73039748227113E-18));
#828=DIRECTION('',(0.,0.,1.));
#829=DIRECTION('',(1.,0.,1.73039748227113E-18));
#830=DIRECTION('',(0.,0.,1.));
#831=DIRECTION('',(1.,0.,1.73039748227113E-18));
#832=DIRECTION('',(0.,0.,1.));
#833=DIRECTION('',(1.,0.,1.69241314729443E-18));
#834=DIRECTION('',(-0.577350269189625,0.577350269189628,-0.577350269189624));
#835=DIRECTION('',(0.577350269189626,0.577350269189627,0.577350269189625));
#836=DIRECTION('',(0.707106781186547,0.,-0.707106781186548));
#837=DIRECTION('',(0.,-1.,0.));
#838=DIRECTION('',(-0.577350269189626,-0.577350269189626,-0.577350269189625));
#839=DIRECTION('',(-0.577350269189625,0.577350269189626,0.577350269189626));
#840=DIRECTION('',(0.,-0.707106781186547,0.707106781186548));
#841=DIRECTION('',(1.,0.,0.));
#842=DIRECTION('',(-0.577350269189626,0.577350269189626,0.577350269189625));
#843=DIRECTION('',(0.577350269189625,0.577350269189627,0.577350269189625));
#844=DIRECTION('',(-4.08878244448899E-16,0.707106781186547,-0.707106781186548));
#845=DIRECTION('',(1.,5.82867087928207E-16,0.));
#846=DIRECTION('',(-0.577350269189624,-0.577350269189629,0.577350269189625));
#847=DIRECTION('',(-3.10424200964271E-16,1.,-3.65204942310913E-17));
#848=DIRECTION('',(-0.707106781186547,-2.45326946669341E-16,-0.707106781186548));
#849=DIRECTION('',(-3.46944695195361E-16,1.,0.));
#850=DIRECTION('',(-0.577350269189625,0.577350269189628,-0.577350269189624));
#851=DIRECTION('',(2.04439122224449E-16,-0.707106781186545,-0.70710678118655));
#852=DIRECTION('',(-1.,-2.91433543964104E-16,0.));
#853=DIRECTION('',(-0.577350269189626,-0.577350269189626,0.577350269189626));
#854=DIRECTION('',(0.707106781186548,5.16477782461768E-17,0.707106781186547));
#855=DIRECTION('',(-7.28583859910259E-17,1.,0.));
#856=DIRECTION('',(-0.577350269189626,0.577350269189626,-0.577350269189626));
#857=DIRECTION('',(-0.707106781186547,-1.93679168423163E-16,0.707106781186548));
#858=DIRECTION('',(2.74086309204336E-16,-1.,0.));
#859=DIRECTION('',(-1.53329341668337E-16,0.707106781186548,0.707106781186548));
#860=DIRECTION('',(-1.,-2.15105711021124E-16,0.));
#861=CARTESIAN_POINT('',(0.,0.,0.));
#862=CARTESIAN_POINT('',(250.,50.,5.));
#863=CARTESIAN_POINT('',(222.,50.,5.));
#864=CARTESIAN_POINT('',(8.99999999999998,215.,5.));
#865=CARTESIAN_POINT('',(8.99999999999999,22.,5.));
#866=CARTESIAN_POINT('',(8.99999999999998,218.,5.));
#867=CARTESIAN_POINT('',(28.,218.,5.));
#868=CARTESIAN_POINT('',(31.,218.,5.));
#869=CARTESIAN_POINT('',(31.,25.,5.));
#870=CARTESIAN_POINT('',(31.,127.,5.));
#871=CARTESIAN_POINT('',(-7.34366271496848E-14,127.,5.));
#872=CARTESIAN_POINT('',(82.,127.,5.));
#873=CARTESIAN_POINT('',(82.,0.,5.));
#874=CARTESIAN_POINT('',(82.,111.,5.));
#875=CARTESIAN_POINT('',(-3.20923843055709E-14,111.,5.));
#876=CARTESIAN_POINT('',(31.,111.,5.));
#877=CARTESIAN_POINT('',(31.,25.,5.));
#878=CARTESIAN_POINT('',(31.,22.,5.));
#879=CARTESIAN_POINT('',(12.,22.,5.));
#880=CARTESIAN_POINT('',(265.,10.,5.));
#881=CARTESIAN_POINT('',(259.5,10.,5.));
#882=CARTESIAN_POINT('',(15.0000000000001,10.,5.));
#883=CARTESIAN_POINT('',(9.50000000000007,10.,5.));
#884=CARTESIAN_POINT('',(265.,490.,5.));
#885=CARTESIAN_POINT('',(259.5,490.,5.));
#886=CARTESIAN_POINT('',(15.,490.,5.));
#887=CARTESIAN_POINT('',(9.5,490.,5.));
#888=CARTESIAN_POINT('',(0.,505.,5.));
#889=CARTESIAN_POINT('',(0.,505.,5.));
#890=CARTESIAN_POINT('',(300.,505.,5.));
#891=CARTESIAN_POINT('',(0.,0.,5.));
#892=CARTESIAN_POINT('',(0.,0.,5.));
#893=CARTESIAN_POINT('',(300.,0.,5.));
#894=CARTESIAN_POINT('',(300.,0.,5.));
#895=CARTESIAN_POINT('',(300.,505.,5.));
#896=CARTESIAN_POINT('',(0.,0.,5.));
#897=CARTESIAN_POINT('',(31.,114.,0.));
#898=CARTESIAN_POINT('',(31.,114.,0.));
#899=CARTESIAN_POINT('',(31.,124.,0.));
#900=CARTESIAN_POINT('',(79.,114.,0.));
#901=CARTESIAN_POINT('',(79.,114.,0.));
#902=CARTESIAN_POINT('',(79.,124.,0.));
#903=CARTESIAN_POINT('',(79.,124.,0.));
#904=CARTESIAN_POINT('',(31.,124.,0.));
#905=CARTESIAN_POINT('',(250.,50.,0.));
#906=CARTESIAN_POINT('',(275.,50.,0.));
#907=CARTESIAN_POINT('',(265.,10.,0.));
#908=CARTESIAN_POINT('',(262.5,10.,0.));
#909=CARTESIAN_POINT('',(15.,490.,0.));
#910=CARTESIAN_POINT('',(12.5,490.,0.));
#911=CARTESIAN_POINT('',(15.0000000000001,10.,0.));
#912=CARTESIAN_POINT('',(12.5000000000001,10.,0.));
#913=CARTESIAN_POINT('',(265.,490.,0.));
#914=CARTESIAN_POINT('',(262.5,490.,0.));
#915=CARTESIAN_POINT('',(0.,505.,0.));
#916=CARTESIAN_POINT('',(0.,505.,0.));
#917=CARTESIAN_POINT('',(300.,505.,0.));
#918=CARTESIAN_POINT('',(300.,505.,0.));
#919=CARTESIAN_POINT('',(300.,0.,0.));
#920=CARTESIAN_POINT('',(300.,0.,0.));
#921=CARTESIAN_POINT('',(0.,0.,0.));
#922=CARTESIAN_POINT('',(0.,0.,0.));
#923=CARTESIAN_POINT('',(28.,215.,0.));
#924=CARTESIAN_POINT('',(28.,215.,0.));
#925=CARTESIAN_POINT('',(12.,215.,0.));
#926=CARTESIAN_POINT('',(12.,215.,0.));
#927=CARTESIAN_POINT('',(12.,25.,0.));
#928=CARTESIAN_POINT('',(12.,25.,0.));
#929=CARTESIAN_POINT('',(28.,25.,0.));
#930=CARTESIAN_POINT('',(28.,25.,0.));
#931=CARTESIAN_POINT('',(0.,0.,0.));
#932=CARTESIAN_POINT('',(0.,505.,5.));
#933=CARTESIAN_POINT('',(300.,505.,5.));
#934=CARTESIAN_POINT('',(0.,505.,5.));
#935=CARTESIAN_POINT('',(300.,0.,5.));
#936=CARTESIAN_POINT('',(300.,505.,5.));
#937=CARTESIAN_POINT('',(0.,0.,5.));
#938=CARTESIAN_POINT('',(300.,0.,5.));
#939=CARTESIAN_POINT('',(0.,0.,5.));
#940=CARTESIAN_POINT('',(265.,490.,2.));
#941=CARTESIAN_POINT('',(262.5,490.,2.));
#942=CARTESIAN_POINT('',(265.,490.,5.5));
#943=CARTESIAN_POINT('',(15.0000000000001,10.,2.));
#944=CARTESIAN_POINT('',(12.5000000000001,10.,2.));
#945=CARTESIAN_POINT('',(15.0000000000001,10.,5.5));
#946=CARTESIAN_POINT('',(15.,490.,2.));
#947=CARTESIAN_POINT('',(12.5,490.,2.));
#948=CARTESIAN_POINT('',(15.,490.,5.5));
#949=CARTESIAN_POINT('',(265.,10.,2.));
#950=CARTESIAN_POINT('',(262.5,10.,2.));
#951=CARTESIAN_POINT('',(265.,10.,5.5));
#952=CARTESIAN_POINT('',(250.,50.,2.));
#953=CARTESIAN_POINT('',(225.,50.,2.));
#954=CARTESIAN_POINT('',(250.,50.,5.5));
#955=CARTESIAN_POINT('',(12.,215.,5.5));
#956=CARTESIAN_POINT('',(12.,215.,2.));
#957=CARTESIAN_POINT('',(12.,25.,2.));
#958=CARTESIAN_POINT('',(12.,25.,2.));
#959=CARTESIAN_POINT('',(12.,25.,5.5));
#960=CARTESIAN_POINT('',(12.,215.,5.5));
#961=CARTESIAN_POINT('',(28.,25.,2.));
#962=CARTESIAN_POINT('',(28.,25.,2.));
#963=CARTESIAN_POINT('',(28.,25.,5.5));
#964=CARTESIAN_POINT('',(12.,25.,5.5));
#965=CARTESIAN_POINT('',(28.,215.,2.));
#966=CARTESIAN_POINT('',(28.,215.,2.));
#967=CARTESIAN_POINT('',(28.,215.,5.5));
#968=CARTESIAN_POINT('',(28.,25.,5.5));
#969=CARTESIAN_POINT('',(12.,215.,2.));
#970=CARTESIAN_POINT('',(28.,215.,5.5));
#971=CARTESIAN_POINT('',(31.,124.,5.5));
#972=CARTESIAN_POINT('',(31.,124.,2.));
#973=CARTESIAN_POINT('',(31.,114.,2.));
#974=CARTESIAN_POINT('',(31.,114.,2.));
#975=CARTESIAN_POINT('',(31.,114.,5.5));
#976=CARTESIAN_POINT('',(31.,114.,5.5));
#977=CARTESIAN_POINT('',(79.,124.,5.5));
#978=CARTESIAN_POINT('',(79.,124.,2.));
#979=CARTESIAN_POINT('',(31.,124.,2.));
#980=CARTESIAN_POINT('',(31.,124.,5.5));
#981=CARTESIAN_POINT('',(79.,114.,5.5));
#982=CARTESIAN_POINT('',(79.,114.,2.));
#983=CARTESIAN_POINT('',(79.,124.,2.));
#984=CARTESIAN_POINT('',(79.,124.,5.5));
#985=CARTESIAN_POINT('',(79.,114.,2.));
#986=CARTESIAN_POINT('',(79.,114.,5.5));
#987=CARTESIAN_POINT('',(265.,10.,2.));
#988=CARTESIAN_POINT('',(15.0000000000001,10.,2.));
#989=CARTESIAN_POINT('',(265.,490.,2.));
#990=CARTESIAN_POINT('',(15.,490.,2.));
#991=CARTESIAN_POINT('',(250.,50.,2.));
#992=CARTESIAN_POINT('',(119.,73.9999999999997,42.0000000000001));
#993=CARTESIAN_POINT('',(39.6666666666666,84.6666666666665,-37.3333333333333));
#994=CARTESIAN_POINT('',(82.,0.,5.));
#995=CARTESIAN_POINT('',(28.,215.,2.));
#996=CARTESIAN_POINT('',(17.3333333333333,209.666666666667,-3.33333333333332));
#997=CARTESIAN_POINT('',(28.,215.,2.));
#998=CARTESIAN_POINT('',(18.6666666666666,136.333333333333,14.3333333333333));
#999=CARTESIAN_POINT('',(29.5,125.5,3.5));
#1000=CARTESIAN_POINT('',(-5.00000000000005,90.9999999999999,-31.));
#1001=CARTESIAN_POINT('',(-7.34366271496848E-14,127.,5.));
#1002=CARTESIAN_POINT('',(-9.00000000000008,73.9999999999996,42.0000000000001));
#1003=CARTESIAN_POINT('',(29.5,112.5,3.50000000000001));
#1004=CARTESIAN_POINT('',(29.5,25.,3.5));
#1005=CARTESIAN_POINT('',(28.,9.71445146547016E-15,5.));
#1006=CARTESIAN_POINT('',(57.6666666666668,84.3333333333331,31.6666666666667));
#1007=CARTESIAN_POINT('',(-3.20923843055709E-14,111.,5.));
#1008=CARTESIAN_POINT('',(12.,25.,2.));
#1009=CARTESIAN_POINT('',(12.,215.,2.));
#1010=CARTESIAN_POINT('',(22.6666666666667,30.3333333333333,-3.33333333333334));
#1011=CARTESIAN_POINT('',(28.,25.,2.));
#1012=CARTESIAN_POINT('',(12.,25.,2.));
#1013=MECHANICAL_DESIGN_GEOMETRIC_PRESENTATION_REPRESENTATION('',(#94),
#1014);
#1014=(
GEOMETRIC_REPRESENTATION_CONTEXT(3)
GLOBAL_UNCERTAINTY_ASSIGNED_CONTEXT((#1015))
GLOBAL_UNIT_ASSIGNED_CONTEXT((#1021,#1017,#1016))
REPRESENTATION_CONTEXT('Collector Housing Plate Back 1 v1',
'TOP_LEVEL_ASSEMBLY_PART')
);
#1015=UNCERTAINTY_MEASURE_WITH_UNIT(LENGTH_MEASURE(2.E-5),#1021,
'DISTANCE_ACCURACY_VALUE','Maximum Tolerance applied to model');
#1016=(
NAMED_UNIT(*)
SI_UNIT($,.STERADIAN.)
SOLID_ANGLE_UNIT()
);
#1017=(
CONVERSION_BASED_UNIT('DEGREE',#1019)
NAMED_UNIT(#1018)
PLANE_ANGLE_UNIT()
);
#1018=DIMENSIONAL_EXPONENTS(0.,0.,0.,0.,0.,0.,0.);
#1019=PLANE_ANGLE_MEASURE_WITH_UNIT(PLANE_ANGLE_MEASURE(0.0174532925),#1020);
#1020=(
NAMED_UNIT(*)
PLANE_ANGLE_UNIT()
SI_UNIT($,.RADIAN.)
);
#1021=(
LENGTH_UNIT()
NAMED_UNIT(*)
SI_UNIT(.MILLI.,.METRE.)
);
ENDSEC;
END-ISO-10303-21;
