ISO-10303-21;
HEADER;
/* Generated by software containing ST-Developer
 * from STEP Tools, Inc. (www.steptools.com) 
 */
/* OPTION: using custom schema-name function */

FILE_DESCRIPTION(
/* description */ (''),
/* implementation_level */ '2;1');

FILE_NAME(
/* name */ 'Collector Housing Lid Locker Back v1.2.stp',
/* time_stamp */ '2021-05-13T18:38:28+02:00',
/* author */ (''),
/* organization */ (''),
/* preprocessor_version */ 'ST-DEVELOPER v16.7',
/* originating_system */ 'SIEMENS PLM Software NX 12.0',
/* authorisation */ '');

FILE_SCHEMA (('AP203_CONFIGURATION_CONTROLLED_3D_DESIGN_OF_MECHANICAL_PARTS_AND_ASSEMBLIES_MIM_LF { 1 0 10303 403 2 1 2}'));
ENDSEC;

DATA;
#10=SHAPE_REPRESENTATION_RELATIONSHIP('None',
'relationship between Collector Housing Lid Locker Back v1.2-None and 
Collector Housing Lid Locker Back v1.2-None',#92,#11);
#11=ADVANCED_BREP_SHAPE_REPRESENTATION(
'Collector Housing Lid Locker Back v1.2-None',(#102),#1097);
#12=CC_DESIGN_APPROVAL(#24,(#82));
#13=CC_DESIGN_APPROVAL(#25,(#84));
#14=CC_DESIGN_APPROVAL(#26,(#31));
#15=APPROVAL_PERSON_ORGANIZATION(#69,#24,#18);
#16=APPROVAL_PERSON_ORGANIZATION(#70,#25,#19);
#17=APPROVAL_PERSON_ORGANIZATION(#71,#26,#20);
#18=APPROVAL_ROLE('approver');
#19=APPROVAL_ROLE('approver');
#20=APPROVAL_ROLE('approver');
#21=APPROVAL_DATE_TIME(#39,#24);
#22=APPROVAL_DATE_TIME(#40,#25);
#23=APPROVAL_DATE_TIME(#41,#26);
#24=APPROVAL(#27,' ');
#25=APPROVAL(#28,' ');
#26=APPROVAL(#29,' ');
#27=APPROVAL_STATUS('not_yet_approved');
#28=APPROVAL_STATUS('not_yet_approved');
#29=APPROVAL_STATUS('not_yet_approved');
#30=CC_DESIGN_SECURITY_CLASSIFICATION(#31,(#84));
#31=SECURITY_CLASSIFICATION(' ',' ',#32);
#32=SECURITY_CLASSIFICATION_LEVEL('confidential');
#33=CC_DESIGN_DATE_AND_TIME_ASSIGNMENT(#37,#35,(#82));
#34=CC_DESIGN_DATE_AND_TIME_ASSIGNMENT(#38,#36,(#31));
#35=DATE_TIME_ROLE('creation_date');
#36=DATE_TIME_ROLE('classification_date');
#37=DATE_AND_TIME(#52,#42);
#38=DATE_AND_TIME(#53,#43);
#39=DATE_AND_TIME(#54,#44);
#40=DATE_AND_TIME(#55,#45);
#41=DATE_AND_TIME(#56,#46);
#42=LOCAL_TIME(0,0,0.,#47);
#43=LOCAL_TIME(0,0,0.,#48);
#44=LOCAL_TIME(0,0,0.,#49);
#45=LOCAL_TIME(0,0,0.,#50);
#46=LOCAL_TIME(0,0,0.,#51);
#47=COORDINATED_UNIVERSAL_TIME_OFFSET(0,0,.BEHIND.);
#48=COORDINATED_UNIVERSAL_TIME_OFFSET(0,0,.BEHIND.);
#49=COORDINATED_UNIVERSAL_TIME_OFFSET(0,0,.BEHIND.);
#50=COORDINATED_UNIVERSAL_TIME_OFFSET(0,0,.BEHIND.);
#51=COORDINATED_UNIVERSAL_TIME_OFFSET(0,0,.BEHIND.);
#52=CALENDAR_DATE(0,1,1);
#53=CALENDAR_DATE(0,1,1);
#54=CALENDAR_DATE(0,1,1);
#55=CALENDAR_DATE(0,1,1);
#56=CALENDAR_DATE(0,1,1);
#57=CC_DESIGN_PERSON_AND_ORGANIZATION_ASSIGNMENT(#65,#61,(#82,#84));
#58=CC_DESIGN_PERSON_AND_ORGANIZATION_ASSIGNMENT(#66,#62,(#86));
#59=CC_DESIGN_PERSON_AND_ORGANIZATION_ASSIGNMENT(#67,#63,(#84));
#60=CC_DESIGN_PERSON_AND_ORGANIZATION_ASSIGNMENT(#68,#64,(#31));
#61=PERSON_AND_ORGANIZATION_ROLE('creator');
#62=PERSON_AND_ORGANIZATION_ROLE('design_owner');
#63=PERSON_AND_ORGANIZATION_ROLE('design_supplier');
#64=PERSON_AND_ORGANIZATION_ROLE('classification_officer');
#65=PERSON_AND_ORGANIZATION(#79,#72);
#66=PERSON_AND_ORGANIZATION(#79,#73);
#67=PERSON_AND_ORGANIZATION(#79,#74);
#68=PERSON_AND_ORGANIZATION(#79,#75);
#69=PERSON_AND_ORGANIZATION(#79,#76);
#70=PERSON_AND_ORGANIZATION(#79,#77);
#71=PERSON_AND_ORGANIZATION(#79,#78);
#72=ORGANIZATION(' ',' ',' ');
#73=ORGANIZATION(' ',' ',' ');
#74=ORGANIZATION(' ',' ',' ');
#75=ORGANIZATION(' ',' ',' ');
#76=ORGANIZATION(' ',' ',' ');
#77=ORGANIZATION(' ',' ',' ');
#78=ORGANIZATION(' ',' ',' ');
#79=PERSON(' ',' ',' ',(' '),$,$);
#80=SHAPE_DEFINITION_REPRESENTATION(#81,#92);
#81=PRODUCT_DEFINITION_SHAPE('','',#82);
#82=PRODUCT_DEFINITION(' ','',#84,#83);
#83=DESIGN_CONTEXT('',#91,'design');
#84=PRODUCT_DEFINITION_FORMATION_WITH_SPECIFIED_SOURCE(' ',' ',#86,
 .NOT_KNOWN.);
#85=PRODUCT_RELATED_PRODUCT_CATEGORY('detail','',(#86));
#86=PRODUCT('Collector Housing Lid Locker Back v1.2',
'Collector Housing Lid Locker Back v1.2',' ',(#89));
#87=PRODUCT_CATEGORY('part',' ');
#88=PRODUCT_CATEGORY(' ','');
#89=MECHANICAL_CONTEXT(' ',#91,'mechanical');
#90=APPLICATION_PROTOCOL_DEFINITION('international standard',
'config_control_design',2010,#91);
#91=APPLICATION_CONTEXT(
'configuration controlled 3D designs of mechanical parts and assemblie
s');
#92=SHAPE_REPRESENTATION('Collector Housing Lid Locker Back v1.2-None',
(#715),#1097);
#93=PRESENTATION_LAYER_ASSIGNMENT('1','Layer 1',(#102));
#94=STYLED_ITEM('',(#95),#102);
#95=PRESENTATION_STYLE_ASSIGNMENT((#96));
#96=SURFACE_STYLE_USAGE(.BOTH.,#97);
#97=SURFACE_SIDE_STYLE('',(#98));
#98=SURFACE_STYLE_FILL_AREA(#99);
#99=FILL_AREA_STYLE('',(#100));
#100=FILL_AREA_STYLE_COLOUR('',#101);
#101=COLOUR_RGB('Medium Gray',0.490196078431373,0.490196078431373,0.490196078431373);
#102=MANIFOLD_SOLID_BREP('',#103);
#103=CLOSED_SHELL('',(#141,#142,#143,#144,#145,#146,#147,#148,#149,#150,
#151,#152,#153,#154,#155,#156,#157,#158,#159,#160,#161,#162,#163,#164,#165,
#166,#167,#168,#169,#170,#171,#172,#173,#174,#175,#176,#177,#178));
#104=CONICAL_SURFACE('',#748,15.5,45.);
#105=CONICAL_SURFACE('',#754,14.5,45.);
#106=CONICAL_SURFACE('',#760,2.5,45.);
#107=CYLINDRICAL_SURFACE('',#725,15.5);
#108=CYLINDRICAL_SURFACE('',#734,2.5);
#109=FACE_OUTER_BOUND('',#228,.T.);
#110=FACE_OUTER_BOUND('',#229,.T.);
#111=FACE_OUTER_BOUND('',#230,.T.);
#112=FACE_OUTER_BOUND('',#231,.T.);
#113=FACE_OUTER_BOUND('',#232,.T.);
#114=FACE_OUTER_BOUND('',#233,.T.);
#115=FACE_OUTER_BOUND('',#234,.T.);
#116=FACE_OUTER_BOUND('',#235,.T.);
#117=FACE_OUTER_BOUND('',#240,.T.);
#118=FACE_OUTER_BOUND('',#241,.T.);
#119=FACE_OUTER_BOUND('',#242,.T.);
#120=FACE_OUTER_BOUND('',#243,.T.);
#121=FACE_OUTER_BOUND('',#244,.T.);
#122=FACE_OUTER_BOUND('',#245,.T.);
#123=FACE_OUTER_BOUND('',#248,.T.);
#124=FACE_OUTER_BOUND('',#249,.T.);
#125=FACE_OUTER_BOUND('',#250,.T.);
#126=FACE_OUTER_BOUND('',#251,.T.);
#127=FACE_OUTER_BOUND('',#252,.T.);
#128=FACE_OUTER_BOUND('',#253,.T.);
#129=FACE_OUTER_BOUND('',#254,.T.);
#130=FACE_OUTER_BOUND('',#255,.T.);
#131=FACE_OUTER_BOUND('',#256,.T.);
#132=FACE_OUTER_BOUND('',#257,.T.);
#133=FACE_OUTER_BOUND('',#258,.T.);
#134=FACE_OUTER_BOUND('',#259,.T.);
#135=FACE_OUTER_BOUND('',#260,.T.);
#136=FACE_OUTER_BOUND('',#261,.T.);
#137=FACE_OUTER_BOUND('',#262,.T.);
#138=FACE_OUTER_BOUND('',#263,.T.);
#139=FACE_OUTER_BOUND('',#264,.T.);
#140=FACE_OUTER_BOUND('',#265,.T.);
#141=ADVANCED_FACE('',(#212,#213),#179,.F.);
#142=ADVANCED_FACE('',(#214,#215),#180,.T.);
#143=ADVANCED_FACE('',(#109),#181,.F.);
#144=ADVANCED_FACE('',(#110),#182,.F.);
#145=ADVANCED_FACE('',(#111),#183,.F.);
#146=ADVANCED_FACE('',(#112),#107,.T.);
#147=ADVANCED_FACE('',(#113),#184,.T.);
#148=ADVANCED_FACE('',(#114),#185,.T.);
#149=ADVANCED_FACE('',(#115),#186,.T.);
#150=ADVANCED_FACE('',(#116),#187,.T.);
#151=ADVANCED_FACE('',(#216,#217),#188,.F.);
#152=ADVANCED_FACE('',(#218,#219),#108,.F.);
#153=ADVANCED_FACE('',(#117),#189,.T.);
#154=ADVANCED_FACE('',(#118),#190,.T.);
#155=ADVANCED_FACE('',(#119),#191,.T.);
#156=ADVANCED_FACE('',(#120),#192,.T.);
#157=ADVANCED_FACE('',(#121),#193,.T.);
#158=ADVANCED_FACE('',(#122),#194,.T.);
#159=ADVANCED_FACE('',(#220,#221),#195,.F.);
#160=ADVANCED_FACE('',(#123),#196,.T.);
#161=ADVANCED_FACE('',(#124),#197,.T.);
#162=ADVANCED_FACE('',(#125),#198,.T.);
#163=ADVANCED_FACE('',(#126),#199,.T.);
#164=ADVANCED_FACE('',(#127),#200,.T.);
#165=ADVANCED_FACE('',(#128),#201,.T.);
#166=ADVANCED_FACE('',(#129),#104,.T.);
#167=ADVANCED_FACE('',(#130),#202,.F.);
#168=ADVANCED_FACE('',(#131),#203,.F.);
#169=ADVANCED_FACE('',(#132),#204,.F.);
#170=ADVANCED_FACE('',(#133),#205,.T.);
#171=ADVANCED_FACE('',(#134),#206,.T.);
#172=ADVANCED_FACE('',(#135),#105,.T.);
#173=ADVANCED_FACE('',(#136),#207,.T.);
#174=ADVANCED_FACE('',(#137),#208,.F.);
#175=ADVANCED_FACE('',(#138),#209,.F.);
#176=ADVANCED_FACE('',(#139),#210,.F.);
#177=ADVANCED_FACE('',(#140),#211,.F.);
#178=ADVANCED_FACE('',(#222,#223),#106,.F.);
#179=PLANE('',#717);
#180=PLANE('',#719);
#181=PLANE('',#720);
#182=PLANE('',#721);
#183=PLANE('',#722);
#184=PLANE('',#726);
#185=PLANE('',#727);
#186=PLANE('',#728);
#187=PLANE('',#729);
#188=PLANE('',#731);
#189=PLANE('',#735);
#190=PLANE('',#736);
#191=PLANE('',#737);
#192=PLANE('',#738);
#193=PLANE('',#739);
#194=PLANE('',#740);
#195=PLANE('',#741);
#196=PLANE('',#742);
#197=PLANE('',#743);
#198=PLANE('',#744);
#199=PLANE('',#745);
#200=PLANE('',#746);
#201=PLANE('',#747);
#202=PLANE('',#749);
#203=PLANE('',#750);
#204=PLANE('',#751);
#205=PLANE('',#752);
#206=PLANE('',#753);
#207=PLANE('',#755);
#208=PLANE('',#756);
#209=PLANE('',#757);
#210=PLANE('',#758);
#211=PLANE('',#759);
#212=FACE_BOUND('',#224,.T.);
#213=FACE_BOUND('',#225,.T.);
#214=FACE_BOUND('',#226,.T.);
#215=FACE_BOUND('',#227,.T.);
#216=FACE_BOUND('',#236,.T.);
#217=FACE_BOUND('',#237,.T.);
#218=FACE_BOUND('',#238,.T.);
#219=FACE_BOUND('',#239,.T.);
#220=FACE_BOUND('',#246,.T.);
#221=FACE_BOUND('',#247,.T.);
#222=FACE_BOUND('',#266,.T.);
#223=FACE_BOUND('',#267,.T.);
#224=EDGE_LOOP('',(#275,#276,#277,#278));
#225=EDGE_LOOP('',(#279,#280,#281,#282,#283,#284));
#226=EDGE_LOOP('',(#285,#286,#287,#288));
#227=EDGE_LOOP('',(#289,#290,#291,#292));
#228=EDGE_LOOP('',(#293,#294,#295,#296));
#229=EDGE_LOOP('',(#297,#298,#299,#300));
#230=EDGE_LOOP('',(#301,#302,#303,#304));
#231=EDGE_LOOP('',(#305,#306,#307,#308));
#232=EDGE_LOOP('',(#309,#310,#311,#312));
#233=EDGE_LOOP('',(#313,#314,#315,#316));
#234=EDGE_LOOP('',(#317,#318,#319,#320));
#235=EDGE_LOOP('',(#321,#322,#323,#324));
#236=EDGE_LOOP('',(#325));
#237=EDGE_LOOP('',(#326,#327,#328,#329));
#238=EDGE_LOOP('',(#330));
#239=EDGE_LOOP('',(#331));
#240=EDGE_LOOP('',(#332,#333,#334,#335));
#241=EDGE_LOOP('',(#336,#337,#338,#339));
#242=EDGE_LOOP('',(#340,#341,#342,#343));
#243=EDGE_LOOP('',(#344,#345,#346,#347));
#244=EDGE_LOOP('',(#348,#349,#350,#351));
#245=EDGE_LOOP('',(#352,#353,#354,#355));
#246=EDGE_LOOP('',(#356));
#247=EDGE_LOOP('',(#357,#358,#359,#360,#361,#362));
#248=EDGE_LOOP('',(#363,#364,#365,#366));
#249=EDGE_LOOP('',(#367,#368,#369,#370));
#250=EDGE_LOOP('',(#371,#372,#373,#374));
#251=EDGE_LOOP('',(#375,#376,#377,#378));
#252=EDGE_LOOP('',(#379,#380,#381,#382));
#253=EDGE_LOOP('',(#383,#384,#385,#386));
#254=EDGE_LOOP('',(#387,#388,#389,#390));
#255=EDGE_LOOP('',(#391,#392,#393,#394));
#256=EDGE_LOOP('',(#395,#396,#397,#398));
#257=EDGE_LOOP('',(#399,#400,#401,#402));
#258=EDGE_LOOP('',(#403,#404,#405,#406));
#259=EDGE_LOOP('',(#407,#408,#409,#410));
#260=EDGE_LOOP('',(#411,#412,#413,#414));
#261=EDGE_LOOP('',(#415,#416,#417,#418));
#262=EDGE_LOOP('',(#419,#420,#421,#422));
#263=EDGE_LOOP('',(#423,#424,#425,#426));
#264=EDGE_LOOP('',(#427,#428,#429,#430));
#265=EDGE_LOOP('',(#431,#432,#433,#434));
#266=EDGE_LOOP('',(#435));
#267=EDGE_LOOP('',(#436));
#268=CIRCLE('',#716,14.5);
#269=CIRCLE('',#718,14.5);
#270=CIRCLE('',#723,15.5);
#271=CIRCLE('',#724,15.5);
#272=CIRCLE('',#730,3.5);
#273=CIRCLE('',#732,2.5);
#274=CIRCLE('',#733,2.5);
#275=ORIENTED_EDGE('',*,*,#486,.T.);
#276=ORIENTED_EDGE('',*,*,#487,.T.);
#277=ORIENTED_EDGE('',*,*,#488,.T.);
#278=ORIENTED_EDGE('',*,*,#489,.T.);
#279=ORIENTED_EDGE('',*,*,#490,.T.);
#280=ORIENTED_EDGE('',*,*,#491,.T.);
#281=ORIENTED_EDGE('',*,*,#492,.T.);
#282=ORIENTED_EDGE('',*,*,#493,.T.);
#283=ORIENTED_EDGE('',*,*,#494,.T.);
#284=ORIENTED_EDGE('',*,*,#495,.T.);
#285=ORIENTED_EDGE('',*,*,#496,.T.);
#286=ORIENTED_EDGE('',*,*,#497,.T.);
#287=ORIENTED_EDGE('',*,*,#498,.T.);
#288=ORIENTED_EDGE('',*,*,#499,.T.);
#289=ORIENTED_EDGE('',*,*,#500,.T.);
#290=ORIENTED_EDGE('',*,*,#501,.T.);
#291=ORIENTED_EDGE('',*,*,#502,.T.);
#292=ORIENTED_EDGE('',*,*,#503,.T.);
#293=ORIENTED_EDGE('',*,*,#504,.T.);
#294=ORIENTED_EDGE('',*,*,#505,.T.);
#295=ORIENTED_EDGE('',*,*,#506,.F.);
#296=ORIENTED_EDGE('',*,*,#507,.T.);
#297=ORIENTED_EDGE('',*,*,#506,.T.);
#298=ORIENTED_EDGE('',*,*,#508,.T.);
#299=ORIENTED_EDGE('',*,*,#509,.F.);
#300=ORIENTED_EDGE('',*,*,#510,.T.);
#301=ORIENTED_EDGE('',*,*,#509,.T.);
#302=ORIENTED_EDGE('',*,*,#511,.T.);
#303=ORIENTED_EDGE('',*,*,#512,.F.);
#304=ORIENTED_EDGE('',*,*,#513,.T.);
#305=ORIENTED_EDGE('',*,*,#512,.T.);
#306=ORIENTED_EDGE('',*,*,#514,.T.);
#307=ORIENTED_EDGE('',*,*,#504,.F.);
#308=ORIENTED_EDGE('',*,*,#515,.T.);
#309=ORIENTED_EDGE('',*,*,#516,.F.);
#310=ORIENTED_EDGE('',*,*,#517,.T.);
#311=ORIENTED_EDGE('',*,*,#518,.T.);
#312=ORIENTED_EDGE('',*,*,#519,.F.);
#313=ORIENTED_EDGE('',*,*,#520,.F.);
#314=ORIENTED_EDGE('',*,*,#521,.T.);
#315=ORIENTED_EDGE('',*,*,#516,.T.);
#316=ORIENTED_EDGE('',*,*,#522,.F.);
#317=ORIENTED_EDGE('',*,*,#523,.F.);
#318=ORIENTED_EDGE('',*,*,#524,.T.);
#319=ORIENTED_EDGE('',*,*,#520,.T.);
#320=ORIENTED_EDGE('',*,*,#525,.F.);
#321=ORIENTED_EDGE('',*,*,#518,.F.);
#322=ORIENTED_EDGE('',*,*,#526,.T.);
#323=ORIENTED_EDGE('',*,*,#523,.T.);
#324=ORIENTED_EDGE('',*,*,#527,.F.);
#325=ORIENTED_EDGE('',*,*,#528,.T.);
#326=ORIENTED_EDGE('',*,*,#519,.T.);
#327=ORIENTED_EDGE('',*,*,#527,.T.);
#328=ORIENTED_EDGE('',*,*,#525,.T.);
#329=ORIENTED_EDGE('',*,*,#522,.T.);
#330=ORIENTED_EDGE('',*,*,#529,.T.);
#331=ORIENTED_EDGE('',*,*,#530,.F.);
#332=ORIENTED_EDGE('',*,*,#531,.F.);
#333=ORIENTED_EDGE('',*,*,#532,.T.);
#334=ORIENTED_EDGE('',*,*,#533,.T.);
#335=ORIENTED_EDGE('',*,*,#534,.F.);
#336=ORIENTED_EDGE('',*,*,#535,.F.);
#337=ORIENTED_EDGE('',*,*,#536,.T.);
#338=ORIENTED_EDGE('',*,*,#531,.T.);
#339=ORIENTED_EDGE('',*,*,#537,.F.);
#340=ORIENTED_EDGE('',*,*,#538,.F.);
#341=ORIENTED_EDGE('',*,*,#539,.T.);
#342=ORIENTED_EDGE('',*,*,#535,.T.);
#343=ORIENTED_EDGE('',*,*,#540,.F.);
#344=ORIENTED_EDGE('',*,*,#541,.F.);
#345=ORIENTED_EDGE('',*,*,#542,.T.);
#346=ORIENTED_EDGE('',*,*,#538,.T.);
#347=ORIENTED_EDGE('',*,*,#543,.F.);
#348=ORIENTED_EDGE('',*,*,#544,.F.);
#349=ORIENTED_EDGE('',*,*,#545,.T.);
#350=ORIENTED_EDGE('',*,*,#541,.T.);
#351=ORIENTED_EDGE('',*,*,#546,.F.);
#352=ORIENTED_EDGE('',*,*,#533,.F.);
#353=ORIENTED_EDGE('',*,*,#547,.T.);
#354=ORIENTED_EDGE('',*,*,#544,.T.);
#355=ORIENTED_EDGE('',*,*,#548,.F.);
#356=ORIENTED_EDGE('',*,*,#530,.T.);
#357=ORIENTED_EDGE('',*,*,#534,.T.);
#358=ORIENTED_EDGE('',*,*,#548,.T.);
#359=ORIENTED_EDGE('',*,*,#546,.T.);
#360=ORIENTED_EDGE('',*,*,#543,.T.);
#361=ORIENTED_EDGE('',*,*,#540,.T.);
#362=ORIENTED_EDGE('',*,*,#537,.T.);
#363=ORIENTED_EDGE('',*,*,#549,.F.);
#364=ORIENTED_EDGE('',*,*,#539,.F.);
#365=ORIENTED_EDGE('',*,*,#550,.F.);
#366=ORIENTED_EDGE('',*,*,#494,.F.);
#367=ORIENTED_EDGE('',*,*,#550,.T.);
#368=ORIENTED_EDGE('',*,*,#542,.F.);
#369=ORIENTED_EDGE('',*,*,#551,.F.);
#370=ORIENTED_EDGE('',*,*,#495,.F.);
#371=ORIENTED_EDGE('',*,*,#549,.T.);
#372=ORIENTED_EDGE('',*,*,#493,.F.);
#373=ORIENTED_EDGE('',*,*,#552,.F.);
#374=ORIENTED_EDGE('',*,*,#536,.F.);
#375=ORIENTED_EDGE('',*,*,#551,.T.);
#376=ORIENTED_EDGE('',*,*,#545,.F.);
#377=ORIENTED_EDGE('',*,*,#553,.F.);
#378=ORIENTED_EDGE('',*,*,#490,.F.);
#379=ORIENTED_EDGE('',*,*,#552,.T.);
#380=ORIENTED_EDGE('',*,*,#492,.F.);
#381=ORIENTED_EDGE('',*,*,#554,.F.);
#382=ORIENTED_EDGE('',*,*,#532,.F.);
#383=ORIENTED_EDGE('',*,*,#553,.T.);
#384=ORIENTED_EDGE('',*,*,#547,.F.);
#385=ORIENTED_EDGE('',*,*,#554,.T.);
#386=ORIENTED_EDGE('',*,*,#491,.F.);
#387=ORIENTED_EDGE('',*,*,#555,.F.);
#388=ORIENTED_EDGE('',*,*,#489,.F.);
#389=ORIENTED_EDGE('',*,*,#556,.F.);
#390=ORIENTED_EDGE('',*,*,#514,.F.);
#391=ORIENTED_EDGE('',*,*,#556,.T.);
#392=ORIENTED_EDGE('',*,*,#488,.F.);
#393=ORIENTED_EDGE('',*,*,#557,.F.);
#394=ORIENTED_EDGE('',*,*,#505,.F.);
#395=ORIENTED_EDGE('',*,*,#555,.T.);
#396=ORIENTED_EDGE('',*,*,#511,.F.);
#397=ORIENTED_EDGE('',*,*,#558,.F.);
#398=ORIENTED_EDGE('',*,*,#486,.F.);
#399=ORIENTED_EDGE('',*,*,#557,.T.);
#400=ORIENTED_EDGE('',*,*,#487,.F.);
#401=ORIENTED_EDGE('',*,*,#558,.T.);
#402=ORIENTED_EDGE('',*,*,#508,.F.);
#403=ORIENTED_EDGE('',*,*,#559,.F.);
#404=ORIENTED_EDGE('',*,*,#507,.F.);
#405=ORIENTED_EDGE('',*,*,#560,.F.);
#406=ORIENTED_EDGE('',*,*,#503,.F.);
#407=ORIENTED_EDGE('',*,*,#560,.T.);
#408=ORIENTED_EDGE('',*,*,#510,.F.);
#409=ORIENTED_EDGE('',*,*,#561,.F.);
#410=ORIENTED_EDGE('',*,*,#500,.F.);
#411=ORIENTED_EDGE('',*,*,#559,.T.);
#412=ORIENTED_EDGE('',*,*,#502,.F.);
#413=ORIENTED_EDGE('',*,*,#562,.F.);
#414=ORIENTED_EDGE('',*,*,#515,.F.);
#415=ORIENTED_EDGE('',*,*,#561,.T.);
#416=ORIENTED_EDGE('',*,*,#513,.F.);
#417=ORIENTED_EDGE('',*,*,#562,.T.);
#418=ORIENTED_EDGE('',*,*,#501,.F.);
#419=ORIENTED_EDGE('',*,*,#563,.F.);
#420=ORIENTED_EDGE('',*,*,#521,.F.);
#421=ORIENTED_EDGE('',*,*,#564,.F.);
#422=ORIENTED_EDGE('',*,*,#499,.F.);
#423=ORIENTED_EDGE('',*,*,#564,.T.);
#424=ORIENTED_EDGE('',*,*,#524,.F.);
#425=ORIENTED_EDGE('',*,*,#565,.F.);
#426=ORIENTED_EDGE('',*,*,#496,.F.);
#427=ORIENTED_EDGE('',*,*,#563,.T.);
#428=ORIENTED_EDGE('',*,*,#498,.F.);
#429=ORIENTED_EDGE('',*,*,#566,.F.);
#430=ORIENTED_EDGE('',*,*,#517,.F.);
#431=ORIENTED_EDGE('',*,*,#565,.T.);
#432=ORIENTED_EDGE('',*,*,#526,.F.);
#433=ORIENTED_EDGE('',*,*,#566,.T.);
#434=ORIENTED_EDGE('',*,*,#497,.F.);
#435=ORIENTED_EDGE('',*,*,#528,.F.);
#436=ORIENTED_EDGE('',*,*,#529,.F.);
#437=VERTEX_POINT('',#929);
#438=VERTEX_POINT('',#930);
#439=VERTEX_POINT('',#932);
#440=VERTEX_POINT('',#934);
#441=VERTEX_POINT('',#937);
#442=VERTEX_POINT('',#938);
#443=VERTEX_POINT('',#940);
#444=VERTEX_POINT('',#942);
#445=VERTEX_POINT('',#944);
#446=VERTEX_POINT('',#946);
#447=VERTEX_POINT('',#950);
#448=VERTEX_POINT('',#951);
#449=VERTEX_POINT('',#953);
#450=VERTEX_POINT('',#955);
#451=VERTEX_POINT('',#958);
#452=VERTEX_POINT('',#959);
#453=VERTEX_POINT('',#961);
#454=VERTEX_POINT('',#963);
#455=VERTEX_POINT('',#967);
#456=VERTEX_POINT('',#968);
#457=VERTEX_POINT('',#970);
#458=VERTEX_POINT('',#972);
#459=VERTEX_POINT('',#976);
#460=VERTEX_POINT('',#978);
#461=VERTEX_POINT('',#982);
#462=VERTEX_POINT('',#984);
#463=VERTEX_POINT('',#991);
#464=VERTEX_POINT('',#992);
#465=VERTEX_POINT('',#994);
#466=VERTEX_POINT('',#996);
#467=VERTEX_POINT('',#1000);
#468=VERTEX_POINT('',#1001);
#469=VERTEX_POINT('',#1006);
#470=VERTEX_POINT('',#1007);
#471=VERTEX_POINT('',#1015);
#472=VERTEX_POINT('',#1018);
#473=VERTEX_POINT('',#1020);
#474=VERTEX_POINT('',#1023);
#475=VERTEX_POINT('',#1024);
#476=VERTEX_POINT('',#1026);
#477=VERTEX_POINT('',#1028);
#478=VERTEX_POINT('',#1032);
#479=VERTEX_POINT('',#1033);
#480=VERTEX_POINT('',#1038);
#481=VERTEX_POINT('',#1039);
#482=VERTEX_POINT('',#1044);
#483=VERTEX_POINT('',#1045);
#484=VERTEX_POINT('',#1050);
#485=VERTEX_POINT('',#1051);
#486=EDGE_CURVE('',#437,#438,#567,.T.);
#487=EDGE_CURVE('',#438,#439,#568,.T.);
#488=EDGE_CURVE('',#439,#440,#569,.T.);
#489=EDGE_CURVE('',#440,#437,#268,.T.);
#490=EDGE_CURVE('',#441,#442,#570,.T.);
#491=EDGE_CURVE('',#442,#443,#571,.T.);
#492=EDGE_CURVE('',#443,#444,#572,.T.);
#493=EDGE_CURVE('',#444,#445,#573,.T.);
#494=EDGE_CURVE('',#445,#446,#574,.T.);
#495=EDGE_CURVE('',#446,#441,#575,.T.);
#496=EDGE_CURVE('',#447,#448,#576,.T.);
#497=EDGE_CURVE('',#448,#449,#577,.T.);
#498=EDGE_CURVE('',#449,#450,#578,.T.);
#499=EDGE_CURVE('',#450,#447,#579,.T.);
#500=EDGE_CURVE('',#451,#452,#580,.T.);
#501=EDGE_CURVE('',#452,#453,#581,.T.);
#502=EDGE_CURVE('',#453,#454,#269,.T.);
#503=EDGE_CURVE('',#454,#451,#582,.T.);
#504=EDGE_CURVE('',#455,#456,#583,.T.);
#505=EDGE_CURVE('',#456,#457,#584,.T.);
#506=EDGE_CURVE('',#458,#457,#585,.T.);
#507=EDGE_CURVE('',#458,#455,#586,.T.);
#508=EDGE_CURVE('',#457,#459,#587,.T.);
#509=EDGE_CURVE('',#460,#459,#588,.T.);
#510=EDGE_CURVE('',#460,#458,#589,.T.);
#511=EDGE_CURVE('',#459,#461,#590,.T.);
#512=EDGE_CURVE('',#462,#461,#591,.T.);
#513=EDGE_CURVE('',#462,#460,#592,.T.);
#514=EDGE_CURVE('',#461,#456,#270,.T.);
#515=EDGE_CURVE('',#455,#462,#271,.T.);
#516=EDGE_CURVE('',#463,#464,#593,.T.);
#517=EDGE_CURVE('',#463,#465,#594,.T.);
#518=EDGE_CURVE('',#465,#466,#595,.T.);
#519=EDGE_CURVE('',#464,#466,#596,.T.);
#520=EDGE_CURVE('',#467,#468,#597,.T.);
#521=EDGE_CURVE('',#467,#463,#598,.T.);
#522=EDGE_CURVE('',#468,#464,#599,.T.);
#523=EDGE_CURVE('',#469,#470,#600,.T.);
#524=EDGE_CURVE('',#469,#467,#601,.T.);
#525=EDGE_CURVE('',#470,#468,#602,.T.);
#526=EDGE_CURVE('',#465,#469,#603,.T.);
#527=EDGE_CURVE('',#466,#470,#604,.T.);
#528=EDGE_CURVE('',#471,#471,#272,.T.);
#529=EDGE_CURVE('',#472,#472,#273,.T.);
#530=EDGE_CURVE('',#473,#473,#274,.T.);
#531=EDGE_CURVE('',#474,#475,#605,.T.);
#532=EDGE_CURVE('',#474,#476,#606,.T.);
#533=EDGE_CURVE('',#476,#477,#607,.T.);
#534=EDGE_CURVE('',#475,#477,#608,.T.);
#535=EDGE_CURVE('',#478,#479,#609,.T.);
#536=EDGE_CURVE('',#478,#474,#610,.T.);
#537=EDGE_CURVE('',#479,#475,#611,.T.);
#538=EDGE_CURVE('',#480,#481,#612,.T.);
#539=EDGE_CURVE('',#480,#478,#613,.T.);
#540=EDGE_CURVE('',#481,#479,#614,.T.);
#541=EDGE_CURVE('',#482,#483,#615,.T.);
#542=EDGE_CURVE('',#482,#480,#616,.T.);
#543=EDGE_CURVE('',#483,#481,#617,.T.);
#544=EDGE_CURVE('',#484,#485,#618,.T.);
#545=EDGE_CURVE('',#484,#482,#619,.T.);
#546=EDGE_CURVE('',#485,#483,#620,.T.);
#547=EDGE_CURVE('',#476,#484,#621,.T.);
#548=EDGE_CURVE('',#477,#485,#622,.T.);
#549=EDGE_CURVE('',#478,#445,#623,.T.);
#550=EDGE_CURVE('',#446,#480,#624,.T.);
#551=EDGE_CURVE('',#441,#482,#625,.T.);
#552=EDGE_CURVE('',#474,#444,#626,.T.);
#553=EDGE_CURVE('',#442,#484,#627,.T.);
#554=EDGE_CURVE('',#476,#443,#628,.T.);
#555=EDGE_CURVE('',#437,#461,#629,.T.);
#556=EDGE_CURVE('',#456,#440,#630,.T.);
#557=EDGE_CURVE('',#457,#439,#631,.T.);
#558=EDGE_CURVE('',#438,#459,#632,.T.);
#559=EDGE_CURVE('',#455,#454,#633,.T.);
#560=EDGE_CURVE('',#451,#458,#634,.T.);
#561=EDGE_CURVE('',#452,#460,#635,.T.);
#562=EDGE_CURVE('',#462,#453,#636,.T.);
#563=EDGE_CURVE('',#463,#450,#637,.T.);
#564=EDGE_CURVE('',#447,#467,#638,.T.);
#565=EDGE_CURVE('',#448,#469,#639,.T.);
#566=EDGE_CURVE('',#465,#449,#640,.T.);
#567=LINE('',#928,#641);
#568=LINE('',#931,#642);
#569=LINE('',#933,#643);
#570=LINE('',#936,#644);
#571=LINE('',#939,#645);
#572=LINE('',#941,#646);
#573=LINE('',#943,#647);
#574=LINE('',#945,#648);
#575=LINE('',#947,#649);
#576=LINE('',#949,#650);
#577=LINE('',#952,#651);
#578=LINE('',#954,#652);
#579=LINE('',#956,#653);
#580=LINE('',#957,#654);
#581=LINE('',#960,#655);
#582=LINE('',#964,#656);
#583=LINE('',#966,#657);
#584=LINE('',#969,#658);
#585=LINE('',#971,#659);
#586=LINE('',#973,#660);
#587=LINE('',#975,#661);
#588=LINE('',#977,#662);
#589=LINE('',#979,#663);
#590=LINE('',#981,#664);
#591=LINE('',#983,#665);
#592=LINE('',#985,#666);
#593=LINE('',#990,#667);
#594=LINE('',#993,#668);
#595=LINE('',#995,#669);
#596=LINE('',#997,#670);
#597=LINE('',#999,#671);
#598=LINE('',#1002,#672);
#599=LINE('',#1003,#673);
#600=LINE('',#1005,#674);
#601=LINE('',#1008,#675);
#602=LINE('',#1009,#676);
#603=LINE('',#1011,#677);
#604=LINE('',#1012,#678);
#605=LINE('',#1022,#679);
#606=LINE('',#1025,#680);
#607=LINE('',#1027,#681);
#608=LINE('',#1029,#682);
#609=LINE('',#1031,#683);
#610=LINE('',#1034,#684);
#611=LINE('',#1035,#685);
#612=LINE('',#1037,#686);
#613=LINE('',#1040,#687);
#614=LINE('',#1041,#688);
#615=LINE('',#1043,#689);
#616=LINE('',#1046,#690);
#617=LINE('',#1047,#691);
#618=LINE('',#1049,#692);
#619=LINE('',#1052,#693);
#620=LINE('',#1053,#694);
#621=LINE('',#1055,#695);
#622=LINE('',#1056,#696);
#623=LINE('',#1059,#697);
#624=LINE('',#1060,#698);
#625=LINE('',#1062,#699);
#626=LINE('',#1064,#700);
#627=LINE('',#1066,#701);
#628=LINE('',#1068,#702);
#629=LINE('',#1071,#703);
#630=LINE('',#1072,#704);
#631=LINE('',#1074,#705);
#632=LINE('',#1076,#706);
#633=LINE('',#1079,#707);
#634=LINE('',#1080,#708);
#635=LINE('',#1082,#709);
#636=LINE('',#1084,#710);
#637=LINE('',#1087,#711);
#638=LINE('',#1088,#712);
#639=LINE('',#1090,#713);
#640=LINE('',#1092,#714);
#641=VECTOR('',#763,1.);
#642=VECTOR('',#764,1.);
#643=VECTOR('',#765,1.);
#644=VECTOR('',#768,1.);
#645=VECTOR('',#769,1.);
#646=VECTOR('',#770,1.);
#647=VECTOR('',#771,1.);
#648=VECTOR('',#772,1.);
#649=VECTOR('',#773,1.);
#650=VECTOR('',#776,1.);
#651=VECTOR('',#777,1.);
#652=VECTOR('',#778,1.);
#653=VECTOR('',#779,1.);
#654=VECTOR('',#780,1.);
#655=VECTOR('',#781,1.);
#656=VECTOR('',#784,1.);
#657=VECTOR('',#787,1.);
#658=VECTOR('',#788,1.);
#659=VECTOR('',#789,1.);
#660=VECTOR('',#790,1.);
#661=VECTOR('',#793,1.);
#662=VECTOR('',#794,1.);
#663=VECTOR('',#795,1.);
#664=VECTOR('',#798,1.);
#665=VECTOR('',#799,1.);
#666=VECTOR('',#800,1.);
#667=VECTOR('',#809,1.);
#668=VECTOR('',#810,1.);
#669=VECTOR('',#811,1.);
#670=VECTOR('',#812,1.);
#671=VECTOR('',#815,1.);
#672=VECTOR('',#816,1.);
#673=VECTOR('',#817,1.);
#674=VECTOR('',#820,1.);
#675=VECTOR('',#821,1.);
#676=VECTOR('',#822,1.);
#677=VECTOR('',#825,1.);
#678=VECTOR('',#826,1.);
#679=VECTOR('',#839,1.);
#680=VECTOR('',#840,1.);
#681=VECTOR('',#841,1.);
#682=VECTOR('',#842,1.);
#683=VECTOR('',#845,1.);
#684=VECTOR('',#846,1.);
#685=VECTOR('',#847,1.);
#686=VECTOR('',#850,1.);
#687=VECTOR('',#851,1.);
#688=VECTOR('',#852,1.);
#689=VECTOR('',#855,1.);
#690=VECTOR('',#856,1.);
#691=VECTOR('',#857,1.);
#692=VECTOR('',#860,1.);
#693=VECTOR('',#861,1.);
#694=VECTOR('',#862,1.);
#695=VECTOR('',#865,1.);
#696=VECTOR('',#866,1.);
#697=VECTOR('',#871,1.);
#698=VECTOR('',#872,1.);
#699=VECTOR('',#875,1.);
#700=VECTOR('',#878,1.);
#701=VECTOR('',#881,1.);
#702=VECTOR('',#884,1.);
#703=VECTOR('',#889,1.);
#704=VECTOR('',#890,1.);
#705=VECTOR('',#893,1.);
#706=VECTOR('',#896,1.);
#707=VECTOR('',#901,1.);
#708=VECTOR('',#902,1.);
#709=VECTOR('',#905,1.);
#710=VECTOR('',#908,1.);
#711=VECTOR('',#913,1.);
#712=VECTOR('',#914,1.);
#713=VECTOR('',#917,1.);
#714=VECTOR('',#920,1.);
#715=AXIS2_PLACEMENT_3D('',#927,#761,#762);
#716=AXIS2_PLACEMENT_3D('',#935,#766,#767);
#717=AXIS2_PLACEMENT_3D('',#948,#774,#775);
#718=AXIS2_PLACEMENT_3D('',#962,#782,#783);
#719=AXIS2_PLACEMENT_3D('',#965,#785,#786);
#720=AXIS2_PLACEMENT_3D('',#974,#791,#792);
#721=AXIS2_PLACEMENT_3D('',#980,#796,#797);
#722=AXIS2_PLACEMENT_3D('',#986,#801,#802);
#723=AXIS2_PLACEMENT_3D('',#987,#803,#804);
#724=AXIS2_PLACEMENT_3D('',#988,#805,#806);
#725=AXIS2_PLACEMENT_3D('',#989,#807,#808);
#726=AXIS2_PLACEMENT_3D('',#998,#813,#814);
#727=AXIS2_PLACEMENT_3D('',#1004,#818,#819);
#728=AXIS2_PLACEMENT_3D('',#1010,#823,#824);
#729=AXIS2_PLACEMENT_3D('',#1013,#827,#828);
#730=AXIS2_PLACEMENT_3D('',#1014,#829,#830);
#731=AXIS2_PLACEMENT_3D('',#1016,#831,#832);
#732=AXIS2_PLACEMENT_3D('',#1017,#833,#834);
#733=AXIS2_PLACEMENT_3D('',#1019,#835,#836);
#734=AXIS2_PLACEMENT_3D('',#1021,#837,#838);
#735=AXIS2_PLACEMENT_3D('',#1030,#843,#844);
#736=AXIS2_PLACEMENT_3D('',#1036,#848,#849);
#737=AXIS2_PLACEMENT_3D('',#1042,#853,#854);
#738=AXIS2_PLACEMENT_3D('',#1048,#858,#859);
#739=AXIS2_PLACEMENT_3D('',#1054,#863,#864);
#740=AXIS2_PLACEMENT_3D('',#1057,#867,#868);
#741=AXIS2_PLACEMENT_3D('',#1058,#869,#870);
#742=AXIS2_PLACEMENT_3D('',#1061,#873,#874);
#743=AXIS2_PLACEMENT_3D('',#1063,#876,#877);
#744=AXIS2_PLACEMENT_3D('',#1065,#879,#880);
#745=AXIS2_PLACEMENT_3D('',#1067,#882,#883);
#746=AXIS2_PLACEMENT_3D('',#1069,#885,#886);
#747=AXIS2_PLACEMENT_3D('',#1070,#887,#888);
#748=AXIS2_PLACEMENT_3D('',#1073,#891,#892);
#749=AXIS2_PLACEMENT_3D('',#1075,#894,#895);
#750=AXIS2_PLACEMENT_3D('',#1077,#897,#898);
#751=AXIS2_PLACEMENT_3D('',#1078,#899,#900);
#752=AXIS2_PLACEMENT_3D('',#1081,#903,#904);
#753=AXIS2_PLACEMENT_3D('',#1083,#906,#907);
#754=AXIS2_PLACEMENT_3D('',#1085,#909,#910);
#755=AXIS2_PLACEMENT_3D('',#1086,#911,#912);
#756=AXIS2_PLACEMENT_3D('',#1089,#915,#916);
#757=AXIS2_PLACEMENT_3D('',#1091,#918,#919);
#758=AXIS2_PLACEMENT_3D('',#1093,#921,#922);
#759=AXIS2_PLACEMENT_3D('',#1094,#923,#924);
#760=AXIS2_PLACEMENT_3D('',#1095,#925,#926);
#761=DIRECTION('',(0.,0.,1.));
#762=DIRECTION('',(1.,0.,0.));
#763=DIRECTION('',(-1.,-1.30104260698261E-16,0.));
#764=DIRECTION('',(-1.83715476693925E-16,1.,0.));
#765=DIRECTION('',(1.,0.,0.));
#766=DIRECTION('',(0.,0.,-1.));
#767=DIRECTION('',(1.,0.,0.));
#768=DIRECTION('',(-1.,7.5115729936858E-16,0.));
#769=DIRECTION('',(-0.500000000000001,-0.866025403784438,0.));
#770=DIRECTION('',(0.5,-0.866025403784439,0.));
#771=DIRECTION('',(1.,0.,0.));
#772=DIRECTION('',(0.500000000000001,0.866025403784438,0.));
#773=DIRECTION('',(-0.499999999999999,0.866025403784439,0.));
#774=DIRECTION('',(0.,0.,1.));
#775=DIRECTION('',(1.,0.,0.));
#776=DIRECTION('',(-1.,-4.65413615505973E-16,0.));
#777=DIRECTION('',(-1.65211759616839E-16,1.,0.));
#778=DIRECTION('',(1.,4.23103286823612E-16,0.));
#779=DIRECTION('',(9.91270557701034E-16,-1.,0.));
#780=DIRECTION('',(1.83715476693925E-16,-1.,0.));
#781=DIRECTION('',(1.,1.30104260698261E-16,0.));
#782=DIRECTION('',(0.,0.,1.));
#783=DIRECTION('',(1.,0.,0.));
#784=DIRECTION('',(-1.,0.,0.));
#785=DIRECTION('',(0.,0.,1.));
#786=DIRECTION('',(1.,0.,0.));
#787=DIRECTION('',(0.,0.,-1.));
#788=DIRECTION('',(-1.,0.,0.));
#789=DIRECTION('',(0.,0.,-1.));
#790=DIRECTION('',(1.,0.,0.));
#791=DIRECTION('',(0.,-1.,0.));
#792=DIRECTION('',(0.,0.,-1.));
#793=DIRECTION('',(1.83715476693925E-16,-1.,0.));
#794=DIRECTION('',(0.,0.,-1.));
#795=DIRECTION('',(-1.83715476693925E-16,1.,0.));
#796=DIRECTION('',(1.,1.83715476693925E-16,0.));
#797=DIRECTION('',(-1.83715476693925E-16,1.,0.));
#798=DIRECTION('',(1.,1.30104260698261E-16,0.));
#799=DIRECTION('',(0.,0.,-1.));
#800=DIRECTION('',(-1.,-1.30104260698261E-16,0.));
#801=DIRECTION('',(-1.30104260698261E-16,1.,0.));
#802=DIRECTION('',(-1.,-1.30104260698261E-16,0.));
#803=DIRECTION('',(0.,0.,1.));
#804=DIRECTION('',(1.,0.,0.));
#805=DIRECTION('',(0.,0.,-1.));
#806=DIRECTION('',(1.,0.,0.));
#807=DIRECTION('',(0.,0.,-1.));
#808=DIRECTION('',(-1.,0.,0.));
#809=DIRECTION('',(0.,0.,-1.));
#810=DIRECTION('',(-1.,-4.23103286823612E-16,0.));
#811=DIRECTION('',(0.,0.,-1.));
#812=DIRECTION('',(-1.,-4.23103286823612E-16,0.));
#813=DIRECTION('',(4.23103286823612E-16,-1.,0.));
#814=DIRECTION('',(1.,4.23272528138341E-16,0.));
#815=DIRECTION('',(0.,0.,-1.));
#816=DIRECTION('',(-9.91270557701034E-16,1.,0.));
#817=DIRECTION('',(-9.91270557701034E-16,1.,0.));
#818=DIRECTION('',(-1.,-9.91270557701034E-16,0.));
#819=DIRECTION('',(9.92261828258734E-16,-1.,0.));
#820=DIRECTION('',(0.,0.,-1.));
#821=DIRECTION('',(1.,4.65413615505973E-16,0.));
#822=DIRECTION('',(1.,4.65413615505973E-16,0.));
#823=DIRECTION('',(-4.65413615505973E-16,1.,0.));
#824=DIRECTION('',(-1.,-4.65773253299773E-16,0.));
#825=DIRECTION('',(1.65211759616839E-16,-1.,0.));
#826=DIRECTION('',(1.65211759616839E-16,-1.,0.));
#827=DIRECTION('',(1.,1.65211759616839E-16,0.));
#828=DIRECTION('',(-1.64798730217797E-16,1.,0.));
#829=DIRECTION('',(0.,0.,-1.));
#830=DIRECTION('',(-1.,0.,0.));
#831=DIRECTION('',(0.,0.,-1.));
#832=DIRECTION('',(-1.,0.,0.));
#833=DIRECTION('',(0.,0.,1.));
#834=DIRECTION('',(-1.,0.,0.));
#835=DIRECTION('',(0.,0.,1.));
#836=DIRECTION('',(0.999999999999999,0.,0.));
#837=DIRECTION('',(0.,0.,-1.));
#838=DIRECTION('',(-1.,0.,0.));
#839=DIRECTION('',(0.,0.,1.));
#840=DIRECTION('',(-0.5,0.866025403784439,0.));
#841=DIRECTION('',(0.,0.,1.));
#842=DIRECTION('',(-0.5,0.866025403784439,0.));
#843=DIRECTION('',(0.866025403784439,0.5,0.));
#844=DIRECTION('',(-0.5,0.866025403784439,0.));
#845=DIRECTION('',(0.,0.,1.));
#846=DIRECTION('',(-1.,0.,0.));
#847=DIRECTION('',(-1.,0.,0.));
#848=DIRECTION('',(0.,1.,0.));
#849=DIRECTION('',(0.,0.,1.));
#850=DIRECTION('',(0.,0.,1.));
#851=DIRECTION('',(-0.500000000000001,-0.866025403784438,0.));
#852=DIRECTION('',(-0.500000000000001,-0.866025403784438,0.));
#853=DIRECTION('',(-0.866025403784438,0.500000000000001,0.));
#854=DIRECTION('',(-0.500000000000001,-0.866025403784438,0.));
#855=DIRECTION('',(0.,0.,1.));
#856=DIRECTION('',(0.499999999999999,-0.866025403784439,0.));
#857=DIRECTION('',(0.499999999999999,-0.866025403784439,0.));
#858=DIRECTION('',(-0.866025403784439,-0.499999999999999,0.));
#859=DIRECTION('',(0.499999999999999,-0.866025403784439,0.));
#860=DIRECTION('',(0.,0.,1.));
#861=DIRECTION('',(1.,-7.5115729936858E-16,0.));
#862=DIRECTION('',(1.,-7.5115729936858E-16,0.));
#863=DIRECTION('',(-7.5115729936858E-16,-1.,0.));
#864=DIRECTION('',(1.,-7.51135265097957E-16,0.));
#865=DIRECTION('',(0.500000000000001,0.866025403784438,0.));
#866=DIRECTION('',(0.500000000000001,0.866025403784438,0.));
#867=DIRECTION('',(0.866025403784438,-0.500000000000001,0.));
#868=DIRECTION('',(0.500000000000001,0.866025403784438,0.));
#869=DIRECTION('',(0.,0.,1.));
#870=DIRECTION('',(1.,0.,0.));
#871=DIRECTION('',(0.377964473009223,-0.654653670707978,-0.654653670707979));
#872=DIRECTION('',(-0.755928946018452,1.76242441378566E-15,0.65465367070798));
#873=DIRECTION('',(-0.612372435695796,0.353553390593275,-0.707106781186545));
#874=DIRECTION('',(-0.500000000000001,-0.866025403784438,0.));
#875=DIRECTION('',(-0.377964473009223,-0.654653670707978,0.654653670707979));
#876=DIRECTION('',(-0.612372435695797,-0.353553390593275,-0.707106781186545));
#877=DIRECTION('',(0.499999999999999,-0.866025403784439,0.));
#878=DIRECTION('',(-0.377964473009224,-0.654653670707978,-0.654653670707979));
#879=DIRECTION('',(0.,0.707106781186548,-0.707106781186547));
#880=DIRECTION('',(-1.,0.,0.));
#881=DIRECTION('',(0.377964473009229,-0.654653670707977,0.654653670707976));
#882=DIRECTION('',(-5.31148420121296E-16,-0.707106781186547,-0.707106781186548));
#883=DIRECTION('',(1.,-7.51135265097957E-16,0.));
#884=DIRECTION('',(-0.755928946018454,7.41506950191887E-15,-0.654653670707977));
#885=DIRECTION('',(0.612372435695796,0.353553390593275,-0.707106781186545));
#886=DIRECTION('',(-0.5,0.866025403784439,0.));
#887=DIRECTION('',(0.612372435695793,-0.353553390593274,-0.707106781186549));
#888=DIRECTION('',(0.500000000000001,0.866025403784438,0.));
#889=DIRECTION('',(0.,-0.707106781186547,0.707106781186548));
#890=DIRECTION('',(0.,-0.707106781186547,-0.707106781186548));
#891=DIRECTION('',(0.,0.,1.));
#892=DIRECTION('',(1.,0.,-1.08473599925679E-16));
#893=DIRECTION('',(0.577350269189625,-0.577350269189627,-0.577350269189626));
#894=DIRECTION('',(0.,-0.707106781186547,0.707106781186548));
#895=DIRECTION('',(-1.,0.,0.));
#896=DIRECTION('',(-0.577350269189624,-0.577350269189627,0.577350269189626));
#897=DIRECTION('',(-9.19976050010024E-17,0.707106781186547,0.707106781186548));
#898=DIRECTION('',(1.,1.30104260698261E-16,0.));
#899=DIRECTION('',(0.707106781186549,1.29906459379194E-16,0.707106781186546));
#900=DIRECTION('',(1.83715476693925E-16,-1.,0.));
#901=DIRECTION('',(0.,-0.707106781186548,0.707106781186547));
#902=DIRECTION('',(-0.577350269189625,0.577350269189627,-0.577350269189626));
#903=DIRECTION('',(0.,0.707106781186547,0.707106781186548));
#904=DIRECTION('',(1.,0.,0.));
#905=DIRECTION('',(-0.577350269189624,-0.577350269189627,-0.577350269189626));
#906=DIRECTION('',(-0.707106781186549,-1.29906459379194E-16,0.707106781186546));
#907=DIRECTION('',(-1.83663848019044E-16,1.,0.));
#908=DIRECTION('',(0.,0.707106781186547,0.707106781186548));
#909=DIRECTION('',(0.,0.,-1.));
#910=DIRECTION('',(-1.,0.,4.27482374563038E-18));
#911=DIRECTION('',(9.19976050010024E-17,-0.707106781186547,0.707106781186548));
#912=DIRECTION('',(-1.,-1.30104260698261E-16,0.));
#913=DIRECTION('',(0.577350269189626,0.577350269189626,0.577350269189625));
#914=DIRECTION('',(-0.577350269189627,0.577350269189625,-0.577350269189625));
#915=DIRECTION('',(0.707106781186547,7.00934133340971E-16,-0.707106781186548));
#916=DIRECTION('',(9.92261828258734E-16,-1.,0.));
#917=DIRECTION('',(0.577350269189625,0.577350269189627,-0.577350269189626));
#918=DIRECTION('',(3.29097123580822E-16,-0.707106781186547,-0.707106781186548));
#919=DIRECTION('',(-1.,-4.65773253299773E-16,0.));
#920=DIRECTION('',(-0.577350269189625,0.577350269189626,0.577350269189626));
#921=DIRECTION('',(-2.99179203255293E-16,0.707106781186548,-0.707106781186548));
#922=DIRECTION('',(1.,4.23272528138341E-16,0.));
#923=DIRECTION('',(-0.707106781186548,-1.16822355556829E-16,-0.707106781186547));
#924=DIRECTION('',(-1.65232411086791E-16,1.,0.));
#925=DIRECTION('',(0.,0.,1.));
#926=DIRECTION('',(1.,0.,-5.32097225798373E-17));
#927=CARTESIAN_POINT('',(0.,0.,0.));
#928=CARTESIAN_POINT('',(40.,-14.5,0.));
#929=CARTESIAN_POINT('',(40.,-14.5,0.));
#930=CARTESIAN_POINT('',(0.999999999999996,-14.5,0.));
#931=CARTESIAN_POINT('',(0.999999999999994,1.7644615927078E-16,0.));
#932=CARTESIAN_POINT('',(0.999999999999991,14.5,0.));
#933=CARTESIAN_POINT('',(40.,14.5,0.));
#934=CARTESIAN_POINT('',(40.,14.5,0.));
#935=CARTESIAN_POINT('',(40.,7.34134975033385E-15,0.));
#936=CARTESIAN_POINT('',(12.6905989232415,4.5,0.));
#937=CARTESIAN_POINT('',(17.5980762113533,4.5,0.));
#938=CARTESIAN_POINT('',(12.4019237886467,4.5,0.));
#939=CARTESIAN_POINT('',(9.94818514459077,0.250000000000007,0.));
#940=CARTESIAN_POINT('',(9.80384757729336,8.47943677079188E-15,0.));
#941=CARTESIAN_POINT('',(12.2575862213493,-4.25,0.));
#942=CARTESIAN_POINT('',(12.4019237886467,-4.5,0.));
#943=CARTESIAN_POINT('',(17.3094010767585,-4.5,0.));
#944=CARTESIAN_POINT('',(17.5980762113533,-4.5,0.));
#945=CARTESIAN_POINT('',(20.0518148554092,-0.250000000000003,0.));
#946=CARTESIAN_POINT('',(20.1961524227066,-5.33525047058391E-15,0.));
#947=CARTESIAN_POINT('',(17.7424137786507,4.25,0.));
#948=CARTESIAN_POINT('',(40.,7.34134975033385E-15,0.));
#949=CARTESIAN_POINT('',(40.,-6.24999999999998,5.));
#950=CARTESIAN_POINT('',(26.25,-6.24999999999998,5.));
#951=CARTESIAN_POINT('',(3.75,-6.25,5.));
#952=CARTESIAN_POINT('',(3.75,1.35242346422343E-15,5.));
#953=CARTESIAN_POINT('',(3.75,6.24999999999999,5.));
#954=CARTESIAN_POINT('',(40.,6.25000000000001,5.));
#955=CARTESIAN_POINT('',(26.25,6.25,5.));
#956=CARTESIAN_POINT('',(26.25,-6.28862041805538E-15,5.));
#957=CARTESIAN_POINT('',(0.999999999999997,-15.5,5.));
#958=CARTESIAN_POINT('',(0.999999999999991,14.5,5.));
#959=CARTESIAN_POINT('',(0.999999999999997,-14.5,5.));
#960=CARTESIAN_POINT('',(40.,-14.5,5.));
#961=CARTESIAN_POINT('',(40.,-14.5,5.));
#962=CARTESIAN_POINT('',(40.,7.34134975033385E-15,5.));
#963=CARTESIAN_POINT('',(40.,14.5,5.));
#964=CARTESIAN_POINT('',(0.,14.5,5.));
#965=CARTESIAN_POINT('',(40.,7.34134975033385E-15,5.));
#966=CARTESIAN_POINT('',(40.,15.5,5.));
#967=CARTESIAN_POINT('',(40.,15.5,4.));
#968=CARTESIAN_POINT('',(40.,15.5,1.));
#969=CARTESIAN_POINT('',(40.,15.5,1.));
#970=CARTESIAN_POINT('',(0.,15.5,1.));
#971=CARTESIAN_POINT('',(0.,15.5,5.));
#972=CARTESIAN_POINT('',(0.,15.5,4.));
#973=CARTESIAN_POINT('',(40.,15.5,4.));
#974=CARTESIAN_POINT('',(40.,15.5,5.));
#975=CARTESIAN_POINT('',(-5.69517977751167E-15,15.5,1.));
#976=CARTESIAN_POINT('',(0.,-15.5,1.));
#977=CARTESIAN_POINT('',(0.,-15.5,5.));
#978=CARTESIAN_POINT('',(0.,-15.5,4.));
#979=CARTESIAN_POINT('',(-5.69517977751167E-15,15.5,4.));
#980=CARTESIAN_POINT('',(-5.69517977751167E-15,15.5,5.));
#981=CARTESIAN_POINT('',(0.,-15.5,1.));
#982=CARTESIAN_POINT('',(40.,-15.5,1.));
#983=CARTESIAN_POINT('',(40.,-15.5,5.));
#984=CARTESIAN_POINT('',(40.,-15.5,4.));
#985=CARTESIAN_POINT('',(7.22223729145213E-32,-15.5,4.));
#986=CARTESIAN_POINT('',(0.,-15.5,5.));
#987=CARTESIAN_POINT('',(40.,7.34134975033385E-15,1.));
#988=CARTESIAN_POINT('',(40.,7.34134975033385E-15,4.));
#989=CARTESIAN_POINT('',(40.,7.34134975033385E-15,5.));
#990=CARTESIAN_POINT('',(25.25,5.25,3.5));
#991=CARTESIAN_POINT('',(25.25,5.25,4.));
#992=CARTESIAN_POINT('',(25.25,5.25,3.5));
#993=CARTESIAN_POINT('',(4.75,5.24999999999999,4.));
#994=CARTESIAN_POINT('',(4.75,5.24999999999999,4.));
#995=CARTESIAN_POINT('',(4.75,5.24999999999999,3.5));
#996=CARTESIAN_POINT('',(4.75,5.24999999999999,3.5));
#997=CARTESIAN_POINT('',(4.75,5.24999999999999,3.5));
#998=CARTESIAN_POINT('',(4.75,5.24999999999999,3.5));
#999=CARTESIAN_POINT('',(25.25,-5.24999999999998,3.5));
#1000=CARTESIAN_POINT('',(25.25,-5.24999999999998,4.));
#1001=CARTESIAN_POINT('',(25.25,-5.24999999999998,3.5));
#1002=CARTESIAN_POINT('',(25.25,5.25,4.));
#1003=CARTESIAN_POINT('',(25.25,5.25,3.5));
#1004=CARTESIAN_POINT('',(25.25,5.25,3.5));
#1005=CARTESIAN_POINT('',(4.75,-5.24999999999999,3.5));
#1006=CARTESIAN_POINT('',(4.75,-5.24999999999999,4.));
#1007=CARTESIAN_POINT('',(4.75,-5.24999999999999,3.5));
#1008=CARTESIAN_POINT('',(25.25,-5.24999999999998,4.));
#1009=CARTESIAN_POINT('',(25.25,-5.24999999999998,3.5));
#1010=CARTESIAN_POINT('',(25.25,-5.24999999999998,3.5));
#1011=CARTESIAN_POINT('',(4.75,-5.24999999999999,4.));
#1012=CARTESIAN_POINT('',(4.75,-5.24999999999999,3.5));
#1013=CARTESIAN_POINT('',(4.75,-5.24999999999999,3.5));
#1014=CARTESIAN_POINT('',(15.,0.,3.5));
#1015=CARTESIAN_POINT('',(11.5,0.,3.5));
#1016=CARTESIAN_POINT('',(0.,0.,3.5));
#1017=CARTESIAN_POINT('',(15.,0.,2.5));
#1018=CARTESIAN_POINT('',(12.5,0.,2.5));
#1019=CARTESIAN_POINT('',(15.,0.,1.5));
#1020=CARTESIAN_POINT('',(17.5,0.,1.5));
#1021=CARTESIAN_POINT('',(15.,0.,5.5));
#1022=CARTESIAN_POINT('',(12.6905989232415,-4.,1.5));
#1023=CARTESIAN_POINT('',(12.6905989232415,-4.,0.5));
#1024=CARTESIAN_POINT('',(12.6905989232415,-4.,1.5));
#1025=CARTESIAN_POINT('',(10.381197846483,5.0011623542372E-15,0.5));
#1026=CARTESIAN_POINT('',(10.381197846483,5.32907051820075E-15,0.5));
#1027=CARTESIAN_POINT('',(10.381197846483,5.32907051820075E-15,1.5));
#1028=CARTESIAN_POINT('',(10.381197846483,5.32907051820075E-15,1.5));
#1029=CARTESIAN_POINT('',(10.381197846483,5.32907051820075E-15,1.5));
#1030=CARTESIAN_POINT('',(10.381197846483,5.32907051820075E-15,1.5));
#1031=CARTESIAN_POINT('',(17.3094010767585,-4.,1.5));
#1032=CARTESIAN_POINT('',(17.3094010767585,-4.,0.5));
#1033=CARTESIAN_POINT('',(17.3094010767585,-4.,1.5));
#1034=CARTESIAN_POINT('',(12.6905989232415,-4.,0.5));
#1035=CARTESIAN_POINT('',(12.6905989232415,-4.,1.5));
#1036=CARTESIAN_POINT('',(12.6905989232415,-4.,1.5));
#1037=CARTESIAN_POINT('',(19.618802153517,-4.33680868994202E-15,1.5));
#1038=CARTESIAN_POINT('',(19.618802153517,-4.33680868994202E-15,0.499999999999999));
#1039=CARTESIAN_POINT('',(19.618802153517,-4.33680868994202E-15,1.5));
#1040=CARTESIAN_POINT('',(17.3094010767585,-4.,0.5));
#1041=CARTESIAN_POINT('',(17.3094010767585,-4.,1.5));
#1042=CARTESIAN_POINT('',(17.3094010767585,-4.,1.5));
#1043=CARTESIAN_POINT('',(17.3094010767585,4.,1.5));
#1044=CARTESIAN_POINT('',(17.3094010767585,4.,0.5));
#1045=CARTESIAN_POINT('',(17.3094010767585,4.,1.5));
#1046=CARTESIAN_POINT('',(19.618802153517,-4.11825503353353E-15,0.499999999999999));
#1047=CARTESIAN_POINT('',(19.618802153517,-3.5527136788005E-15,1.5));
#1048=CARTESIAN_POINT('',(19.618802153517,-3.5527136788005E-15,1.5));
#1049=CARTESIAN_POINT('',(12.6905989232415,4.,1.5));
#1050=CARTESIAN_POINT('',(12.6905989232415,4.,0.5));
#1051=CARTESIAN_POINT('',(12.6905989232415,4.,1.5));
#1052=CARTESIAN_POINT('',(17.3094010767585,4.,0.5));
#1053=CARTESIAN_POINT('',(17.3094010767585,4.,1.5));
#1054=CARTESIAN_POINT('',(17.3094010767585,4.,1.5));
#1055=CARTESIAN_POINT('',(12.6905989232415,4.,0.5));
#1056=CARTESIAN_POINT('',(12.6905989232415,4.,1.5));
#1057=CARTESIAN_POINT('',(12.6905989232415,4.,1.5));
#1058=CARTESIAN_POINT('',(0.,0.,1.5));
#1059=CARTESIAN_POINT('',(20.7983510383028,-10.0430385984602,-5.54303859846024));
#1060=CARTESIAN_POINT('',(23.0252735051771,-8.67361737988404E-15,-2.45009072780157));
#1061=CARTESIAN_POINT('',(25.14711431703,8.5753175473055,0.));
#1062=CARTESIAN_POINT('',(15.44120818116,0.764194986484107,3.7358050135159));
#1063=CARTESIAN_POINT('',(25.14711431703,-8.57531754730548,0.));
#1064=CARTESIAN_POINT('',(10.9873632474114,-6.95009072780158,-2.45009072780158));
#1065=CARTESIAN_POINT('',(40.,-4.5,0.));
#1066=CARTESIAN_POINT('',(10.9873632474114,6.95009072780156,-2.45009072780156));
#1067=CARTESIAN_POINT('',(40.,4.49999999999998,0.));
#1068=CARTESIAN_POINT('',(14.11758363768,-3.12250225675825E-14,3.73580501351581));
#1069=CARTESIAN_POINT('',(17.35288568297,-13.0753175473055,0.));
#1070=CARTESIAN_POINT('',(17.3528856829701,13.0753175473055,0.));
#1071=CARTESIAN_POINT('',(40.,-14.5,0.));
#1072=CARTESIAN_POINT('',(40.,15.5,1.));
#1073=CARTESIAN_POINT('',(40.,7.34134975033385E-15,1.));
#1074=CARTESIAN_POINT('',(13.3333333333333,2.16666666666667,-12.3333333333333));
#1075=CARTESIAN_POINT('',(40.,15.5,1.));
#1076=CARTESIAN_POINT('',(1.45262733201754E-30,-15.5,1.));
#1077=CARTESIAN_POINT('',(0.,-15.5,1.));
#1078=CARTESIAN_POINT('',(-5.69517977751167E-15,15.5,1.));
#1079=CARTESIAN_POINT('',(40.,15.5,4.));
#1080=CARTESIAN_POINT('',(5.83333333333332,9.66666666666665,9.83333333333334));
#1081=CARTESIAN_POINT('',(40.,14.5,5.));
#1082=CARTESIAN_POINT('',(5.83333333333332,-9.66666666666665,9.83333333333334));
#1083=CARTESIAN_POINT('',(0.999999999999994,1.7644615927078E-16,5.));
#1084=CARTESIAN_POINT('',(40.,-15.5,4.));
#1085=CARTESIAN_POINT('',(40.,7.34134975033385E-15,5.));
#1086=CARTESIAN_POINT('',(40.,-14.5,5.));
#1087=CARTESIAN_POINT('',(24.1666666666667,4.16666666666667,2.91666666666667));
#1088=CARTESIAN_POINT('',(30.8333333333334,-10.8333333333333,9.58333333333333));
#1089=CARTESIAN_POINT('',(26.25,-6.28862041805538E-15,5.));
#1090=CARTESIAN_POINT('',(5.83333333333334,-4.16666666666666,2.91666666666667));
#1091=CARTESIAN_POINT('',(40.,-6.24999999999998,5.));
#1092=CARTESIAN_POINT('',(5.83333333333333,4.16666666666666,2.91666666666667));
#1093=CARTESIAN_POINT('',(40.,6.25000000000001,5.));
#1094=CARTESIAN_POINT('',(3.75,1.35242346422343E-15,5.));
#1095=CARTESIAN_POINT('',(15.,0.,2.5));
#1096=MECHANICAL_DESIGN_GEOMETRIC_PRESENTATION_REPRESENTATION('',(#94),
#1097);
#1097=(
GEOMETRIC_REPRESENTATION_CONTEXT(3)
GLOBAL_UNCERTAINTY_ASSIGNED_CONTEXT((#1098))
GLOBAL_UNIT_ASSIGNED_CONTEXT((#1104,#1100,#1099))
REPRESENTATION_CONTEXT('Collector Housing Lid Locker Back v1',
'TOP_LEVEL_ASSEMBLY_PART')
);
#1098=UNCERTAINTY_MEASURE_WITH_UNIT(LENGTH_MEASURE(2.E-5),#1104,
'DISTANCE_ACCURACY_VALUE','Maximum Tolerance applied to model');
#1099=(
NAMED_UNIT(*)
SI_UNIT($,.STERADIAN.)
SOLID_ANGLE_UNIT()
);
#1100=(
CONVERSION_BASED_UNIT('DEGREE',#1102)
NAMED_UNIT(#1101)
PLANE_ANGLE_UNIT()
);
#1101=DIMENSIONAL_EXPONENTS(0.,0.,0.,0.,0.,0.,0.);
#1102=PLANE_ANGLE_MEASURE_WITH_UNIT(PLANE_ANGLE_MEASURE(0.0174532925),#1103);
#1103=(
NAMED_UNIT(*)
PLANE_ANGLE_UNIT()
SI_UNIT($,.RADIAN.)
);
#1104=(
LENGTH_UNIT()
NAMED_UNIT(*)
SI_UNIT(.MILLI.,.METRE.)
);
ENDSEC;
END-ISO-10303-21;
