ISO-10303-21;
HEADER;
/* Generated by software containing ST-Developer
 * from STEP Tools, Inc. (www.steptools.com) 
 */
/* OPTION: using custom schema-name function */

FILE_DESCRIPTION(
/* description */ (''),
/* implementation_level */ '2;1');

FILE_NAME(
/* name */ 'Cylinder Lock Sleeve.stp',
/* time_stamp */ '2021-05-13T18:38:23+02:00',
/* author */ (''),
/* organization */ (''),
/* preprocessor_version */ 'ST-DEVELOPER v16.7',
/* originating_system */ 'SIEMENS PLM Software NX 12.0',
/* authorisation */ '');

FILE_SCHEMA (('AP203_CONFIGURATION_CONTROLLED_3D_DESIGN_OF_MECHANICAL_PARTS_AND_ASSEMBLIES_MIM_LF { 1 0 10303 403 2 1 2}'));
ENDSEC;

DATA;
#10=SHAPE_REPRESENTATION_RELATIONSHIP('None',
'relationship between Cylinder Lock Sleeve-None and Cylinder Lock Slee
ve-None',#92,#11);
#11=ADVANCED_BREP_SHAPE_REPRESENTATION('Cylinder Lock Sleeve-None',(#102),
#531);
#12=CC_DESIGN_APPROVAL(#24,(#82));
#13=CC_DESIGN_APPROVAL(#25,(#84));
#14=CC_DESIGN_APPROVAL(#26,(#31));
#15=APPROVAL_PERSON_ORGANIZATION(#69,#24,#18);
#16=APPROVAL_PERSON_ORGANIZATION(#70,#25,#19);
#17=APPROVAL_PERSON_ORGANIZATION(#71,#26,#20);
#18=APPROVAL_ROLE('approver');
#19=APPROVAL_ROLE('approver');
#20=APPROVAL_ROLE('approver');
#21=APPROVAL_DATE_TIME(#39,#24);
#22=APPROVAL_DATE_TIME(#40,#25);
#23=APPROVAL_DATE_TIME(#41,#26);
#24=APPROVAL(#27,' ');
#25=APPROVAL(#28,' ');
#26=APPROVAL(#29,' ');
#27=APPROVAL_STATUS('not_yet_approved');
#28=APPROVAL_STATUS('not_yet_approved');
#29=APPROVAL_STATUS('not_yet_approved');
#30=CC_DESIGN_SECURITY_CLASSIFICATION(#31,(#84));
#31=SECURITY_CLASSIFICATION(' ',' ',#32);
#32=SECURITY_CLASSIFICATION_LEVEL('confidential');
#33=CC_DESIGN_DATE_AND_TIME_ASSIGNMENT(#37,#35,(#82));
#34=CC_DESIGN_DATE_AND_TIME_ASSIGNMENT(#38,#36,(#31));
#35=DATE_TIME_ROLE('creation_date');
#36=DATE_TIME_ROLE('classification_date');
#37=DATE_AND_TIME(#52,#42);
#38=DATE_AND_TIME(#53,#43);
#39=DATE_AND_TIME(#54,#44);
#40=DATE_AND_TIME(#55,#45);
#41=DATE_AND_TIME(#56,#46);
#42=LOCAL_TIME(0,0,0.,#47);
#43=LOCAL_TIME(0,0,0.,#48);
#44=LOCAL_TIME(0,0,0.,#49);
#45=LOCAL_TIME(0,0,0.,#50);
#46=LOCAL_TIME(0,0,0.,#51);
#47=COORDINATED_UNIVERSAL_TIME_OFFSET(0,0,.BEHIND.);
#48=COORDINATED_UNIVERSAL_TIME_OFFSET(0,0,.BEHIND.);
#49=COORDINATED_UNIVERSAL_TIME_OFFSET(0,0,.BEHIND.);
#50=COORDINATED_UNIVERSAL_TIME_OFFSET(0,0,.BEHIND.);
#51=COORDINATED_UNIVERSAL_TIME_OFFSET(0,0,.BEHIND.);
#52=CALENDAR_DATE(0,1,1);
#53=CALENDAR_DATE(0,1,1);
#54=CALENDAR_DATE(0,1,1);
#55=CALENDAR_DATE(0,1,1);
#56=CALENDAR_DATE(0,1,1);
#57=CC_DESIGN_PERSON_AND_ORGANIZATION_ASSIGNMENT(#65,#61,(#82,#84));
#58=CC_DESIGN_PERSON_AND_ORGANIZATION_ASSIGNMENT(#66,#62,(#86));
#59=CC_DESIGN_PERSON_AND_ORGANIZATION_ASSIGNMENT(#67,#63,(#84));
#60=CC_DESIGN_PERSON_AND_ORGANIZATION_ASSIGNMENT(#68,#64,(#31));
#61=PERSON_AND_ORGANIZATION_ROLE('creator');
#62=PERSON_AND_ORGANIZATION_ROLE('design_owner');
#63=PERSON_AND_ORGANIZATION_ROLE('design_supplier');
#64=PERSON_AND_ORGANIZATION_ROLE('classification_officer');
#65=PERSON_AND_ORGANIZATION(#79,#72);
#66=PERSON_AND_ORGANIZATION(#79,#73);
#67=PERSON_AND_ORGANIZATION(#79,#74);
#68=PERSON_AND_ORGANIZATION(#79,#75);
#69=PERSON_AND_ORGANIZATION(#79,#76);
#70=PERSON_AND_ORGANIZATION(#79,#77);
#71=PERSON_AND_ORGANIZATION(#79,#78);
#72=ORGANIZATION(' ',' ',' ');
#73=ORGANIZATION(' ',' ',' ');
#74=ORGANIZATION(' ',' ',' ');
#75=ORGANIZATION(' ',' ',' ');
#76=ORGANIZATION(' ',' ',' ');
#77=ORGANIZATION(' ',' ',' ');
#78=ORGANIZATION(' ',' ',' ');
#79=PERSON(' ',' ',' ',(' '),$,$);
#80=SHAPE_DEFINITION_REPRESENTATION(#81,#92);
#81=PRODUCT_DEFINITION_SHAPE('','',#82);
#82=PRODUCT_DEFINITION(' ','',#84,#83);
#83=DESIGN_CONTEXT('',#91,'design');
#84=PRODUCT_DEFINITION_FORMATION_WITH_SPECIFIED_SOURCE(' ',' ',#86,
 .NOT_KNOWN.);
#85=PRODUCT_RELATED_PRODUCT_CATEGORY('detail','',(#86));
#86=PRODUCT('Cylinder Lock Sleeve','Cylinder Lock Sleeve',' ',(#89));
#87=PRODUCT_CATEGORY('part',' ');
#88=PRODUCT_CATEGORY(' ','');
#89=MECHANICAL_CONTEXT(' ',#91,'mechanical');
#90=APPLICATION_PROTOCOL_DEFINITION('international standard',
'config_control_design',2010,#91);
#91=APPLICATION_CONTEXT(
'configuration controlled 3D designs of mechanical parts and assemblie
s');
#92=SHAPE_REPRESENTATION('Cylinder Lock Sleeve-None',(#347),#531);
#93=PRESENTATION_LAYER_ASSIGNMENT('1','Layer 1',(#102));
#94=STYLED_ITEM('',(#95),#102);
#95=PRESENTATION_STYLE_ASSIGNMENT((#96));
#96=SURFACE_STYLE_USAGE(.BOTH.,#97);
#97=SURFACE_SIDE_STYLE('',(#98));
#98=SURFACE_STYLE_FILL_AREA(#99);
#99=FILL_AREA_STYLE('',(#100));
#100=FILL_AREA_STYLE_COLOUR('',#101);
#101=COLOUR_RGB('Ash Gray',0.874494544899672,0.874494544899672,0.874494544899672);
#102=MANIFOLD_SOLID_BREP('',#103);
#103=CLOSED_SHELL('',(#143,#144,#145,#146,#147,#148,#149,#150,#151,#152,
#153,#154,#155,#156,#157,#158));
#104=CONICAL_SURFACE('',#378,9.,45.);
#105=FACE_BOUND('',#179,.T.);
#106=FACE_BOUND('',#180,.T.);
#107=FACE_BOUND('',#181,.T.);
#108=FACE_BOUND('',#182,.T.);
#109=FACE_BOUND('',#183,.T.);
#110=FACE_BOUND('',#184,.T.);
#111=FACE_BOUND('',#185,.T.);
#112=FACE_BOUND('',#186,.T.);
#113=FACE_BOUND('',#187,.T.);
#114=FACE_BOUND('',#188,.T.);
#115=FACE_BOUND('',#189,.T.);
#116=FACE_BOUND('',#190,.T.);
#117=FACE_BOUND('',#191,.T.);
#118=FACE_BOUND('',#192,.T.);
#119=FACE_BOUND('',#197,.T.);
#120=FACE_BOUND('',#198,.T.);
#121=CYLINDRICAL_SURFACE('',#351,8.1);
#122=CYLINDRICAL_SURFACE('',#355,8.1);
#123=CYLINDRICAL_SURFACE('',#358,10.);
#124=CYLINDRICAL_SURFACE('',#368,6.5);
#125=CYLINDRICAL_SURFACE('',#371,4.5);
#126=CYLINDRICAL_SURFACE('',#374,6.9);
#127=CYLINDRICAL_SURFACE('',#377,6.9);
#128=CIRCLE('',#349,8.1);
#129=CIRCLE('',#350,8.1);
#130=CIRCLE('',#353,8.1);
#131=CIRCLE('',#354,8.1);
#132=CIRCLE('',#356,10.);
#133=CIRCLE('',#357,10.);
#134=CIRCLE('',#360,9.);
#135=CIRCLE('',#361,6.5);
#136=CIRCLE('',#363,4.5);
#137=CIRCLE('',#364,6.9);
#138=CIRCLE('',#365,6.9);
#139=CIRCLE('',#367,6.5);
#140=CIRCLE('',#369,4.5);
#141=CIRCLE('',#372,6.9);
#142=CIRCLE('',#375,6.9);
#143=ADVANCED_FACE('',(#167),#159,.T.);
#144=ADVANCED_FACE('',(#168),#121,.T.);
#145=ADVANCED_FACE('',(#169),#160,.T.);
#146=ADVANCED_FACE('',(#170),#122,.T.);
#147=ADVANCED_FACE('',(#105,#106),#123,.T.);
#148=ADVANCED_FACE('',(#107,#108),#161,.F.);
#149=ADVANCED_FACE('',(#109,#110),#162,.T.);
#150=ADVANCED_FACE('',(#111,#112),#163,.F.);
#151=ADVANCED_FACE('',(#113,#114),#124,.F.);
#152=ADVANCED_FACE('',(#115,#116),#164,.T.);
#153=ADVANCED_FACE('',(#117,#118),#125,.F.);
#154=ADVANCED_FACE('',(#171),#165,.T.);
#155=ADVANCED_FACE('',(#172),#126,.T.);
#156=ADVANCED_FACE('',(#173),#166,.T.);
#157=ADVANCED_FACE('',(#174),#127,.T.);
#158=ADVANCED_FACE('',(#119,#120),#104,.T.);
#159=PLANE('',#348);
#160=PLANE('',#352);
#161=PLANE('',#359);
#162=PLANE('',#362);
#163=PLANE('',#366);
#164=PLANE('',#370);
#165=PLANE('',#373);
#166=PLANE('',#376);
#167=FACE_OUTER_BOUND('',#175,.T.);
#168=FACE_OUTER_BOUND('',#176,.T.);
#169=FACE_OUTER_BOUND('',#177,.T.);
#170=FACE_OUTER_BOUND('',#178,.T.);
#171=FACE_OUTER_BOUND('',#193,.T.);
#172=FACE_OUTER_BOUND('',#194,.T.);
#173=FACE_OUTER_BOUND('',#195,.T.);
#174=FACE_OUTER_BOUND('',#196,.T.);
#175=EDGE_LOOP('',(#199,#200,#201,#202,#203,#204,#205,#206));
#176=EDGE_LOOP('',(#207,#208,#209,#210));
#177=EDGE_LOOP('',(#211,#212,#213,#214,#215,#216,#217,#218));
#178=EDGE_LOOP('',(#219,#220,#221,#222));
#179=EDGE_LOOP('',(#223));
#180=EDGE_LOOP('',(#224));
#181=EDGE_LOOP('',(#225,#226,#227,#228));
#182=EDGE_LOOP('',(#229));
#183=EDGE_LOOP('',(#230));
#184=EDGE_LOOP('',(#231));
#185=EDGE_LOOP('',(#232));
#186=EDGE_LOOP('',(#233,#234,#235,#236));
#187=EDGE_LOOP('',(#237));
#188=EDGE_LOOP('',(#238));
#189=EDGE_LOOP('',(#239));
#190=EDGE_LOOP('',(#240));
#191=EDGE_LOOP('',(#241));
#192=EDGE_LOOP('',(#242));
#193=EDGE_LOOP('',(#243,#244,#245,#246));
#194=EDGE_LOOP('',(#247,#248,#249,#250));
#195=EDGE_LOOP('',(#251,#252,#253,#254));
#196=EDGE_LOOP('',(#255,#256,#257,#258));
#197=EDGE_LOOP('',(#259));
#198=EDGE_LOOP('',(#260));
#199=ORIENTED_EDGE('',*,*,#284,.T.);
#200=ORIENTED_EDGE('',*,*,#285,.T.);
#201=ORIENTED_EDGE('',*,*,#286,.T.);
#202=ORIENTED_EDGE('',*,*,#287,.T.);
#203=ORIENTED_EDGE('',*,*,#288,.T.);
#204=ORIENTED_EDGE('',*,*,#289,.T.);
#205=ORIENTED_EDGE('',*,*,#290,.F.);
#206=ORIENTED_EDGE('',*,*,#291,.F.);
#207=ORIENTED_EDGE('',*,*,#289,.F.);
#208=ORIENTED_EDGE('',*,*,#292,.T.);
#209=ORIENTED_EDGE('',*,*,#293,.T.);
#210=ORIENTED_EDGE('',*,*,#294,.F.);
#211=ORIENTED_EDGE('',*,*,#295,.T.);
#212=ORIENTED_EDGE('',*,*,#296,.T.);
#213=ORIENTED_EDGE('',*,*,#297,.T.);
#214=ORIENTED_EDGE('',*,*,#298,.T.);
#215=ORIENTED_EDGE('',*,*,#299,.T.);
#216=ORIENTED_EDGE('',*,*,#300,.T.);
#217=ORIENTED_EDGE('',*,*,#301,.F.);
#218=ORIENTED_EDGE('',*,*,#293,.F.);
#219=ORIENTED_EDGE('',*,*,#300,.F.);
#220=ORIENTED_EDGE('',*,*,#302,.T.);
#221=ORIENTED_EDGE('',*,*,#291,.T.);
#222=ORIENTED_EDGE('',*,*,#303,.F.);
#223=ORIENTED_EDGE('',*,*,#304,.T.);
#224=ORIENTED_EDGE('',*,*,#305,.T.);
#225=ORIENTED_EDGE('',*,*,#303,.T.);
#226=ORIENTED_EDGE('',*,*,#290,.T.);
#227=ORIENTED_EDGE('',*,*,#294,.T.);
#228=ORIENTED_EDGE('',*,*,#301,.T.);
#229=ORIENTED_EDGE('',*,*,#305,.F.);
#230=ORIENTED_EDGE('',*,*,#306,.T.);
#231=ORIENTED_EDGE('',*,*,#307,.F.);
#232=ORIENTED_EDGE('',*,*,#308,.F.);
#233=ORIENTED_EDGE('',*,*,#297,.F.);
#234=ORIENTED_EDGE('',*,*,#309,.T.);
#235=ORIENTED_EDGE('',*,*,#286,.F.);
#236=ORIENTED_EDGE('',*,*,#310,.T.);
#237=ORIENTED_EDGE('',*,*,#311,.T.);
#238=ORIENTED_EDGE('',*,*,#307,.T.);
#239=ORIENTED_EDGE('',*,*,#312,.T.);
#240=ORIENTED_EDGE('',*,*,#311,.F.);
#241=ORIENTED_EDGE('',*,*,#312,.F.);
#242=ORIENTED_EDGE('',*,*,#308,.T.);
#243=ORIENTED_EDGE('',*,*,#302,.F.);
#244=ORIENTED_EDGE('',*,*,#299,.F.);
#245=ORIENTED_EDGE('',*,*,#313,.T.);
#246=ORIENTED_EDGE('',*,*,#284,.F.);
#247=ORIENTED_EDGE('',*,*,#313,.F.);
#248=ORIENTED_EDGE('',*,*,#298,.F.);
#249=ORIENTED_EDGE('',*,*,#310,.F.);
#250=ORIENTED_EDGE('',*,*,#285,.F.);
#251=ORIENTED_EDGE('',*,*,#314,.T.);
#252=ORIENTED_EDGE('',*,*,#295,.F.);
#253=ORIENTED_EDGE('',*,*,#292,.F.);
#254=ORIENTED_EDGE('',*,*,#288,.F.);
#255=ORIENTED_EDGE('',*,*,#309,.F.);
#256=ORIENTED_EDGE('',*,*,#296,.F.);
#257=ORIENTED_EDGE('',*,*,#314,.F.);
#258=ORIENTED_EDGE('',*,*,#287,.F.);
#259=ORIENTED_EDGE('',*,*,#304,.F.);
#260=ORIENTED_EDGE('',*,*,#306,.F.);
#261=VERTEX_POINT('',#461);
#262=VERTEX_POINT('',#462);
#263=VERTEX_POINT('',#464);
#264=VERTEX_POINT('',#466);
#265=VERTEX_POINT('',#468);
#266=VERTEX_POINT('',#470);
#267=VERTEX_POINT('',#472);
#268=VERTEX_POINT('',#474);
#269=VERTEX_POINT('',#478);
#270=VERTEX_POINT('',#480);
#271=VERTEX_POINT('',#484);
#272=VERTEX_POINT('',#486);
#273=VERTEX_POINT('',#488);
#274=VERTEX_POINT('',#490);
#275=VERTEX_POINT('',#492);
#276=VERTEX_POINT('',#494);
#277=VERTEX_POINT('',#501);
#278=VERTEX_POINT('',#503);
#279=VERTEX_POINT('',#507);
#280=VERTEX_POINT('',#509);
#281=VERTEX_POINT('',#512);
#282=VERTEX_POINT('',#517);
#283=VERTEX_POINT('',#520);
#284=EDGE_CURVE('',#261,#262,#315,.T.);
#285=EDGE_CURVE('',#262,#263,#316,.T.);
#286=EDGE_CURVE('',#263,#264,#317,.T.);
#287=EDGE_CURVE('',#264,#265,#318,.T.);
#288=EDGE_CURVE('',#265,#266,#319,.T.);
#289=EDGE_CURVE('',#266,#267,#320,.T.);
#290=EDGE_CURVE('',#268,#267,#321,.T.);
#291=EDGE_CURVE('',#261,#268,#322,.T.);
#292=EDGE_CURVE('',#266,#269,#128,.T.);
#293=EDGE_CURVE('',#269,#270,#323,.T.);
#294=EDGE_CURVE('',#267,#270,#129,.T.);
#295=EDGE_CURVE('',#269,#271,#324,.T.);
#296=EDGE_CURVE('',#271,#272,#325,.T.);
#297=EDGE_CURVE('',#272,#273,#326,.T.);
#298=EDGE_CURVE('',#273,#274,#327,.T.);
#299=EDGE_CURVE('',#274,#275,#328,.T.);
#300=EDGE_CURVE('',#275,#276,#329,.T.);
#301=EDGE_CURVE('',#270,#276,#330,.T.);
#302=EDGE_CURVE('',#275,#261,#130,.T.);
#303=EDGE_CURVE('',#276,#268,#131,.T.);
#304=EDGE_CURVE('',#277,#277,#132,.T.);
#305=EDGE_CURVE('',#278,#278,#133,.T.);
#306=EDGE_CURVE('',#279,#279,#134,.T.);
#307=EDGE_CURVE('',#280,#280,#135,.T.);
#308=EDGE_CURVE('',#281,#281,#136,.T.);
#309=EDGE_CURVE('',#272,#264,#137,.T.);
#310=EDGE_CURVE('',#263,#273,#138,.T.);
#311=EDGE_CURVE('',#282,#282,#139,.T.);
#312=EDGE_CURVE('',#283,#283,#140,.T.);
#313=EDGE_CURVE('',#274,#262,#141,.T.);
#314=EDGE_CURVE('',#265,#271,#142,.T.);
#315=LINE('',#460,#331);
#316=LINE('',#463,#332);
#317=LINE('',#465,#333);
#318=LINE('',#467,#334);
#319=LINE('',#469,#335);
#320=LINE('',#471,#336);
#321=LINE('',#473,#337);
#322=LINE('',#475,#338);
#323=LINE('',#479,#339);
#324=LINE('',#483,#340);
#325=LINE('',#485,#341);
#326=LINE('',#487,#342);
#327=LINE('',#489,#343);
#328=LINE('',#491,#344);
#329=LINE('',#493,#345);
#330=LINE('',#495,#346);
#331=VECTOR('',#381,1.);
#332=VECTOR('',#382,1.);
#333=VECTOR('',#383,1.);
#334=VECTOR('',#384,1.);
#335=VECTOR('',#385,1.);
#336=VECTOR('',#386,1.);
#337=VECTOR('',#387,1.);
#338=VECTOR('',#388,1.);
#339=VECTOR('',#393,1.);
#340=VECTOR('',#398,1.);
#341=VECTOR('',#399,1.);
#342=VECTOR('',#400,1.);
#343=VECTOR('',#401,1.);
#344=VECTOR('',#402,1.);
#345=VECTOR('',#403,1.);
#346=VECTOR('',#404,1.);
#347=AXIS2_PLACEMENT_3D('',#459,#379,#380);
#348=AXIS2_PLACEMENT_3D('',#476,#389,#390);
#349=AXIS2_PLACEMENT_3D('',#477,#391,#392);
#350=AXIS2_PLACEMENT_3D('',#481,#394,#395);
#351=AXIS2_PLACEMENT_3D('',#482,#396,#397);
#352=AXIS2_PLACEMENT_3D('',#496,#405,#406);
#353=AXIS2_PLACEMENT_3D('',#497,#407,#408);
#354=AXIS2_PLACEMENT_3D('',#498,#409,#410);
#355=AXIS2_PLACEMENT_3D('',#499,#411,#412);
#356=AXIS2_PLACEMENT_3D('',#500,#413,#414);
#357=AXIS2_PLACEMENT_3D('',#502,#415,#416);
#358=AXIS2_PLACEMENT_3D('',#504,#417,#418);
#359=AXIS2_PLACEMENT_3D('',#505,#419,#420);
#360=AXIS2_PLACEMENT_3D('',#506,#421,#422);
#361=AXIS2_PLACEMENT_3D('',#508,#423,#424);
#362=AXIS2_PLACEMENT_3D('',#510,#425,#426);
#363=AXIS2_PLACEMENT_3D('',#511,#427,#428);
#364=AXIS2_PLACEMENT_3D('',#513,#429,#430);
#365=AXIS2_PLACEMENT_3D('',#514,#431,#432);
#366=AXIS2_PLACEMENT_3D('',#515,#433,#434);
#367=AXIS2_PLACEMENT_3D('',#516,#435,#436);
#368=AXIS2_PLACEMENT_3D('',#518,#437,#438);
#369=AXIS2_PLACEMENT_3D('',#519,#439,#440);
#370=AXIS2_PLACEMENT_3D('',#521,#441,#442);
#371=AXIS2_PLACEMENT_3D('',#522,#443,#444);
#372=AXIS2_PLACEMENT_3D('',#523,#445,#446);
#373=AXIS2_PLACEMENT_3D('',#524,#447,#448);
#374=AXIS2_PLACEMENT_3D('',#525,#449,#450);
#375=AXIS2_PLACEMENT_3D('',#526,#451,#452);
#376=AXIS2_PLACEMENT_3D('',#527,#453,#454);
#377=AXIS2_PLACEMENT_3D('',#528,#455,#456);
#378=AXIS2_PLACEMENT_3D('',#529,#457,#458);
#379=DIRECTION('',(0.,0.,1.));
#380=DIRECTION('',(1.,0.,0.));
#381=DIRECTION('',(0.,1.,0.));
#382=DIRECTION('',(0.,0.,1.));
#383=DIRECTION('',(0.,1.,0.));
#384=DIRECTION('',(0.,0.,-1.));
#385=DIRECTION('',(0.,1.,0.));
#386=DIRECTION('',(0.,0.,-1.));
#387=DIRECTION('',(0.,1.,0.));
#388=DIRECTION('',(0.,0.,-1.));
#389=DIRECTION('',(-1.,0.,0.));
#390=DIRECTION('',(0.,0.,1.));
#391=DIRECTION('',(0.,0.,-1.));
#392=DIRECTION('',(1.,0.,0.));
#393=DIRECTION('',(0.,0.,-1.));
#394=DIRECTION('',(0.,0.,-1.));
#395=DIRECTION('',(1.,1.22464679914735E-16,0.));
#396=DIRECTION('',(0.,0.,-1.));
#397=DIRECTION('',(-1.,0.,0.));
#398=DIRECTION('',(0.,-1.,0.));
#399=DIRECTION('',(0.,0.,1.));
#400=DIRECTION('',(0.,-1.,0.));
#401=DIRECTION('',(0.,0.,-1.));
#402=DIRECTION('',(0.,-1.,0.));
#403=DIRECTION('',(0.,0.,-1.));
#404=DIRECTION('',(0.,-1.,0.));
#405=DIRECTION('',(1.,0.,0.));
#406=DIRECTION('',(0.,0.,-1.));
#407=DIRECTION('',(0.,0.,-1.));
#408=DIRECTION('',(1.,0.,0.));
#409=DIRECTION('',(0.,0.,-1.));
#410=DIRECTION('',(1.,1.22464679914735E-16,0.));
#411=DIRECTION('',(0.,0.,-1.));
#412=DIRECTION('',(-1.,0.,0.));
#413=DIRECTION('',(0.,0.,1.));
#414=DIRECTION('',(-1.,0.,0.));
#415=DIRECTION('',(0.,0.,-1.));
#416=DIRECTION('',(1.,1.22464679914735E-16,0.));
#417=DIRECTION('',(0.,0.,-1.));
#418=DIRECTION('',(-1.,0.,0.));
#419=DIRECTION('',(0.,0.,-1.));
#420=DIRECTION('',(-1.,0.,0.));
#421=DIRECTION('',(0.,0.,-1.));
#422=DIRECTION('',(-1.,0.,0.));
#423=DIRECTION('',(0.,0.,-1.));
#424=DIRECTION('',(1.,1.22464679914735E-16,0.));
#425=DIRECTION('',(0.,0.,-1.));
#426=DIRECTION('',(-1.,0.,0.));
#427=DIRECTION('',(0.,0.,1.));
#428=DIRECTION('',(-1.,0.,0.));
#429=DIRECTION('',(0.,0.,1.));
#430=DIRECTION('',(1.,0.,0.));
#431=DIRECTION('',(0.,0.,1.));
#432=DIRECTION('',(1.,0.,0.));
#433=DIRECTION('',(0.,0.,-1.));
#434=DIRECTION('',(-1.,0.,0.));
#435=DIRECTION('',(0.,0.,1.));
#436=DIRECTION('',(1.,1.22464679914735E-16,0.));
#437=DIRECTION('',(0.,0.,-1.));
#438=DIRECTION('',(-1.,0.,0.));
#439=DIRECTION('',(0.,0.,1.));
#440=DIRECTION('',(-1.,0.,0.));
#441=DIRECTION('',(0.,0.,-1.));
#442=DIRECTION('',(-1.,0.,0.));
#443=DIRECTION('',(0.,0.,-1.));
#444=DIRECTION('',(-1.,0.,0.));
#445=DIRECTION('',(0.,0.,-1.));
#446=DIRECTION('',(1.,0.,0.));
#447=DIRECTION('',(0.,0.,1.));
#448=DIRECTION('',(1.,0.,0.));
#449=DIRECTION('',(0.,0.,1.));
#450=DIRECTION('',(1.,0.,0.));
#451=DIRECTION('',(0.,0.,-1.));
#452=DIRECTION('',(1.,0.,0.));
#453=DIRECTION('',(0.,0.,1.));
#454=DIRECTION('',(1.,0.,0.));
#455=DIRECTION('',(0.,0.,1.));
#456=DIRECTION('',(1.,0.,0.));
#457=DIRECTION('',(0.,0.,1.));
#458=DIRECTION('',(1.,0.,0.));
#459=CARTESIAN_POINT('',(0.,0.,0.));
#460=CARTESIAN_POINT('',(-6.6,-4.69574275274956,16.8));
#461=CARTESIAN_POINT('',(-6.6,-4.69574275274956,16.8));
#462=CARTESIAN_POINT('',(-6.6,-2.01246117974981,16.8));
#463=CARTESIAN_POINT('',(-6.6,-2.01246117974981,16.8));
#464=CARTESIAN_POINT('',(-6.6,-2.01246117974981,19.3));
#465=CARTESIAN_POINT('',(-6.6,-4.69574275274956,19.3));
#466=CARTESIAN_POINT('',(-6.6,2.01246117974981,19.3));
#467=CARTESIAN_POINT('',(-6.6,2.01246117974981,16.8));
#468=CARTESIAN_POINT('',(-6.6,2.01246117974981,16.8));
#469=CARTESIAN_POINT('',(-6.6,-4.69574275274956,16.8));
#470=CARTESIAN_POINT('',(-6.6,4.69574275274956,16.8));
#471=CARTESIAN_POINT('',(-6.6,4.69574275274956,19.3));
#472=CARTESIAN_POINT('',(-6.6,4.69574275274956,3.3));
#473=CARTESIAN_POINT('',(-6.6,-4.69574275274956,3.3));
#474=CARTESIAN_POINT('',(-6.6,-4.69574275274956,3.3));
#475=CARTESIAN_POINT('',(-6.6,-4.69574275274956,19.3));
#476=CARTESIAN_POINT('',(-6.6,-4.69574275274956,19.3));
#477=CARTESIAN_POINT('',(0.,0.,16.8));
#478=CARTESIAN_POINT('',(6.6,4.69574275274956,16.8));
#479=CARTESIAN_POINT('',(6.6,4.69574275274956,19.3));
#480=CARTESIAN_POINT('',(6.6,4.69574275274956,3.3));
#481=CARTESIAN_POINT('',(0.,0.,3.3));
#482=CARTESIAN_POINT('',(0.,0.,19.3));
#483=CARTESIAN_POINT('',(6.6,4.69574275274956,16.8));
#484=CARTESIAN_POINT('',(6.6,2.01246117974981,16.8));
#485=CARTESIAN_POINT('',(6.6,2.01246117974981,16.8));
#486=CARTESIAN_POINT('',(6.6,2.01246117974981,19.3));
#487=CARTESIAN_POINT('',(6.6,4.69574275274956,19.3));
#488=CARTESIAN_POINT('',(6.6,-2.01246117974981,19.3));
#489=CARTESIAN_POINT('',(6.6,-2.01246117974981,16.8));
#490=CARTESIAN_POINT('',(6.6,-2.01246117974981,16.8));
#491=CARTESIAN_POINT('',(6.6,4.69574275274956,16.8));
#492=CARTESIAN_POINT('',(6.6,-4.69574275274956,16.8));
#493=CARTESIAN_POINT('',(6.6,-4.69574275274956,19.3));
#494=CARTESIAN_POINT('',(6.6,-4.69574275274956,3.3));
#495=CARTESIAN_POINT('',(6.6,4.69574275274956,3.3));
#496=CARTESIAN_POINT('',(6.6,4.69574275274956,19.3));
#497=CARTESIAN_POINT('',(0.,0.,16.8));
#498=CARTESIAN_POINT('',(0.,0.,3.3));
#499=CARTESIAN_POINT('',(0.,0.,19.3));
#500=CARTESIAN_POINT('',(0.,0.,1.));
#501=CARTESIAN_POINT('',(-10.,0.,1.));
#502=CARTESIAN_POINT('',(0.,0.,3.3));
#503=CARTESIAN_POINT('',(10.,1.22464679914735E-15,3.3));
#504=CARTESIAN_POINT('',(0.,0.,3.3));
#505=CARTESIAN_POINT('',(0.,0.,3.3));
#506=CARTESIAN_POINT('',(0.,0.,0.));
#507=CARTESIAN_POINT('',(-9.,0.,0.));
#508=CARTESIAN_POINT('',(0.,0.,0.));
#509=CARTESIAN_POINT('',(6.5,7.9602041944578E-16,0.));
#510=CARTESIAN_POINT('',(0.,0.,0.));
#511=CARTESIAN_POINT('',(0.,0.,19.3000000000012));
#512=CARTESIAN_POINT('',(-4.5,0.,19.3000000000012));
#513=CARTESIAN_POINT('',(0.,0.,19.3));
#514=CARTESIAN_POINT('',(0.,0.,19.3));
#515=CARTESIAN_POINT('',(0.,0.,19.3));
#516=CARTESIAN_POINT('',(0.,0.,1.));
#517=CARTESIAN_POINT('',(6.5,7.9602041944578E-16,1.));
#518=CARTESIAN_POINT('',(0.,0.,1.));
#519=CARTESIAN_POINT('',(0.,0.,0.999999999997669));
#520=CARTESIAN_POINT('',(-4.5,0.,0.999999999997669));
#521=CARTESIAN_POINT('',(0.,0.,1.));
#522=CARTESIAN_POINT('',(0.,0.,55000.));
#523=CARTESIAN_POINT('',(0.,0.,16.8));
#524=CARTESIAN_POINT('',(0.,0.,16.8));
#525=CARTESIAN_POINT('',(0.,0.,16.8));
#526=CARTESIAN_POINT('',(0.,0.,16.8));
#527=CARTESIAN_POINT('',(0.,0.,16.8));
#528=CARTESIAN_POINT('',(0.,0.,16.8));
#529=CARTESIAN_POINT('',(0.,0.,0.));
#530=MECHANICAL_DESIGN_GEOMETRIC_PRESENTATION_REPRESENTATION('',(#94),#531);
#531=(
GEOMETRIC_REPRESENTATION_CONTEXT(3)
GLOBAL_UNCERTAINTY_ASSIGNED_CONTEXT((#532))
GLOBAL_UNIT_ASSIGNED_CONTEXT((#538,#534,#533))
REPRESENTATION_CONTEXT('Cylinder Lock Sleeve','TOP_LEVEL_ASSEMBLY_PART')
);
#532=UNCERTAINTY_MEASURE_WITH_UNIT(LENGTH_MEASURE(2.E-5),#538,
'DISTANCE_ACCURACY_VALUE','Maximum Tolerance applied to model');
#533=(
NAMED_UNIT(*)
SI_UNIT($,.STERADIAN.)
SOLID_ANGLE_UNIT()
);
#534=(
CONVERSION_BASED_UNIT('DEGREE',#536)
NAMED_UNIT(#535)
PLANE_ANGLE_UNIT()
);
#535=DIMENSIONAL_EXPONENTS(0.,0.,0.,0.,0.,0.,0.);
#536=PLANE_ANGLE_MEASURE_WITH_UNIT(PLANE_ANGLE_MEASURE(0.0174532925),#537);
#537=(
NAMED_UNIT(*)
PLANE_ANGLE_UNIT()
SI_UNIT($,.RADIAN.)
);
#538=(
LENGTH_UNIT()
NAMED_UNIT(*)
SI_UNIT(.MILLI.,.METRE.)
);
ENDSEC;
END-ISO-10303-21;
