ISO-10303-21;
HEADER;
/* Generated by software containing ST-Developer
 * from STEP Tools, Inc. (www.steptools.com) 
 */
/* OPTION: using custom schema-name function */

FILE_DESCRIPTION(
/* description */ (''),
/* implementation_level */ '2;1');

FILE_NAME(
/* name */ 'RasPi Cables.stp',
/* time_stamp */ '2021-05-13T18:38:13+02:00',
/* author */ (''),
/* organization */ (''),
/* preprocessor_version */ 'ST-DEVELOPER v16.7',
/* originating_system */ 'SIEMENS PLM Software NX 12.0',
/* authorisation */ '');

FILE_SCHEMA (('AP203_CONFIGURATION_CONTROLLED_3D_DESIGN_OF_MECHANICAL_PARTS_AND_ASSEMBLIES_MIM_LF { 1 0 10303 403 2 1 2}'));
ENDSEC;

DATA;
#10=SHAPE_REPRESENTATION_RELATIONSHIP('None',
'relationship between RasPi Cables-None and RasPi Cables-None',#92,#11);
#11=ADVANCED_BREP_SHAPE_REPRESENTATION('RasPi Cables-None',(#225,#226,#227,
#228),#1762);
#12=CC_DESIGN_APPROVAL(#24,(#82));
#13=CC_DESIGN_APPROVAL(#25,(#84));
#14=CC_DESIGN_APPROVAL(#26,(#31));
#15=APPROVAL_PERSON_ORGANIZATION(#69,#24,#18);
#16=APPROVAL_PERSON_ORGANIZATION(#70,#25,#19);
#17=APPROVAL_PERSON_ORGANIZATION(#71,#26,#20);
#18=APPROVAL_ROLE('approver');
#19=APPROVAL_ROLE('approver');
#20=APPROVAL_ROLE('approver');
#21=APPROVAL_DATE_TIME(#39,#24);
#22=APPROVAL_DATE_TIME(#40,#25);
#23=APPROVAL_DATE_TIME(#41,#26);
#24=APPROVAL(#27,' ');
#25=APPROVAL(#28,' ');
#26=APPROVAL(#29,' ');
#27=APPROVAL_STATUS('not_yet_approved');
#28=APPROVAL_STATUS('not_yet_approved');
#29=APPROVAL_STATUS('not_yet_approved');
#30=CC_DESIGN_SECURITY_CLASSIFICATION(#31,(#84));
#31=SECURITY_CLASSIFICATION(' ',' ',#32);
#32=SECURITY_CLASSIFICATION_LEVEL('confidential');
#33=CC_DESIGN_DATE_AND_TIME_ASSIGNMENT(#37,#35,(#82));
#34=CC_DESIGN_DATE_AND_TIME_ASSIGNMENT(#38,#36,(#31));
#35=DATE_TIME_ROLE('creation_date');
#36=DATE_TIME_ROLE('classification_date');
#37=DATE_AND_TIME(#52,#42);
#38=DATE_AND_TIME(#53,#43);
#39=DATE_AND_TIME(#54,#44);
#40=DATE_AND_TIME(#55,#45);
#41=DATE_AND_TIME(#56,#46);
#42=LOCAL_TIME(0,0,0.,#47);
#43=LOCAL_TIME(0,0,0.,#48);
#44=LOCAL_TIME(0,0,0.,#49);
#45=LOCAL_TIME(0,0,0.,#50);
#46=LOCAL_TIME(0,0,0.,#51);
#47=COORDINATED_UNIVERSAL_TIME_OFFSET(0,0,.BEHIND.);
#48=COORDINATED_UNIVERSAL_TIME_OFFSET(0,0,.BEHIND.);
#49=COORDINATED_UNIVERSAL_TIME_OFFSET(0,0,.BEHIND.);
#50=COORDINATED_UNIVERSAL_TIME_OFFSET(0,0,.BEHIND.);
#51=COORDINATED_UNIVERSAL_TIME_OFFSET(0,0,.BEHIND.);
#52=CALENDAR_DATE(0,1,1);
#53=CALENDAR_DATE(0,1,1);
#54=CALENDAR_DATE(0,1,1);
#55=CALENDAR_DATE(0,1,1);
#56=CALENDAR_DATE(0,1,1);
#57=CC_DESIGN_PERSON_AND_ORGANIZATION_ASSIGNMENT(#65,#61,(#82,#84));
#58=CC_DESIGN_PERSON_AND_ORGANIZATION_ASSIGNMENT(#66,#62,(#86));
#59=CC_DESIGN_PERSON_AND_ORGANIZATION_ASSIGNMENT(#67,#63,(#84));
#60=CC_DESIGN_PERSON_AND_ORGANIZATION_ASSIGNMENT(#68,#64,(#31));
#61=PERSON_AND_ORGANIZATION_ROLE('creator');
#62=PERSON_AND_ORGANIZATION_ROLE('design_owner');
#63=PERSON_AND_ORGANIZATION_ROLE('design_supplier');
#64=PERSON_AND_ORGANIZATION_ROLE('classification_officer');
#65=PERSON_AND_ORGANIZATION(#79,#72);
#66=PERSON_AND_ORGANIZATION(#79,#73);
#67=PERSON_AND_ORGANIZATION(#79,#74);
#68=PERSON_AND_ORGANIZATION(#79,#75);
#69=PERSON_AND_ORGANIZATION(#79,#76);
#70=PERSON_AND_ORGANIZATION(#79,#77);
#71=PERSON_AND_ORGANIZATION(#79,#78);
#72=ORGANIZATION(' ',' ',' ');
#73=ORGANIZATION(' ',' ',' ');
#74=ORGANIZATION(' ',' ',' ');
#75=ORGANIZATION(' ',' ',' ');
#76=ORGANIZATION(' ',' ',' ');
#77=ORGANIZATION(' ',' ',' ');
#78=ORGANIZATION(' ',' ',' ');
#79=PERSON(' ',' ',' ',(' '),$,$);
#80=SHAPE_DEFINITION_REPRESENTATION(#81,#92);
#81=PRODUCT_DEFINITION_SHAPE('','',#82);
#82=PRODUCT_DEFINITION(' ','',#84,#83);
#83=DESIGN_CONTEXT('',#91,'design');
#84=PRODUCT_DEFINITION_FORMATION_WITH_SPECIFIED_SOURCE(' ',' ',#86,
 .NOT_KNOWN.);
#85=PRODUCT_RELATED_PRODUCT_CATEGORY('detail','',(#86));
#86=PRODUCT('RasPi Cables','RasPi Cables',' ',(#89));
#87=PRODUCT_CATEGORY('part',' ');
#88=PRODUCT_CATEGORY(' ','');
#89=MECHANICAL_CONTEXT(' ',#91,'mechanical');
#90=APPLICATION_PROTOCOL_DEFINITION('international standard',
'config_control_design',2010,#91);
#91=APPLICATION_CONTEXT(
'configuration controlled 3D designs of mechanical parts and assemblie
s');
#92=SHAPE_REPRESENTATION('RasPi Cables-None',(#1095),#1762);
#93=OVER_RIDING_STYLED_ITEM('',(#124),#316,#119);
#94=OVER_RIDING_STYLED_ITEM('',(#125),#317,#119);
#95=OVER_RIDING_STYLED_ITEM('',(#126),#318,#119);
#96=OVER_RIDING_STYLED_ITEM('',(#127),#321,#119);
#97=OVER_RIDING_STYLED_ITEM('',(#128),#322,#119);
#98=OVER_RIDING_STYLED_ITEM('',(#129),#323,#119);
#99=OVER_RIDING_STYLED_ITEM('',(#130),#324,#119);
#100=OVER_RIDING_STYLED_ITEM('',(#131),#325,#119);
#101=OVER_RIDING_STYLED_ITEM('',(#132),#326,#119);
#102=OVER_RIDING_STYLED_ITEM('',(#133),#327,#119);
#103=OVER_RIDING_STYLED_ITEM('',(#134),#328,#119);
#104=OVER_RIDING_STYLED_ITEM('',(#135),#334,#119);
#105=OVER_RIDING_STYLED_ITEM('',(#136),#335,#119);
#106=B_SPLINE_CURVE_WITH_KNOTS('',3,(#1660,#1661,#1662,#1663,#1664,#1665,
#1666,#1667,#1668,#1669,#1670,#1671,#1672,#1673,#1674,#1675),
 .UNSPECIFIED.,.F.,.F.,(4,3,3,3,3,4),(0.,0.21441348432972,0.428907258614083,
0.642408182916566,0.85632777615049,1.),.UNSPECIFIED.);
#107=B_SPLINE_CURVE_WITH_KNOTS('',3,(#1679,#1680,#1681,#1682,#1683,#1684,
#1685,#1686,#1687,#1688,#1689,#1690,#1691,#1692,#1693,#1694),
 .UNSPECIFIED.,.F.,.F.,(4,3,3,3,3,4),(0.,0.214540861299062,0.429089334938546,
0.643483990320042,0.857235075271363,1.),.UNSPECIFIED.);
#108=ELLIPSE('',#1114,180.129462919417,152.738953301711);
#109=ELLIPSE('',#1115,179.952563583302,152.588953301711);
#110=ELLIPSE('',#1116,76.5729432552158,64.9292515198648);
#111=ELLIPSE('',#1117,76.3960439191012,64.7792515198648);
#112=ELLIPSE('',#1132,3.69360768663467,3.43278437635064);
#113=ELLIPSE('',#1133,3.85500470207562,3.58278437635066);
#114=ELLIPSE('',#1135,69.7011857186843,64.7792515198649);
#115=ELLIPSE('',#1136,69.8625827341252,64.9292515198649);
#116=PRESENTATION_LAYER_ASSIGNMENT('1','Layer 1',(#225,#226,#227,#228));
#117=STYLED_ITEM('',(#121),#225);
#118=STYLED_ITEM('',(#122),#226);
#119=STYLED_ITEM('',(#123),#227);
#120=STYLED_ITEM('',(#137),#228);
#121=PRESENTATION_STYLE_ASSIGNMENT((#138));
#122=PRESENTATION_STYLE_ASSIGNMENT((#139));
#123=PRESENTATION_STYLE_ASSIGNMENT((#140));
#124=PRESENTATION_STYLE_ASSIGNMENT((#141));
#125=PRESENTATION_STYLE_ASSIGNMENT((#142));
#126=PRESENTATION_STYLE_ASSIGNMENT((#143));
#127=PRESENTATION_STYLE_ASSIGNMENT((#144));
#128=PRESENTATION_STYLE_ASSIGNMENT((#145));
#129=PRESENTATION_STYLE_ASSIGNMENT((#146));
#130=PRESENTATION_STYLE_ASSIGNMENT((#147));
#131=PRESENTATION_STYLE_ASSIGNMENT((#148));
#132=PRESENTATION_STYLE_ASSIGNMENT((#149));
#133=PRESENTATION_STYLE_ASSIGNMENT((#150));
#134=PRESENTATION_STYLE_ASSIGNMENT((#151));
#135=PRESENTATION_STYLE_ASSIGNMENT((#152));
#136=PRESENTATION_STYLE_ASSIGNMENT((#153));
#137=PRESENTATION_STYLE_ASSIGNMENT((#154));
#138=SURFACE_STYLE_USAGE(.BOTH.,#155);
#139=SURFACE_STYLE_USAGE(.BOTH.,#156);
#140=SURFACE_STYLE_USAGE(.BOTH.,#157);
#141=SURFACE_STYLE_USAGE(.BOTH.,#158);
#142=SURFACE_STYLE_USAGE(.BOTH.,#159);
#143=SURFACE_STYLE_USAGE(.BOTH.,#160);
#144=SURFACE_STYLE_USAGE(.BOTH.,#161);
#145=SURFACE_STYLE_USAGE(.BOTH.,#162);
#146=SURFACE_STYLE_USAGE(.BOTH.,#163);
#147=SURFACE_STYLE_USAGE(.BOTH.,#164);
#148=SURFACE_STYLE_USAGE(.BOTH.,#165);
#149=SURFACE_STYLE_USAGE(.BOTH.,#166);
#150=SURFACE_STYLE_USAGE(.BOTH.,#167);
#151=SURFACE_STYLE_USAGE(.BOTH.,#168);
#152=SURFACE_STYLE_USAGE(.BOTH.,#169);
#153=SURFACE_STYLE_USAGE(.BOTH.,#170);
#154=SURFACE_STYLE_USAGE(.BOTH.,#171);
#155=SURFACE_SIDE_STYLE('',(#172));
#156=SURFACE_SIDE_STYLE('',(#173));
#157=SURFACE_SIDE_STYLE('',(#174));
#158=SURFACE_SIDE_STYLE('',(#175));
#159=SURFACE_SIDE_STYLE('',(#176));
#160=SURFACE_SIDE_STYLE('',(#177));
#161=SURFACE_SIDE_STYLE('',(#178));
#162=SURFACE_SIDE_STYLE('',(#179));
#163=SURFACE_SIDE_STYLE('',(#180));
#164=SURFACE_SIDE_STYLE('',(#181));
#165=SURFACE_SIDE_STYLE('',(#182));
#166=SURFACE_SIDE_STYLE('',(#183));
#167=SURFACE_SIDE_STYLE('',(#184));
#168=SURFACE_SIDE_STYLE('',(#185));
#169=SURFACE_SIDE_STYLE('',(#186));
#170=SURFACE_SIDE_STYLE('',(#187));
#171=SURFACE_SIDE_STYLE('',(#188));
#172=SURFACE_STYLE_FILL_AREA(#189);
#173=SURFACE_STYLE_FILL_AREA(#190);
#174=SURFACE_STYLE_FILL_AREA(#191);
#175=SURFACE_STYLE_FILL_AREA(#192);
#176=SURFACE_STYLE_FILL_AREA(#193);
#177=SURFACE_STYLE_FILL_AREA(#194);
#178=SURFACE_STYLE_FILL_AREA(#195);
#179=SURFACE_STYLE_FILL_AREA(#196);
#180=SURFACE_STYLE_FILL_AREA(#197);
#181=SURFACE_STYLE_FILL_AREA(#198);
#182=SURFACE_STYLE_FILL_AREA(#199);
#183=SURFACE_STYLE_FILL_AREA(#200);
#184=SURFACE_STYLE_FILL_AREA(#201);
#185=SURFACE_STYLE_FILL_AREA(#202);
#186=SURFACE_STYLE_FILL_AREA(#203);
#187=SURFACE_STYLE_FILL_AREA(#204);
#188=SURFACE_STYLE_FILL_AREA(#205);
#189=FILL_AREA_STYLE('',(#206));
#190=FILL_AREA_STYLE('',(#207));
#191=FILL_AREA_STYLE('',(#208));
#192=FILL_AREA_STYLE('',(#209));
#193=FILL_AREA_STYLE('',(#210));
#194=FILL_AREA_STYLE('',(#211));
#195=FILL_AREA_STYLE('',(#212));
#196=FILL_AREA_STYLE('',(#213));
#197=FILL_AREA_STYLE('',(#214));
#198=FILL_AREA_STYLE('',(#215));
#199=FILL_AREA_STYLE('',(#216));
#200=FILL_AREA_STYLE('',(#217));
#201=FILL_AREA_STYLE('',(#218));
#202=FILL_AREA_STYLE('',(#219));
#203=FILL_AREA_STYLE('',(#220));
#204=FILL_AREA_STYLE('',(#221));
#205=FILL_AREA_STYLE('',(#222));
#206=FILL_AREA_STYLE_COLOUR('',#223);
#207=FILL_AREA_STYLE_COLOUR('',#223);
#208=FILL_AREA_STYLE_COLOUR('',#223);
#209=FILL_AREA_STYLE_COLOUR('',#224);
#210=FILL_AREA_STYLE_COLOUR('',#224);
#211=FILL_AREA_STYLE_COLOUR('',#224);
#212=FILL_AREA_STYLE_COLOUR('',#224);
#213=FILL_AREA_STYLE_COLOUR('',#224);
#214=FILL_AREA_STYLE_COLOUR('',#224);
#215=FILL_AREA_STYLE_COLOUR('',#224);
#216=FILL_AREA_STYLE_COLOUR('',#224);
#217=FILL_AREA_STYLE_COLOUR('',#224);
#218=FILL_AREA_STYLE_COLOUR('',#224);
#219=FILL_AREA_STYLE_COLOUR('',#224);
#220=FILL_AREA_STYLE_COLOUR('',#224);
#221=FILL_AREA_STYLE_COLOUR('',#224);
#222=FILL_AREA_STYLE_COLOUR('',#223);
#223=COLOUR_RGB('Powder Gray',0.949004348821241,0.949004348821241,0.949004348821241);
#224=COLOUR_RGB('Medium Carrot',0.901960784313726,0.482337682154574,0.0705729762722209);
#225=MANIFOLD_SOLID_BREP('\X2\04220412041504200414041E0415\X0\ \X2\04220415041B041E\X0\1',
#229);
#226=MANIFOLD_SOLID_BREP('\X2\04220412041504200414041E0415\X0\ \X2\04220415041B041E\X0\2',
#230);
#227=MANIFOLD_SOLID_BREP('\X2\04220412041504200414041E0415\X0\ \X2\04220415041B041E\X0\3',
#231);
#228=MANIFOLD_SOLID_BREP('\X2\04220412041504200414041E0415\X0\ \X2\04220415041B041E\X0\4',
#232);
#229=CLOSED_SHELL('',(#290,#291,#292,#293,#294,#295,#296,#297,#298,#299));
#230=CLOSED_SHELL('',(#300,#301,#302,#303,#304,#305,#306,#307,#308,#309,
#310,#311,#312,#313,#314));
#231=CLOSED_SHELL('',(#315,#316,#317,#318,#319,#320,#321,#322,#323,#324,
#325,#326,#327,#328,#329,#330,#331,#332,#333,#334,#335));
#232=CLOSED_SHELL('',(#336,#337,#338,#339,#340,#341));
#233=CYLINDRICAL_SURFACE('',#1099,128.329638846757);
#234=CYLINDRICAL_SURFACE('',#1102,19.04229479564);
#235=CYLINDRICAL_SURFACE('',#1108,18.87229479564);
#236=CYLINDRICAL_SURFACE('',#1111,128.159638846757);
#237=CYLINDRICAL_SURFACE('',#1143,64.7792515198649);
#238=CYLINDRICAL_SURFACE('',#1144,3.43278437635064);
#239=CYLINDRICAL_SURFACE('',#1146,152.738953301711);
#240=CYLINDRICAL_SURFACE('',#1147,3.58278437635066);
#241=CYLINDRICAL_SURFACE('',#1149,152.588953301711);
#242=CYLINDRICAL_SURFACE('',#1150,64.9292515198649);
#243=CYLINDRICAL_SURFACE('',#1172,2.00000000000001);
#244=CYLINDRICAL_SURFACE('',#1176,7.60259279852295);
#245=CYLINDRICAL_SURFACE('',#1178,7.45259279852295);
#246=CYLINDRICAL_SURFACE('',#1179,10.653525250926);
#247=CYLINDRICAL_SURFACE('',#1181,15.4091598434607);
#248=CYLINDRICAL_SURFACE('',#1182,3.98278437635066);
#249=CYLINDRICAL_SURFACE('',#1184,3.83278437635066);
#250=CYLINDRICAL_SURFACE('',#1185,15.2591598434607);
#251=CYLINDRICAL_SURFACE('',#1187,10.503525250926);
#252=CIRCLE('',#1097,128.329638846757);
#253=CIRCLE('',#1098,128.329638846757);
#254=CIRCLE('',#1100,19.04229479564);
#255=CIRCLE('',#1101,19.04229479564);
#256=CIRCLE('',#1106,18.87229479564);
#257=CIRCLE('',#1107,18.87229479564);
#258=CIRCLE('',#1109,128.159638846757);
#259=CIRCLE('',#1110,128.159638846757);
#260=CIRCLE('',#1119,64.7792515198649);
#261=CIRCLE('',#1120,64.9292515198649);
#262=CIRCLE('',#1121,3.58278437635066);
#263=CIRCLE('',#1122,3.43278437635064);
#264=CIRCLE('',#1124,152.738953301711);
#265=CIRCLE('',#1125,152.588953301711);
#266=CIRCLE('',#1127,64.7792515198649);
#267=CIRCLE('',#1128,64.9292515198649);
#268=CIRCLE('',#1129,152.588953301711);
#269=CIRCLE('',#1130,152.738953301711);
#270=CIRCLE('',#1138,64.7792515198649);
#271=CIRCLE('',#1139,3.43278437635064);
#272=CIRCLE('',#1140,3.58278437635066);
#273=CIRCLE('',#1141,64.9292515198649);
#274=CIRCLE('',#1151,15.2591598434607);
#275=CIRCLE('',#1152,3.83278437635066);
#276=CIRCLE('',#1153,3.98278437635066);
#277=CIRCLE('',#1154,15.4091598434607);
#278=CIRCLE('',#1157,10.503525250926);
#279=CIRCLE('',#1158,7.60259279852295);
#280=CIRCLE('',#1159,7.45259279852295);
#281=CIRCLE('',#1160,10.653525250926);
#282=CIRCLE('',#1162,10.503525250926);
#283=CIRCLE('',#1163,10.653525250926);
#284=CIRCLE('',#1164,7.45259279852295);
#285=CIRCLE('',#1165,7.60259279852295);
#286=CIRCLE('',#1167,15.2591598434607);
#287=CIRCLE('',#1168,15.4091598434607);
#288=CIRCLE('',#1169,3.98278437635066);
#289=CIRCLE('',#1170,3.83278437635066);
#290=ADVANCED_FACE('',(#375),#342,.T.);
#291=ADVANCED_FACE('',(#376),#233,.T.);
#292=ADVANCED_FACE('',(#377),#234,.T.);
#293=ADVANCED_FACE('',(#378),#343,.T.);
#294=ADVANCED_FACE('',(#379),#344,.T.);
#295=ADVANCED_FACE('',(#380),#345,.T.);
#296=ADVANCED_FACE('',(#381),#235,.F.);
#297=ADVANCED_FACE('',(#382),#236,.F.);
#298=ADVANCED_FACE('',(#383),#346,.F.);
#299=ADVANCED_FACE('',(#384),#347,.T.);
#300=ADVANCED_FACE('',(#385),#348,.F.);
#301=ADVANCED_FACE('',(#386),#349,.F.);
#302=ADVANCED_FACE('',(#387),#350,.F.);
#303=ADVANCED_FACE('',(#388),#351,.F.);
#304=ADVANCED_FACE('',(#389),#352,.F.);
#305=ADVANCED_FACE('',(#390),#353,.F.);
#306=ADVANCED_FACE('',(#391),#354,.F.);
#307=ADVANCED_FACE('',(#392),#237,.F.);
#308=ADVANCED_FACE('',(#393),#238,.F.);
#309=ADVANCED_FACE('',(#394),#355,.T.);
#310=ADVANCED_FACE('',(#395),#239,.T.);
#311=ADVANCED_FACE('',(#396),#240,.T.);
#312=ADVANCED_FACE('',(#397),#356,.T.);
#313=ADVANCED_FACE('',(#398),#241,.F.);
#314=ADVANCED_FACE('',(#399),#242,.T.);
#315=ADVANCED_FACE('',(#400),#357,.T.);
#316=ADVANCED_FACE('',(#401),#358,.T.);
#317=ADVANCED_FACE('',(#402),#359,.T.);
#318=ADVANCED_FACE('',(#403),#360,.T.);
#319=ADVANCED_FACE('',(#404),#361,.T.);
#320=ADVANCED_FACE('',(#405),#243,.F.);
#321=ADVANCED_FACE('',(#406),#362,.T.);
#322=ADVANCED_FACE('',(#407),#363,.T.);
#323=ADVANCED_FACE('',(#408),#364,.T.);
#324=ADVANCED_FACE('',(#409),#244,.T.);
#325=ADVANCED_FACE('',(#410),#365,.T.);
#326=ADVANCED_FACE('',(#411),#245,.F.);
#327=ADVANCED_FACE('',(#412),#246,.T.);
#328=ADVANCED_FACE('',(#413),#366,.T.);
#329=ADVANCED_FACE('',(#414),#247,.T.);
#330=ADVANCED_FACE('',(#415),#248,.T.);
#331=ADVANCED_FACE('',(#416),#367,.T.);
#332=ADVANCED_FACE('',(#417),#249,.F.);
#333=ADVANCED_FACE('',(#418),#250,.F.);
#334=ADVANCED_FACE('',(#419),#368,.T.);
#335=ADVANCED_FACE('',(#420),#251,.F.);
#336=ADVANCED_FACE('',(#421),#369,.T.);
#337=ADVANCED_FACE('',(#422),#370,.T.);
#338=ADVANCED_FACE('',(#423),#371,.T.);
#339=ADVANCED_FACE('',(#424),#372,.T.);
#340=ADVANCED_FACE('',(#425),#373,.F.);
#341=ADVANCED_FACE('',(#426),#374,.T.);
#342=PLANE('',#1096);
#343=PLANE('',#1103);
#344=PLANE('',#1104);
#345=PLANE('',#1105);
#346=PLANE('',#1112);
#347=PLANE('',#1113);
#348=PLANE('',#1118);
#349=PLANE('',#1123);
#350=PLANE('',#1126);
#351=PLANE('',#1131);
#352=PLANE('',#1134);
#353=PLANE('',#1137);
#354=PLANE('',#1142);
#355=PLANE('',#1145);
#356=PLANE('',#1148);
#357=PLANE('',#1155);
#358=PLANE('',#1156);
#359=PLANE('',#1161);
#360=PLANE('',#1166);
#361=PLANE('',#1171);
#362=PLANE('',#1173);
#363=PLANE('',#1174);
#364=PLANE('',#1175);
#365=PLANE('',#1177);
#366=PLANE('',#1180);
#367=PLANE('',#1183);
#368=PLANE('',#1186);
#369=PLANE('',#1188);
#370=PLANE('',#1189);
#371=PLANE('',#1190);
#372=PLANE('',#1191);
#373=PLANE('',#1192);
#374=PLANE('',#1193);
#375=FACE_OUTER_BOUND('',#427,.T.);
#376=FACE_OUTER_BOUND('',#428,.T.);
#377=FACE_OUTER_BOUND('',#429,.T.);
#378=FACE_OUTER_BOUND('',#430,.T.);
#379=FACE_OUTER_BOUND('',#431,.T.);
#380=FACE_OUTER_BOUND('',#432,.T.);
#381=FACE_OUTER_BOUND('',#433,.T.);
#382=FACE_OUTER_BOUND('',#434,.T.);
#383=FACE_OUTER_BOUND('',#435,.T.);
#384=FACE_OUTER_BOUND('',#436,.T.);
#385=FACE_OUTER_BOUND('',#437,.T.);
#386=FACE_OUTER_BOUND('',#438,.T.);
#387=FACE_OUTER_BOUND('',#439,.T.);
#388=FACE_OUTER_BOUND('',#440,.T.);
#389=FACE_OUTER_BOUND('',#441,.T.);
#390=FACE_OUTER_BOUND('',#442,.T.);
#391=FACE_OUTER_BOUND('',#443,.T.);
#392=FACE_OUTER_BOUND('',#444,.T.);
#393=FACE_OUTER_BOUND('',#445,.T.);
#394=FACE_OUTER_BOUND('',#446,.T.);
#395=FACE_OUTER_BOUND('',#447,.T.);
#396=FACE_OUTER_BOUND('',#448,.T.);
#397=FACE_OUTER_BOUND('',#449,.T.);
#398=FACE_OUTER_BOUND('',#450,.T.);
#399=FACE_OUTER_BOUND('',#451,.T.);
#400=FACE_OUTER_BOUND('',#452,.T.);
#401=FACE_OUTER_BOUND('',#453,.T.);
#402=FACE_OUTER_BOUND('',#454,.T.);
#403=FACE_OUTER_BOUND('',#455,.T.);
#404=FACE_OUTER_BOUND('',#456,.T.);
#405=FACE_OUTER_BOUND('',#457,.T.);
#406=FACE_OUTER_BOUND('',#458,.T.);
#407=FACE_OUTER_BOUND('',#459,.T.);
#408=FACE_OUTER_BOUND('',#460,.T.);
#409=FACE_OUTER_BOUND('',#461,.T.);
#410=FACE_OUTER_BOUND('',#462,.T.);
#411=FACE_OUTER_BOUND('',#463,.T.);
#412=FACE_OUTER_BOUND('',#464,.T.);
#413=FACE_OUTER_BOUND('',#465,.T.);
#414=FACE_OUTER_BOUND('',#466,.T.);
#415=FACE_OUTER_BOUND('',#467,.T.);
#416=FACE_OUTER_BOUND('',#468,.T.);
#417=FACE_OUTER_BOUND('',#469,.T.);
#418=FACE_OUTER_BOUND('',#470,.T.);
#419=FACE_OUTER_BOUND('',#471,.T.);
#420=FACE_OUTER_BOUND('',#472,.T.);
#421=FACE_OUTER_BOUND('',#473,.T.);
#422=FACE_OUTER_BOUND('',#474,.T.);
#423=FACE_OUTER_BOUND('',#475,.T.);
#424=FACE_OUTER_BOUND('',#476,.T.);
#425=FACE_OUTER_BOUND('',#477,.T.);
#426=FACE_OUTER_BOUND('',#478,.T.);
#427=EDGE_LOOP('',(#479,#480,#481,#482));
#428=EDGE_LOOP('',(#483,#484,#485,#486));
#429=EDGE_LOOP('',(#487,#488,#489,#490));
#430=EDGE_LOOP('',(#491,#492,#493,#494));
#431=EDGE_LOOP('',(#495,#496,#497,#498));
#432=EDGE_LOOP('',(#499,#500,#501,#502));
#433=EDGE_LOOP('',(#503,#504,#505,#506));
#434=EDGE_LOOP('',(#507,#508,#509,#510));
#435=EDGE_LOOP('',(#511,#512,#513,#514,#515,#516,#517,#518));
#436=EDGE_LOOP('',(#519,#520,#521,#522,#523,#524,#525,#526));
#437=EDGE_LOOP('',(#527,#528,#529,#530,#531,#532));
#438=EDGE_LOOP('',(#533,#534,#535,#536,#537,#538));
#439=EDGE_LOOP('',(#539,#540,#541,#542));
#440=EDGE_LOOP('',(#543,#544,#545,#546,#547,#548));
#441=EDGE_LOOP('',(#549,#550,#551,#552));
#442=EDGE_LOOP('',(#553,#554,#555,#556));
#443=EDGE_LOOP('',(#557,#558,#559,#560,#561,#562));
#444=EDGE_LOOP('',(#563,#564,#565,#566,#567,#568,#569));
#445=EDGE_LOOP('',(#570,#571,#572,#573,#574));
#446=EDGE_LOOP('',(#575,#576,#577,#578));
#447=EDGE_LOOP('',(#579,#580,#581,#582,#583));
#448=EDGE_LOOP('',(#584,#585,#586,#587,#588));
#449=EDGE_LOOP('',(#589,#590,#591,#592));
#450=EDGE_LOOP('',(#593,#594,#595,#596,#597));
#451=EDGE_LOOP('',(#598,#599,#600,#601,#602,#603,#604));
#452=EDGE_LOOP('',(#605,#606,#607,#608,#609,#610,#611,#612));
#453=EDGE_LOOP('',(#613,#614,#615,#616));
#454=EDGE_LOOP('',(#617,#618,#619,#620,#621,#622));
#455=EDGE_LOOP('',(#623,#624,#625,#626,#627,#628));
#456=EDGE_LOOP('',(#629,#630,#631,#632,#633,#634));
#457=EDGE_LOOP('',(#635,#636,#637,#638));
#458=EDGE_LOOP('',(#639,#640,#641,#642));
#459=EDGE_LOOP('',(#643,#644,#645,#646));
#460=EDGE_LOOP('',(#647,#648,#649,#650));
#461=EDGE_LOOP('',(#651,#652,#653,#654));
#462=EDGE_LOOP('',(#655,#656,#657,#658));
#463=EDGE_LOOP('',(#659,#660,#661,#662));
#464=EDGE_LOOP('',(#663,#664,#665,#666));
#465=EDGE_LOOP('',(#667,#668,#669,#670,#671,#672,#673));
#466=EDGE_LOOP('',(#674,#675,#676,#677,#678));
#467=EDGE_LOOP('',(#679,#680,#681,#682));
#468=EDGE_LOOP('',(#683,#684,#685,#686));
#469=EDGE_LOOP('',(#687,#688,#689,#690));
#470=EDGE_LOOP('',(#691,#692,#693,#694,#695));
#471=EDGE_LOOP('',(#696,#697,#698,#699,#700,#701,#702));
#472=EDGE_LOOP('',(#703,#704,#705,#706));
#473=EDGE_LOOP('',(#707,#708,#709,#710));
#474=EDGE_LOOP('',(#711,#712,#713,#714));
#475=EDGE_LOOP('',(#715,#716,#717,#718));
#476=EDGE_LOOP('',(#719,#720,#721,#722));
#477=EDGE_LOOP('',(#723,#724,#725,#726));
#478=EDGE_LOOP('',(#727,#728,#729,#730));
#479=ORIENTED_EDGE('',*,*,#813,.T.);
#480=ORIENTED_EDGE('',*,*,#814,.T.);
#481=ORIENTED_EDGE('',*,*,#815,.F.);
#482=ORIENTED_EDGE('',*,*,#816,.F.);
#483=ORIENTED_EDGE('',*,*,#817,.T.);
#484=ORIENTED_EDGE('',*,*,#816,.T.);
#485=ORIENTED_EDGE('',*,*,#818,.F.);
#486=ORIENTED_EDGE('',*,*,#819,.F.);
#487=ORIENTED_EDGE('',*,*,#820,.T.);
#488=ORIENTED_EDGE('',*,*,#819,.T.);
#489=ORIENTED_EDGE('',*,*,#821,.F.);
#490=ORIENTED_EDGE('',*,*,#822,.F.);
#491=ORIENTED_EDGE('',*,*,#823,.T.);
#492=ORIENTED_EDGE('',*,*,#822,.T.);
#493=ORIENTED_EDGE('',*,*,#824,.F.);
#494=ORIENTED_EDGE('',*,*,#825,.F.);
#495=ORIENTED_EDGE('',*,*,#826,.T.);
#496=ORIENTED_EDGE('',*,*,#825,.T.);
#497=ORIENTED_EDGE('',*,*,#827,.F.);
#498=ORIENTED_EDGE('',*,*,#828,.F.);
#499=ORIENTED_EDGE('',*,*,#829,.T.);
#500=ORIENTED_EDGE('',*,*,#828,.T.);
#501=ORIENTED_EDGE('',*,*,#830,.F.);
#502=ORIENTED_EDGE('',*,*,#831,.F.);
#503=ORIENTED_EDGE('',*,*,#832,.T.);
#504=ORIENTED_EDGE('',*,*,#831,.T.);
#505=ORIENTED_EDGE('',*,*,#833,.F.);
#506=ORIENTED_EDGE('',*,*,#834,.F.);
#507=ORIENTED_EDGE('',*,*,#835,.T.);
#508=ORIENTED_EDGE('',*,*,#834,.T.);
#509=ORIENTED_EDGE('',*,*,#836,.F.);
#510=ORIENTED_EDGE('',*,*,#814,.F.);
#511=ORIENTED_EDGE('',*,*,#836,.T.);
#512=ORIENTED_EDGE('',*,*,#833,.T.);
#513=ORIENTED_EDGE('',*,*,#830,.T.);
#514=ORIENTED_EDGE('',*,*,#827,.T.);
#515=ORIENTED_EDGE('',*,*,#824,.T.);
#516=ORIENTED_EDGE('',*,*,#821,.T.);
#517=ORIENTED_EDGE('',*,*,#818,.T.);
#518=ORIENTED_EDGE('',*,*,#815,.T.);
#519=ORIENTED_EDGE('',*,*,#835,.F.);
#520=ORIENTED_EDGE('',*,*,#813,.F.);
#521=ORIENTED_EDGE('',*,*,#817,.F.);
#522=ORIENTED_EDGE('',*,*,#820,.F.);
#523=ORIENTED_EDGE('',*,*,#823,.F.);
#524=ORIENTED_EDGE('',*,*,#826,.F.);
#525=ORIENTED_EDGE('',*,*,#829,.F.);
#526=ORIENTED_EDGE('',*,*,#832,.F.);
#527=ORIENTED_EDGE('',*,*,#837,.F.);
#528=ORIENTED_EDGE('',*,*,#838,.F.);
#529=ORIENTED_EDGE('',*,*,#839,.F.);
#530=ORIENTED_EDGE('',*,*,#840,.F.);
#531=ORIENTED_EDGE('',*,*,#841,.T.);
#532=ORIENTED_EDGE('',*,*,#842,.F.);
#533=ORIENTED_EDGE('',*,*,#843,.F.);
#534=ORIENTED_EDGE('',*,*,#841,.F.);
#535=ORIENTED_EDGE('',*,*,#844,.F.);
#536=ORIENTED_EDGE('',*,*,#845,.F.);
#537=ORIENTED_EDGE('',*,*,#846,.F.);
#538=ORIENTED_EDGE('',*,*,#847,.F.);
#539=ORIENTED_EDGE('',*,*,#848,.F.);
#540=ORIENTED_EDGE('',*,*,#849,.F.);
#541=ORIENTED_EDGE('',*,*,#850,.F.);
#542=ORIENTED_EDGE('',*,*,#838,.T.);
#543=ORIENTED_EDGE('',*,*,#851,.F.);
#544=ORIENTED_EDGE('',*,*,#852,.F.);
#545=ORIENTED_EDGE('',*,*,#853,.F.);
#546=ORIENTED_EDGE('',*,*,#854,.F.);
#547=ORIENTED_EDGE('',*,*,#855,.F.);
#548=ORIENTED_EDGE('',*,*,#856,.F.);
#549=ORIENTED_EDGE('',*,*,#857,.F.);
#550=ORIENTED_EDGE('',*,*,#858,.F.);
#551=ORIENTED_EDGE('',*,*,#859,.F.);
#552=ORIENTED_EDGE('',*,*,#860,.F.);
#553=ORIENTED_EDGE('',*,*,#861,.F.);
#554=ORIENTED_EDGE('',*,*,#862,.F.);
#555=ORIENTED_EDGE('',*,*,#863,.F.);
#556=ORIENTED_EDGE('',*,*,#852,.T.);
#557=ORIENTED_EDGE('',*,*,#864,.F.);
#558=ORIENTED_EDGE('',*,*,#865,.F.);
#559=ORIENTED_EDGE('',*,*,#860,.T.);
#560=ORIENTED_EDGE('',*,*,#866,.F.);
#561=ORIENTED_EDGE('',*,*,#867,.F.);
#562=ORIENTED_EDGE('',*,*,#862,.T.);
#563=ORIENTED_EDGE('',*,*,#842,.T.);
#564=ORIENTED_EDGE('',*,*,#843,.T.);
#565=ORIENTED_EDGE('',*,*,#868,.F.);
#566=ORIENTED_EDGE('',*,*,#864,.T.);
#567=ORIENTED_EDGE('',*,*,#861,.T.);
#568=ORIENTED_EDGE('',*,*,#851,.T.);
#569=ORIENTED_EDGE('',*,*,#869,.T.);
#570=ORIENTED_EDGE('',*,*,#847,.T.);
#571=ORIENTED_EDGE('',*,*,#870,.F.);
#572=ORIENTED_EDGE('',*,*,#857,.T.);
#573=ORIENTED_EDGE('',*,*,#865,.T.);
#574=ORIENTED_EDGE('',*,*,#868,.T.);
#575=ORIENTED_EDGE('',*,*,#846,.T.);
#576=ORIENTED_EDGE('',*,*,#871,.F.);
#577=ORIENTED_EDGE('',*,*,#858,.T.);
#578=ORIENTED_EDGE('',*,*,#870,.T.);
#579=ORIENTED_EDGE('',*,*,#848,.T.);
#580=ORIENTED_EDGE('',*,*,#837,.T.);
#581=ORIENTED_EDGE('',*,*,#869,.F.);
#582=ORIENTED_EDGE('',*,*,#856,.T.);
#583=ORIENTED_EDGE('',*,*,#872,.T.);
#584=ORIENTED_EDGE('',*,*,#845,.T.);
#585=ORIENTED_EDGE('',*,*,#873,.F.);
#586=ORIENTED_EDGE('',*,*,#866,.T.);
#587=ORIENTED_EDGE('',*,*,#859,.T.);
#588=ORIENTED_EDGE('',*,*,#871,.T.);
#589=ORIENTED_EDGE('',*,*,#849,.T.);
#590=ORIENTED_EDGE('',*,*,#872,.F.);
#591=ORIENTED_EDGE('',*,*,#855,.T.);
#592=ORIENTED_EDGE('',*,*,#874,.T.);
#593=ORIENTED_EDGE('',*,*,#850,.T.);
#594=ORIENTED_EDGE('',*,*,#874,.F.);
#595=ORIENTED_EDGE('',*,*,#854,.T.);
#596=ORIENTED_EDGE('',*,*,#875,.F.);
#597=ORIENTED_EDGE('',*,*,#839,.T.);
#598=ORIENTED_EDGE('',*,*,#840,.T.);
#599=ORIENTED_EDGE('',*,*,#875,.T.);
#600=ORIENTED_EDGE('',*,*,#853,.T.);
#601=ORIENTED_EDGE('',*,*,#863,.T.);
#602=ORIENTED_EDGE('',*,*,#867,.T.);
#603=ORIENTED_EDGE('',*,*,#873,.T.);
#604=ORIENTED_EDGE('',*,*,#844,.T.);
#605=ORIENTED_EDGE('',*,*,#876,.T.);
#606=ORIENTED_EDGE('',*,*,#877,.T.);
#607=ORIENTED_EDGE('',*,*,#878,.T.);
#608=ORIENTED_EDGE('',*,*,#879,.T.);
#609=ORIENTED_EDGE('',*,*,#880,.T.);
#610=ORIENTED_EDGE('',*,*,#881,.T.);
#611=ORIENTED_EDGE('',*,*,#882,.T.);
#612=ORIENTED_EDGE('',*,*,#883,.T.);
#613=ORIENTED_EDGE('',*,*,#884,.T.);
#614=ORIENTED_EDGE('',*,*,#883,.F.);
#615=ORIENTED_EDGE('',*,*,#885,.F.);
#616=ORIENTED_EDGE('',*,*,#886,.T.);
#617=ORIENTED_EDGE('',*,*,#887,.T.);
#618=ORIENTED_EDGE('',*,*,#888,.T.);
#619=ORIENTED_EDGE('',*,*,#889,.T.);
#620=ORIENTED_EDGE('',*,*,#890,.T.);
#621=ORIENTED_EDGE('',*,*,#891,.T.);
#622=ORIENTED_EDGE('',*,*,#892,.T.);
#623=ORIENTED_EDGE('',*,*,#893,.T.);
#624=ORIENTED_EDGE('',*,*,#886,.F.);
#625=ORIENTED_EDGE('',*,*,#894,.T.);
#626=ORIENTED_EDGE('',*,*,#895,.T.);
#627=ORIENTED_EDGE('',*,*,#896,.T.);
#628=ORIENTED_EDGE('',*,*,#897,.T.);
#629=ORIENTED_EDGE('',*,*,#898,.T.);
#630=ORIENTED_EDGE('',*,*,#899,.F.);
#631=ORIENTED_EDGE('',*,*,#900,.T.);
#632=ORIENTED_EDGE('',*,*,#901,.T.);
#633=ORIENTED_EDGE('',*,*,#902,.T.);
#634=ORIENTED_EDGE('',*,*,#903,.T.);
#635=ORIENTED_EDGE('',*,*,#904,.T.);
#636=ORIENTED_EDGE('',*,*,#905,.F.);
#637=ORIENTED_EDGE('',*,*,#906,.T.);
#638=ORIENTED_EDGE('',*,*,#899,.T.);
#639=ORIENTED_EDGE('',*,*,#907,.F.);
#640=ORIENTED_EDGE('',*,*,#908,.F.);
#641=ORIENTED_EDGE('',*,*,#909,.F.);
#642=ORIENTED_EDGE('',*,*,#905,.T.);
#643=ORIENTED_EDGE('',*,*,#910,.T.);
#644=ORIENTED_EDGE('',*,*,#911,.F.);
#645=ORIENTED_EDGE('',*,*,#912,.T.);
#646=ORIENTED_EDGE('',*,*,#908,.T.);
#647=ORIENTED_EDGE('',*,*,#913,.T.);
#648=ORIENTED_EDGE('',*,*,#892,.F.);
#649=ORIENTED_EDGE('',*,*,#914,.F.);
#650=ORIENTED_EDGE('',*,*,#911,.T.);
#651=ORIENTED_EDGE('',*,*,#897,.F.);
#652=ORIENTED_EDGE('',*,*,#915,.F.);
#653=ORIENTED_EDGE('',*,*,#888,.F.);
#654=ORIENTED_EDGE('',*,*,#916,.T.);
#655=ORIENTED_EDGE('',*,*,#896,.F.);
#656=ORIENTED_EDGE('',*,*,#917,.F.);
#657=ORIENTED_EDGE('',*,*,#889,.F.);
#658=ORIENTED_EDGE('',*,*,#915,.T.);
#659=ORIENTED_EDGE('',*,*,#895,.F.);
#660=ORIENTED_EDGE('',*,*,#918,.F.);
#661=ORIENTED_EDGE('',*,*,#890,.F.);
#662=ORIENTED_EDGE('',*,*,#917,.T.);
#663=ORIENTED_EDGE('',*,*,#894,.F.);
#664=ORIENTED_EDGE('',*,*,#919,.F.);
#665=ORIENTED_EDGE('',*,*,#891,.F.);
#666=ORIENTED_EDGE('',*,*,#918,.T.);
#667=ORIENTED_EDGE('',*,*,#882,.F.);
#668=ORIENTED_EDGE('',*,*,#920,.T.);
#669=ORIENTED_EDGE('',*,*,#909,.T.);
#670=ORIENTED_EDGE('',*,*,#912,.F.);
#671=ORIENTED_EDGE('',*,*,#914,.T.);
#672=ORIENTED_EDGE('',*,*,#919,.T.);
#673=ORIENTED_EDGE('',*,*,#885,.T.);
#674=ORIENTED_EDGE('',*,*,#881,.F.);
#675=ORIENTED_EDGE('',*,*,#921,.F.);
#676=ORIENTED_EDGE('',*,*,#900,.F.);
#677=ORIENTED_EDGE('',*,*,#906,.F.);
#678=ORIENTED_EDGE('',*,*,#920,.F.);
#679=ORIENTED_EDGE('',*,*,#880,.F.);
#680=ORIENTED_EDGE('',*,*,#922,.F.);
#681=ORIENTED_EDGE('',*,*,#901,.F.);
#682=ORIENTED_EDGE('',*,*,#921,.T.);
#683=ORIENTED_EDGE('',*,*,#879,.F.);
#684=ORIENTED_EDGE('',*,*,#923,.F.);
#685=ORIENTED_EDGE('',*,*,#902,.F.);
#686=ORIENTED_EDGE('',*,*,#922,.T.);
#687=ORIENTED_EDGE('',*,*,#878,.F.);
#688=ORIENTED_EDGE('',*,*,#924,.F.);
#689=ORIENTED_EDGE('',*,*,#903,.F.);
#690=ORIENTED_EDGE('',*,*,#923,.T.);
#691=ORIENTED_EDGE('',*,*,#877,.F.);
#692=ORIENTED_EDGE('',*,*,#925,.F.);
#693=ORIENTED_EDGE('',*,*,#904,.F.);
#694=ORIENTED_EDGE('',*,*,#898,.F.);
#695=ORIENTED_EDGE('',*,*,#924,.T.);
#696=ORIENTED_EDGE('',*,*,#876,.F.);
#697=ORIENTED_EDGE('',*,*,#884,.F.);
#698=ORIENTED_EDGE('',*,*,#926,.F.);
#699=ORIENTED_EDGE('',*,*,#913,.F.);
#700=ORIENTED_EDGE('',*,*,#910,.F.);
#701=ORIENTED_EDGE('',*,*,#907,.T.);
#702=ORIENTED_EDGE('',*,*,#925,.T.);
#703=ORIENTED_EDGE('',*,*,#893,.F.);
#704=ORIENTED_EDGE('',*,*,#916,.F.);
#705=ORIENTED_EDGE('',*,*,#887,.F.);
#706=ORIENTED_EDGE('',*,*,#926,.T.);
#707=ORIENTED_EDGE('',*,*,#927,.F.);
#708=ORIENTED_EDGE('',*,*,#928,.T.);
#709=ORIENTED_EDGE('',*,*,#929,.F.);
#710=ORIENTED_EDGE('',*,*,#930,.F.);
#711=ORIENTED_EDGE('',*,*,#931,.F.);
#712=ORIENTED_EDGE('',*,*,#930,.T.);
#713=ORIENTED_EDGE('',*,*,#932,.F.);
#714=ORIENTED_EDGE('',*,*,#933,.F.);
#715=ORIENTED_EDGE('',*,*,#934,.F.);
#716=ORIENTED_EDGE('',*,*,#933,.T.);
#717=ORIENTED_EDGE('',*,*,#935,.F.);
#718=ORIENTED_EDGE('',*,*,#936,.F.);
#719=ORIENTED_EDGE('',*,*,#937,.F.);
#720=ORIENTED_EDGE('',*,*,#936,.T.);
#721=ORIENTED_EDGE('',*,*,#938,.F.);
#722=ORIENTED_EDGE('',*,*,#928,.F.);
#723=ORIENTED_EDGE('',*,*,#937,.T.);
#724=ORIENTED_EDGE('',*,*,#927,.T.);
#725=ORIENTED_EDGE('',*,*,#931,.T.);
#726=ORIENTED_EDGE('',*,*,#934,.T.);
#727=ORIENTED_EDGE('',*,*,#938,.T.);
#728=ORIENTED_EDGE('',*,*,#935,.T.);
#729=ORIENTED_EDGE('',*,*,#932,.T.);
#730=ORIENTED_EDGE('',*,*,#929,.T.);
#731=VERTEX_POINT('',#1472);
#732=VERTEX_POINT('',#1473);
#733=VERTEX_POINT('',#1475);
#734=VERTEX_POINT('',#1477);
#735=VERTEX_POINT('',#1481);
#736=VERTEX_POINT('',#1483);
#737=VERTEX_POINT('',#1487);
#738=VERTEX_POINT('',#1489);
#739=VERTEX_POINT('',#1493);
#740=VERTEX_POINT('',#1495);
#741=VERTEX_POINT('',#1499);
#742=VERTEX_POINT('',#1501);
#743=VERTEX_POINT('',#1505);
#744=VERTEX_POINT('',#1507);
#745=VERTEX_POINT('',#1511);
#746=VERTEX_POINT('',#1513);
#747=VERTEX_POINT('',#1522);
#748=VERTEX_POINT('',#1523);
#749=VERTEX_POINT('',#1525);
#750=VERTEX_POINT('',#1527);
#751=VERTEX_POINT('',#1529);
#752=VERTEX_POINT('',#1531);
#753=VERTEX_POINT('',#1535);
#754=VERTEX_POINT('',#1537);
#755=VERTEX_POINT('',#1539);
#756=VERTEX_POINT('',#1541);
#757=VERTEX_POINT('',#1545);
#758=VERTEX_POINT('',#1547);
#759=VERTEX_POINT('',#1551);
#760=VERTEX_POINT('',#1552);
#761=VERTEX_POINT('',#1554);
#762=VERTEX_POINT('',#1556);
#763=VERTEX_POINT('',#1558);
#764=VERTEX_POINT('',#1560);
#765=VERTEX_POINT('',#1564);
#766=VERTEX_POINT('',#1565);
#767=VERTEX_POINT('',#1567);
#768=VERTEX_POINT('',#1569);
#769=VERTEX_POINT('',#1573);
#770=VERTEX_POINT('',#1575);
#771=VERTEX_POINT('',#1579);
#772=VERTEX_POINT('',#1582);
#773=VERTEX_POINT('',#1602);
#774=VERTEX_POINT('',#1603);
#775=VERTEX_POINT('',#1605);
#776=VERTEX_POINT('',#1607);
#777=VERTEX_POINT('',#1609);
#778=VERTEX_POINT('',#1611);
#779=VERTEX_POINT('',#1613);
#780=VERTEX_POINT('',#1615);
#781=VERTEX_POINT('',#1619);
#782=VERTEX_POINT('',#1621);
#783=VERTEX_POINT('',#1625);
#784=VERTEX_POINT('',#1626);
#785=VERTEX_POINT('',#1628);
#786=VERTEX_POINT('',#1630);
#787=VERTEX_POINT('',#1632);
#788=VERTEX_POINT('',#1634);
#789=VERTEX_POINT('',#1638);
#790=VERTEX_POINT('',#1640);
#791=VERTEX_POINT('',#1642);
#792=VERTEX_POINT('',#1644);
#793=VERTEX_POINT('',#1648);
#794=VERTEX_POINT('',#1649);
#795=VERTEX_POINT('',#1651);
#796=VERTEX_POINT('',#1653);
#797=VERTEX_POINT('',#1655);
#798=VERTEX_POINT('',#1657);
#799=VERTEX_POINT('',#1676);
#800=VERTEX_POINT('',#1678);
#801=VERTEX_POINT('',#1697);
#802=VERTEX_POINT('',#1699);
#803=VERTEX_POINT('',#1703);
#804=VERTEX_POINT('',#1705);
#805=VERTEX_POINT('',#1736);
#806=VERTEX_POINT('',#1737);
#807=VERTEX_POINT('',#1739);
#808=VERTEX_POINT('',#1741);
#809=VERTEX_POINT('',#1745);
#810=VERTEX_POINT('',#1747);
#811=VERTEX_POINT('',#1751);
#812=VERTEX_POINT('',#1753);
#813=EDGE_CURVE('',#731,#732,#939,.T.);
#814=EDGE_CURVE('',#732,#733,#940,.T.);
#815=EDGE_CURVE('',#734,#733,#941,.T.);
#816=EDGE_CURVE('',#731,#734,#942,.T.);
#817=EDGE_CURVE('',#735,#731,#252,.T.);
#818=EDGE_CURVE('',#736,#734,#253,.T.);
#819=EDGE_CURVE('',#735,#736,#943,.T.);
#820=EDGE_CURVE('',#737,#735,#254,.T.);
#821=EDGE_CURVE('',#738,#736,#255,.T.);
#822=EDGE_CURVE('',#737,#738,#944,.T.);
#823=EDGE_CURVE('',#739,#737,#945,.T.);
#824=EDGE_CURVE('',#740,#738,#946,.T.);
#825=EDGE_CURVE('',#739,#740,#947,.T.);
#826=EDGE_CURVE('',#741,#739,#948,.T.);
#827=EDGE_CURVE('',#742,#740,#949,.T.);
#828=EDGE_CURVE('',#741,#742,#950,.T.);
#829=EDGE_CURVE('',#743,#741,#951,.T.);
#830=EDGE_CURVE('',#744,#742,#952,.T.);
#831=EDGE_CURVE('',#743,#744,#953,.T.);
#832=EDGE_CURVE('',#745,#743,#256,.T.);
#833=EDGE_CURVE('',#746,#744,#257,.T.);
#834=EDGE_CURVE('',#745,#746,#954,.T.);
#835=EDGE_CURVE('',#732,#745,#258,.T.);
#836=EDGE_CURVE('',#733,#746,#259,.T.);
#837=EDGE_CURVE('',#747,#748,#108,.T.);
#838=EDGE_CURVE('',#749,#747,#955,.T.);
#839=EDGE_CURVE('',#750,#749,#109,.T.);
#840=EDGE_CURVE('',#751,#750,#110,.T.);
#841=EDGE_CURVE('',#751,#752,#956,.T.);
#842=EDGE_CURVE('',#748,#752,#111,.T.);
#843=EDGE_CURVE('',#752,#753,#260,.T.);
#844=EDGE_CURVE('',#754,#751,#261,.T.);
#845=EDGE_CURVE('',#755,#754,#262,.T.);
#846=EDGE_CURVE('',#756,#755,#957,.T.);
#847=EDGE_CURVE('',#753,#756,#263,.T.);
#848=EDGE_CURVE('',#757,#747,#264,.T.);
#849=EDGE_CURVE('',#758,#757,#958,.T.);
#850=EDGE_CURVE('',#749,#758,#265,.T.);
#851=EDGE_CURVE('',#759,#760,#266,.T.);
#852=EDGE_CURVE('',#761,#759,#959,.T.);
#853=EDGE_CURVE('',#762,#761,#267,.T.);
#854=EDGE_CURVE('',#763,#762,#268,.T.);
#855=EDGE_CURVE('',#764,#763,#960,.T.);
#856=EDGE_CURVE('',#760,#764,#269,.T.);
#857=EDGE_CURVE('',#765,#766,#112,.T.);
#858=EDGE_CURVE('',#767,#765,#961,.T.);
#859=EDGE_CURVE('',#768,#767,#113,.T.);
#860=EDGE_CURVE('',#766,#768,#962,.T.);
#861=EDGE_CURVE('',#769,#759,#114,.T.);
#862=EDGE_CURVE('',#770,#769,#963,.T.);
#863=EDGE_CURVE('',#761,#770,#115,.T.);
#864=EDGE_CURVE('',#771,#769,#270,.T.);
#865=EDGE_CURVE('',#766,#771,#271,.T.);
#866=EDGE_CURVE('',#772,#768,#272,.T.);
#867=EDGE_CURVE('',#770,#772,#273,.T.);
#868=EDGE_CURVE('',#771,#753,#964,.T.);
#869=EDGE_CURVE('',#760,#748,#965,.T.);
#870=EDGE_CURVE('',#765,#756,#966,.T.);
#871=EDGE_CURVE('',#767,#755,#967,.T.);
#872=EDGE_CURVE('',#764,#757,#968,.T.);
#873=EDGE_CURVE('',#772,#754,#969,.T.);
#874=EDGE_CURVE('',#763,#758,#970,.T.);
#875=EDGE_CURVE('',#750,#762,#971,.T.);
#876=EDGE_CURVE('',#773,#774,#972,.T.);
#877=EDGE_CURVE('',#774,#775,#274,.T.);
#878=EDGE_CURVE('',#775,#776,#275,.T.);
#879=EDGE_CURVE('',#776,#777,#973,.T.);
#880=EDGE_CURVE('',#777,#778,#276,.T.);
#881=EDGE_CURVE('',#778,#779,#277,.T.);
#882=EDGE_CURVE('',#779,#780,#974,.T.);
#883=EDGE_CURVE('',#780,#773,#975,.T.);
#884=EDGE_CURVE('',#781,#773,#976,.T.);
#885=EDGE_CURVE('',#782,#780,#977,.T.);
#886=EDGE_CURVE('',#782,#781,#978,.T.);
#887=EDGE_CURVE('',#783,#784,#278,.T.);
#888=EDGE_CURVE('',#784,#785,#279,.T.);
#889=EDGE_CURVE('',#785,#786,#979,.T.);
#890=EDGE_CURVE('',#786,#787,#280,.T.);
#891=EDGE_CURVE('',#787,#788,#281,.T.);
#892=EDGE_CURVE('',#788,#783,#980,.T.);
#893=EDGE_CURVE('',#789,#781,#282,.T.);
#894=EDGE_CURVE('',#782,#790,#283,.T.);
#895=EDGE_CURVE('',#790,#791,#284,.T.);
#896=EDGE_CURVE('',#791,#792,#981,.T.);
#897=EDGE_CURVE('',#792,#789,#285,.T.);
#898=EDGE_CURVE('',#793,#794,#286,.T.);
#899=EDGE_CURVE('',#795,#794,#982,.T.);
#900=EDGE_CURVE('',#795,#796,#287,.T.);
#901=EDGE_CURVE('',#796,#797,#288,.T.);
#902=EDGE_CURVE('',#797,#798,#983,.T.);
#903=EDGE_CURVE('',#798,#793,#289,.T.);
#904=EDGE_CURVE('',#794,#799,#106,.T.);
#905=EDGE_CURVE('',#800,#799,#984,.T.);
#906=EDGE_CURVE('',#800,#795,#107,.T.);
#907=EDGE_CURVE('',#801,#799,#985,.T.);
#908=EDGE_CURVE('',#802,#801,#986,.T.);
#909=EDGE_CURVE('',#800,#802,#987,.T.);
#910=EDGE_CURVE('',#801,#803,#988,.T.);
#911=EDGE_CURVE('',#804,#803,#989,.T.);
#912=EDGE_CURVE('',#804,#802,#990,.T.);
#913=EDGE_CURVE('',#803,#783,#991,.T.);
#914=EDGE_CURVE('',#804,#788,#992,.T.);
#915=EDGE_CURVE('',#785,#792,#993,.T.);
#916=EDGE_CURVE('',#784,#789,#994,.T.);
#917=EDGE_CURVE('',#786,#791,#995,.T.);
#918=EDGE_CURVE('',#787,#790,#996,.T.);
#919=EDGE_CURVE('',#788,#782,#997,.T.);
#920=EDGE_CURVE('',#779,#800,#998,.T.);
#921=EDGE_CURVE('',#796,#778,#999,.T.);
#922=EDGE_CURVE('',#797,#777,#1000,.T.);
#923=EDGE_CURVE('',#798,#776,#1001,.T.);
#924=EDGE_CURVE('',#793,#775,#1002,.T.);
#925=EDGE_CURVE('',#799,#774,#1003,.T.);
#926=EDGE_CURVE('',#783,#781,#1004,.T.);
#927=EDGE_CURVE('',#805,#806,#1005,.T.);
#928=EDGE_CURVE('',#805,#807,#1006,.T.);
#929=EDGE_CURVE('',#808,#807,#1007,.T.);
#930=EDGE_CURVE('',#806,#808,#1008,.T.);
#931=EDGE_CURVE('',#806,#809,#1009,.T.);
#932=EDGE_CURVE('',#810,#808,#1010,.T.);
#933=EDGE_CURVE('',#809,#810,#1011,.T.);
#934=EDGE_CURVE('',#809,#811,#1012,.T.);
#935=EDGE_CURVE('',#812,#810,#1013,.T.);
#936=EDGE_CURVE('',#811,#812,#1014,.T.);
#937=EDGE_CURVE('',#811,#805,#1015,.T.);
#938=EDGE_CURVE('',#807,#812,#1016,.T.);
#939=LINE('',#1471,#1017);
#940=LINE('',#1474,#1018);
#941=LINE('',#1476,#1019);
#942=LINE('',#1478,#1020);
#943=LINE('',#1484,#1021);
#944=LINE('',#1490,#1022);
#945=LINE('',#1492,#1023);
#946=LINE('',#1494,#1024);
#947=LINE('',#1496,#1025);
#948=LINE('',#1498,#1026);
#949=LINE('',#1500,#1027);
#950=LINE('',#1502,#1028);
#951=LINE('',#1504,#1029);
#952=LINE('',#1506,#1030);
#953=LINE('',#1508,#1031);
#954=LINE('',#1514,#1032);
#955=LINE('',#1524,#1033);
#956=LINE('',#1530,#1034);
#957=LINE('',#1540,#1035);
#958=LINE('',#1546,#1036);
#959=LINE('',#1553,#1037);
#960=LINE('',#1559,#1038);
#961=LINE('',#1566,#1039);
#962=LINE('',#1570,#1040);
#963=LINE('',#1574,#1041);
#964=LINE('',#1585,#1042);
#965=LINE('',#1586,#1043);
#966=LINE('',#1588,#1044);
#967=LINE('',#1590,#1045);
#968=LINE('',#1592,#1046);
#969=LINE('',#1594,#1047);
#970=LINE('',#1596,#1048);
#971=LINE('',#1598,#1049);
#972=LINE('',#1601,#1050);
#973=LINE('',#1608,#1051);
#974=LINE('',#1614,#1052);
#975=LINE('',#1616,#1053);
#976=LINE('',#1618,#1054);
#977=LINE('',#1620,#1055);
#978=LINE('',#1622,#1056);
#979=LINE('',#1629,#1057);
#980=LINE('',#1635,#1058);
#981=LINE('',#1643,#1059);
#982=LINE('',#1650,#1060);
#983=LINE('',#1656,#1061);
#984=LINE('',#1677,#1062);
#985=LINE('',#1696,#1063);
#986=LINE('',#1698,#1064);
#987=LINE('',#1700,#1065);
#988=LINE('',#1702,#1066);
#989=LINE('',#1704,#1067);
#990=LINE('',#1706,#1068);
#991=LINE('',#1708,#1069);
#992=LINE('',#1709,#1070);
#993=LINE('',#1711,#1071);
#994=LINE('',#1712,#1072);
#995=LINE('',#1714,#1073);
#996=LINE('',#1716,#1074);
#997=LINE('',#1718,#1075);
#998=LINE('',#1720,#1076);
#999=LINE('',#1722,#1077);
#1000=LINE('',#1724,#1078);
#1001=LINE('',#1726,#1079);
#1002=LINE('',#1728,#1080);
#1003=LINE('',#1730,#1081);
#1004=LINE('',#1732,#1082);
#1005=LINE('',#1735,#1083);
#1006=LINE('',#1738,#1084);
#1007=LINE('',#1740,#1085);
#1008=LINE('',#1742,#1086);
#1009=LINE('',#1744,#1087);
#1010=LINE('',#1746,#1088);
#1011=LINE('',#1748,#1089);
#1012=LINE('',#1750,#1090);
#1013=LINE('',#1752,#1091);
#1014=LINE('',#1754,#1092);
#1015=LINE('',#1756,#1093);
#1016=LINE('',#1757,#1094);
#1017=VECTOR('',#1196,1.);
#1018=VECTOR('',#1197,1.);
#1019=VECTOR('',#1198,1.);
#1020=VECTOR('',#1199,1.);
#1021=VECTOR('',#1206,1.);
#1022=VECTOR('',#1213,1.);
#1023=VECTOR('',#1216,1.);
#1024=VECTOR('',#1217,1.);
#1025=VECTOR('',#1218,1.);
#1026=VECTOR('',#1221,1.);
#1027=VECTOR('',#1222,1.);
#1028=VECTOR('',#1223,1.);
#1029=VECTOR('',#1226,1.);
#1030=VECTOR('',#1227,1.);
#1031=VECTOR('',#1228,1.);
#1032=VECTOR('',#1235,1.);
#1033=VECTOR('',#1250,1.);
#1034=VECTOR('',#1255,1.);
#1035=VECTOR('',#1266,1.);
#1036=VECTOR('',#1273,1.);
#1037=VECTOR('',#1280,1.);
#1038=VECTOR('',#1285,1.);
#1039=VECTOR('',#1292,1.);
#1040=VECTOR('',#1295,1.);
#1041=VECTOR('',#1300,1.);
#1042=VECTOR('',#1315,1.);
#1043=VECTOR('',#1316,1.);
#1044=VECTOR('',#1319,1.);
#1045=VECTOR('',#1322,1.);
#1046=VECTOR('',#1325,1.);
#1047=VECTOR('',#1328,1.);
#1048=VECTOR('',#1331,1.);
#1049=VECTOR('',#1334,1.);
#1050=VECTOR('',#1339,1.);
#1051=VECTOR('',#1344,1.);
#1052=VECTOR('',#1349,1.);
#1053=VECTOR('',#1350,1.);
#1054=VECTOR('',#1353,1.);
#1055=VECTOR('',#1354,1.);
#1056=VECTOR('',#1355,1.);
#1057=VECTOR('',#1362,1.);
#1058=VECTOR('',#1367,1.);
#1059=VECTOR('',#1376,1.);
#1060=VECTOR('',#1383,1.);
#1061=VECTOR('',#1388,1.);
#1062=VECTOR('',#1393,1.);
#1063=VECTOR('',#1396,1.);
#1064=VECTOR('',#1397,1.);
#1065=VECTOR('',#1398,1.);
#1066=VECTOR('',#1401,1.);
#1067=VECTOR('',#1402,1.);
#1068=VECTOR('',#1403,1.);
#1069=VECTOR('',#1406,1.);
#1070=VECTOR('',#1407,1.);
#1071=VECTOR('',#1410,1.);
#1072=VECTOR('',#1411,1.);
#1073=VECTOR('',#1414,1.);
#1074=VECTOR('',#1417,1.);
#1075=VECTOR('',#1420,1.);
#1076=VECTOR('',#1423,1.);
#1077=VECTOR('',#1426,1.);
#1078=VECTOR('',#1429,1.);
#1079=VECTOR('',#1432,1.);
#1080=VECTOR('',#1435,1.);
#1081=VECTOR('',#1438,1.);
#1082=VECTOR('',#1441,1.);
#1083=VECTOR('',#1446,1.);
#1084=VECTOR('',#1447,1.);
#1085=VECTOR('',#1448,1.);
#1086=VECTOR('',#1449,1.);
#1087=VECTOR('',#1452,1.);
#1088=VECTOR('',#1453,1.);
#1089=VECTOR('',#1454,1.);
#1090=VECTOR('',#1457,1.);
#1091=VECTOR('',#1458,1.);
#1092=VECTOR('',#1459,1.);
#1093=VECTOR('',#1462,1.);
#1094=VECTOR('',#1463,1.);
#1095=AXIS2_PLACEMENT_3D('',#1470,#1194,#1195);
#1096=AXIS2_PLACEMENT_3D('',#1479,#1200,#1201);
#1097=AXIS2_PLACEMENT_3D('',#1480,#1202,#1203);
#1098=AXIS2_PLACEMENT_3D('',#1482,#1204,#1205);
#1099=AXIS2_PLACEMENT_3D('',#1485,#1207,#1208);
#1100=AXIS2_PLACEMENT_3D('',#1486,#1209,#1210);
#1101=AXIS2_PLACEMENT_3D('',#1488,#1211,#1212);
#1102=AXIS2_PLACEMENT_3D('',#1491,#1214,#1215);
#1103=AXIS2_PLACEMENT_3D('',#1497,#1219,#1220);
#1104=AXIS2_PLACEMENT_3D('',#1503,#1224,#1225);
#1105=AXIS2_PLACEMENT_3D('',#1509,#1229,#1230);
#1106=AXIS2_PLACEMENT_3D('',#1510,#1231,#1232);
#1107=AXIS2_PLACEMENT_3D('',#1512,#1233,#1234);
#1108=AXIS2_PLACEMENT_3D('',#1515,#1236,#1237);
#1109=AXIS2_PLACEMENT_3D('',#1516,#1238,#1239);
#1110=AXIS2_PLACEMENT_3D('',#1517,#1240,#1241);
#1111=AXIS2_PLACEMENT_3D('',#1518,#1242,#1243);
#1112=AXIS2_PLACEMENT_3D('',#1519,#1244,#1245);
#1113=AXIS2_PLACEMENT_3D('',#1520,#1246,#1247);
#1114=AXIS2_PLACEMENT_3D('',#1521,#1248,#1249);
#1115=AXIS2_PLACEMENT_3D('',#1526,#1251,#1252);
#1116=AXIS2_PLACEMENT_3D('',#1528,#1253,#1254);
#1117=AXIS2_PLACEMENT_3D('',#1532,#1256,#1257);
#1118=AXIS2_PLACEMENT_3D('',#1533,#1258,#1259);
#1119=AXIS2_PLACEMENT_3D('',#1534,#1260,#1261);
#1120=AXIS2_PLACEMENT_3D('',#1536,#1262,#1263);
#1121=AXIS2_PLACEMENT_3D('',#1538,#1264,#1265);
#1122=AXIS2_PLACEMENT_3D('',#1542,#1267,#1268);
#1123=AXIS2_PLACEMENT_3D('',#1543,#1269,#1270);
#1124=AXIS2_PLACEMENT_3D('',#1544,#1271,#1272);
#1125=AXIS2_PLACEMENT_3D('',#1548,#1274,#1275);
#1126=AXIS2_PLACEMENT_3D('',#1549,#1276,#1277);
#1127=AXIS2_PLACEMENT_3D('',#1550,#1278,#1279);
#1128=AXIS2_PLACEMENT_3D('',#1555,#1281,#1282);
#1129=AXIS2_PLACEMENT_3D('',#1557,#1283,#1284);
#1130=AXIS2_PLACEMENT_3D('',#1561,#1286,#1287);
#1131=AXIS2_PLACEMENT_3D('',#1562,#1288,#1289);
#1132=AXIS2_PLACEMENT_3D('',#1563,#1290,#1291);
#1133=AXIS2_PLACEMENT_3D('',#1568,#1293,#1294);
#1134=AXIS2_PLACEMENT_3D('',#1571,#1296,#1297);
#1135=AXIS2_PLACEMENT_3D('',#1572,#1298,#1299);
#1136=AXIS2_PLACEMENT_3D('',#1576,#1301,#1302);
#1137=AXIS2_PLACEMENT_3D('',#1577,#1303,#1304);
#1138=AXIS2_PLACEMENT_3D('',#1578,#1305,#1306);
#1139=AXIS2_PLACEMENT_3D('',#1580,#1307,#1308);
#1140=AXIS2_PLACEMENT_3D('',#1581,#1309,#1310);
#1141=AXIS2_PLACEMENT_3D('',#1583,#1311,#1312);
#1142=AXIS2_PLACEMENT_3D('',#1584,#1313,#1314);
#1143=AXIS2_PLACEMENT_3D('',#1587,#1317,#1318);
#1144=AXIS2_PLACEMENT_3D('',#1589,#1320,#1321);
#1145=AXIS2_PLACEMENT_3D('',#1591,#1323,#1324);
#1146=AXIS2_PLACEMENT_3D('',#1593,#1326,#1327);
#1147=AXIS2_PLACEMENT_3D('',#1595,#1329,#1330);
#1148=AXIS2_PLACEMENT_3D('',#1597,#1332,#1333);
#1149=AXIS2_PLACEMENT_3D('',#1599,#1335,#1336);
#1150=AXIS2_PLACEMENT_3D('',#1600,#1337,#1338);
#1151=AXIS2_PLACEMENT_3D('',#1604,#1340,#1341);
#1152=AXIS2_PLACEMENT_3D('',#1606,#1342,#1343);
#1153=AXIS2_PLACEMENT_3D('',#1610,#1345,#1346);
#1154=AXIS2_PLACEMENT_3D('',#1612,#1347,#1348);
#1155=AXIS2_PLACEMENT_3D('',#1617,#1351,#1352);
#1156=AXIS2_PLACEMENT_3D('',#1623,#1356,#1357);
#1157=AXIS2_PLACEMENT_3D('',#1624,#1358,#1359);
#1158=AXIS2_PLACEMENT_3D('',#1627,#1360,#1361);
#1159=AXIS2_PLACEMENT_3D('',#1631,#1363,#1364);
#1160=AXIS2_PLACEMENT_3D('',#1633,#1365,#1366);
#1161=AXIS2_PLACEMENT_3D('',#1636,#1368,#1369);
#1162=AXIS2_PLACEMENT_3D('',#1637,#1370,#1371);
#1163=AXIS2_PLACEMENT_3D('',#1639,#1372,#1373);
#1164=AXIS2_PLACEMENT_3D('',#1641,#1374,#1375);
#1165=AXIS2_PLACEMENT_3D('',#1645,#1377,#1378);
#1166=AXIS2_PLACEMENT_3D('',#1646,#1379,#1380);
#1167=AXIS2_PLACEMENT_3D('',#1647,#1381,#1382);
#1168=AXIS2_PLACEMENT_3D('',#1652,#1384,#1385);
#1169=AXIS2_PLACEMENT_3D('',#1654,#1386,#1387);
#1170=AXIS2_PLACEMENT_3D('',#1658,#1389,#1390);
#1171=AXIS2_PLACEMENT_3D('',#1659,#1391,#1392);
#1172=AXIS2_PLACEMENT_3D('',#1695,#1394,#1395);
#1173=AXIS2_PLACEMENT_3D('',#1701,#1399,#1400);
#1174=AXIS2_PLACEMENT_3D('',#1707,#1404,#1405);
#1175=AXIS2_PLACEMENT_3D('',#1710,#1408,#1409);
#1176=AXIS2_PLACEMENT_3D('',#1713,#1412,#1413);
#1177=AXIS2_PLACEMENT_3D('',#1715,#1415,#1416);
#1178=AXIS2_PLACEMENT_3D('',#1717,#1418,#1419);
#1179=AXIS2_PLACEMENT_3D('',#1719,#1421,#1422);
#1180=AXIS2_PLACEMENT_3D('',#1721,#1424,#1425);
#1181=AXIS2_PLACEMENT_3D('',#1723,#1427,#1428);
#1182=AXIS2_PLACEMENT_3D('',#1725,#1430,#1431);
#1183=AXIS2_PLACEMENT_3D('',#1727,#1433,#1434);
#1184=AXIS2_PLACEMENT_3D('',#1729,#1436,#1437);
#1185=AXIS2_PLACEMENT_3D('',#1731,#1439,#1440);
#1186=AXIS2_PLACEMENT_3D('',#1733,#1442,#1443);
#1187=AXIS2_PLACEMENT_3D('',#1734,#1444,#1445);
#1188=AXIS2_PLACEMENT_3D('',#1743,#1450,#1451);
#1189=AXIS2_PLACEMENT_3D('',#1749,#1455,#1456);
#1190=AXIS2_PLACEMENT_3D('',#1755,#1460,#1461);
#1191=AXIS2_PLACEMENT_3D('',#1758,#1464,#1465);
#1192=AXIS2_PLACEMENT_3D('',#1759,#1466,#1467);
#1193=AXIS2_PLACEMENT_3D('',#1760,#1468,#1469);
#1194=DIRECTION('',(0.,0.,1.));
#1195=DIRECTION('',(1.,0.,0.));
#1196=DIRECTION('',(0.,-1.,3.46512532218602E-17));
#1197=DIRECTION('',(-1.,0.,0.));
#1198=DIRECTION('',(0.,-1.,3.46512532218602E-17));
#1199=DIRECTION('',(-1.,0.,0.));
#1200=DIRECTION('',(0.,-3.46512532218602E-17,-1.));
#1201=DIRECTION('',(0.,1.,-3.46512532218602E-17));
#1202=DIRECTION('',(-1.,0.,0.));
#1203=DIRECTION('',(0.,-1.,3.46512532218563E-17));
#1204=DIRECTION('',(-1.,0.,0.));
#1205=DIRECTION('',(0.,-1.,3.46512532218563E-17));
#1206=DIRECTION('',(-1.,0.,0.));
#1207=DIRECTION('',(-1.,0.,0.));
#1208=DIRECTION('',(0.,1.,-3.46512532218563E-17));
#1209=DIRECTION('',(-1.,0.,0.));
#1210=DIRECTION('',(0.,-0.991609277383867,-0.12927119171047));
#1211=DIRECTION('',(-1.,0.,0.));
#1212=DIRECTION('',(0.,-0.991609277383867,-0.12927119171047));
#1213=DIRECTION('',(-1.,0.,0.));
#1214=DIRECTION('',(-1.,0.,0.));
#1215=DIRECTION('',(0.,0.991609277383867,0.12927119171047));
#1216=DIRECTION('',(0.,-1.,0.));
#1217=DIRECTION('',(0.,-1.,0.));
#1218=DIRECTION('',(-1.,0.,0.));
#1219=DIRECTION('',(0.,0.,-1.));
#1220=DIRECTION('',(0.,1.,0.));
#1221=DIRECTION('',(0.,0.,-1.));
#1222=DIRECTION('',(0.,0.,-1.));
#1223=DIRECTION('',(-1.,0.,0.));
#1224=DIRECTION('',(0.,1.,0.));
#1225=DIRECTION('',(0.,0.,1.));
#1226=DIRECTION('',(0.,1.,0.));
#1227=DIRECTION('',(0.,1.,0.));
#1228=DIRECTION('',(-1.,0.,0.));
#1229=DIRECTION('',(0.,0.,1.));
#1230=DIRECTION('',(0.,-1.,0.));
#1231=DIRECTION('',(1.,0.,0.));
#1232=DIRECTION('',(0.,0.991609277383868,0.12927119171046));
#1233=DIRECTION('',(1.,0.,0.));
#1234=DIRECTION('',(0.,0.991609277383868,0.12927119171046));
#1235=DIRECTION('',(-1.,0.,0.));
#1236=DIRECTION('',(-1.,0.,0.));
#1237=DIRECTION('',(0.,-0.991609277383868,-0.12927119171046));
#1238=DIRECTION('',(1.,0.,0.));
#1239=DIRECTION('',(0.,1.,-3.46512532218563E-17));
#1240=DIRECTION('',(1.,0.,0.));
#1241=DIRECTION('',(0.,1.,-3.46512532218563E-17));
#1242=DIRECTION('',(-1.,0.,0.));
#1243=DIRECTION('',(0.,-1.,3.46512532218563E-17));
#1244=DIRECTION('',(1.,0.,0.));
#1245=DIRECTION('',(0.,0.,1.));
#1246=DIRECTION('',(1.,0.,0.));
#1247=DIRECTION('',(0.,0.,1.));
#1248=DIRECTION('',(-0.530092423561485,1.54074395550979E-33,0.847939869615004));
#1249=DIRECTION('',(-0.847939869615005,2.46538907435E-17,-0.530092423561485));
#1250=DIRECTION('',(0.,1.,0.));
#1251=DIRECTION('',(0.530092423561485,0.,-0.847939869615004));
#1252=DIRECTION('',(0.847939869615005,0.,0.530092423561485));
#1253=DIRECTION('',(-0.530092423561485,0.,0.847939869615004));
#1254=DIRECTION('',(0.847939869615005,2.89977889690046E-17,0.530092423561485));
#1255=DIRECTION('',(0.,1.,0.));
#1256=DIRECTION('',(0.530092423561485,0.,-0.847939869615004));
#1257=DIRECTION('',(-0.847939869615005,0.,-0.530092423561485));
#1258=DIRECTION('',(-0.530092423561485,0.,0.847939869615005));
#1259=DIRECTION('',(-0.847939869615005,0.,-0.530092423561485));
#1260=DIRECTION('',(0.,0.,-1.));
#1261=DIRECTION('',(-0.232726067723866,-0.972542326791892,0.));
#1262=DIRECTION('',(0.,0.,1.));
#1263=DIRECTION('',(0.232726067723866,0.972542326791892,0.));
#1264=DIRECTION('',(0.,0.,1.));
#1265=DIRECTION('',(0.,-1.,0.));
#1266=DIRECTION('',(-2.72138780453241E-32,1.,0.));
#1267=DIRECTION('',(0.,0.,-1.));
#1268=DIRECTION('',(0.,1.,0.));
#1269=DIRECTION('',(0.,0.,1.));
#1270=DIRECTION('',(-1.,0.,0.));
#1271=DIRECTION('',(0.,0.,1.));
#1272=DIRECTION('',(-0.135827403371798,-0.990732515108531,0.));
#1273=DIRECTION('',(-2.72138780453241E-32,1.,0.));
#1274=DIRECTION('',(0.,0.,-1.));
#1275=DIRECTION('',(0.135960926212508,0.990714200233063,0.));
#1276=DIRECTION('',(0.,0.,1.));
#1277=DIRECTION('',(-1.,0.,0.));
#1278=DIRECTION('',(1.28540884856618E-16,0.,1.));
#1279=DIRECTION('',(-0.232726067723866,-0.972542326791892,5.3557996897968E-17));
#1280=DIRECTION('',(0.,1.,0.));
#1281=DIRECTION('',(-1.28540884856618E-16,0.,-1.));
#1282=DIRECTION('',(0.232726067723866,0.972542326791892,-5.34342668480037E-17));
#1283=DIRECTION('',(1.28540884856618E-16,0.,1.));
#1284=DIRECTION('',(0.135960926212508,0.990714200233063,-2.27372091942563E-17));
#1285=DIRECTION('',(2.72138780453241E-32,-1.,-3.49809596432604E-48));
#1286=DIRECTION('',(-1.28540884856618E-16,0.,-1.));
#1287=DIRECTION('',(-0.135827403371798,-0.990732515108531,2.27148797144124E-17));
#1288=DIRECTION('',(-1.28540884856618E-16,0.,-1.));
#1289=DIRECTION('',(1.,0.,-1.28369537222284E-16));
#1290=DIRECTION('',(0.36911125821448,0.,0.929385215644903));
#1291=DIRECTION('',(-0.929385215644903,-2.52921759156877E-32,0.36911125821448));
#1292=DIRECTION('',(2.72138780453241E-32,-1.,-1.08081650074827E-32));
#1293=DIRECTION('',(-0.36911125821448,0.,-0.929385215644903));
#1294=DIRECTION('',(0.929385215644903,2.52921759156877E-32,-0.36911125821448));
#1295=DIRECTION('',(0.,1.,0.));
#1296=DIRECTION('',(-0.36911125821448,0.,-0.929385215644903));
#1297=DIRECTION('',(0.929385215644903,0.,-0.36911125821448));
#1298=DIRECTION('',(0.36911125821448,0.,0.929385215644903));
#1299=DIRECTION('',(-0.929385215644903,0.,0.36911125821448));
#1300=DIRECTION('',(0.,1.,0.));
#1301=DIRECTION('',(-0.36911125821448,0.,-0.929385215644903));
#1302=DIRECTION('',(0.929385215644903,3.178305127511E-17,-0.36911125821448));
#1303=DIRECTION('',(-0.36911125821448,0.,-0.929385215644903));
#1304=DIRECTION('',(0.929385215644903,0.,-0.36911125821448));
#1305=DIRECTION('',(0.,0.,1.));
#1306=DIRECTION('',(-0.232726067723866,-0.972542326791892,0.));
#1307=DIRECTION('',(0.,0.,1.));
#1308=DIRECTION('',(0.,1.,0.));
#1309=DIRECTION('',(0.,0.,-1.));
#1310=DIRECTION('',(0.,-1.,0.));
#1311=DIRECTION('',(0.,0.,-1.));
#1312=DIRECTION('',(0.232726067723866,0.972542326791892,0.));
#1313=DIRECTION('',(0.,0.,-1.));
#1314=DIRECTION('',(1.,0.,0.));
#1315=DIRECTION('',(-2.53765262771464E-16,0.,-1.));
#1316=DIRECTION('',(-2.53765262771464E-16,0.,-1.));
#1317=DIRECTION('',(2.53765262771464E-16,0.,1.));
#1318=DIRECTION('',(0.232726067723866,0.972542326791892,-1.07115993795936E-16));
#1319=DIRECTION('',(-2.53765262771464E-16,0.,-1.));
#1320=DIRECTION('',(2.53765262771464E-16,0.,1.));
#1321=DIRECTION('',(0.,-1.,0.));
#1322=DIRECTION('',(-2.53765262771464E-16,0.,-1.));
#1323=DIRECTION('',(1.,2.72138780453241E-32,-2.53765262771464E-16));
#1324=DIRECTION('',(0.,-1.,0.));
#1325=DIRECTION('',(-2.53765262771464E-16,0.,-1.));
#1326=DIRECTION('',(2.53765262771464E-16,0.,1.));
#1327=DIRECTION('',(0.135827403371798,0.990732515108531,-4.54297594288247E-17));
#1328=DIRECTION('',(-2.53765262771464E-16,0.,-1.));
#1329=DIRECTION('',(2.53765262771464E-16,0.,1.));
#1330=DIRECTION('',(0.,1.,0.));
#1331=DIRECTION('',(-2.53765262771464E-16,0.,-1.));
#1332=DIRECTION('',(1.,2.72138780453241E-32,-2.53765262771464E-16));
#1333=DIRECTION('',(0.,-1.,0.));
#1334=DIRECTION('',(2.53765262771464E-16,0.,1.));
#1335=DIRECTION('',(2.53765262771464E-16,0.,1.));
#1336=DIRECTION('',(-0.135960926212508,-0.990714200233063,4.54744183885127E-17));
#1337=DIRECTION('',(2.53765262771464E-16,0.,1.));
#1338=DIRECTION('',(-0.232726067723866,-0.972542326791892,1.06868533696007E-16));
#1339=DIRECTION('',(-1.,-2.72138780453241E-32,6.58414130858965E-15));
#1340=DIRECTION('',(-6.58414130858965E-15,0.,-1.));
#1341=DIRECTION('',(0.710392866663109,0.703805353058763,-4.77473116072307E-15));
#1342=DIRECTION('',(-6.58414130858965E-15,0.,-1.));
#1343=DIRECTION('',(0.,-1.,0.));
#1344=DIRECTION('',(-2.72138780453241E-32,1.,1.7918001860514E-46));
#1345=DIRECTION('',(6.58414130858965E-15,0.,1.));
#1346=DIRECTION('',(0.,1.,0.));
#1347=DIRECTION('',(6.58414130858965E-15,0.,1.));
#1348=DIRECTION('',(-0.710392866663109,-0.703805353058763,4.72825168478899E-15));
#1349=DIRECTION('',(1.,2.72138780453241E-32,-6.58414130858965E-15));
#1350=DIRECTION('',(0.,1.,0.));
#1351=DIRECTION('',(6.58414130858965E-15,0.,1.));
#1352=DIRECTION('',(-1.,0.,6.58501031480796E-15));
#1353=DIRECTION('',(2.53765262771464E-16,0.,1.));
#1354=DIRECTION('',(2.53765262771464E-16,0.,1.));
#1355=DIRECTION('',(0.,1.,0.));
#1356=DIRECTION('',(1.,0.,-3.36363607462736E-15));
#1357=DIRECTION('',(3.36536354339501E-15,0.,1.));
#1358=DIRECTION('',(-6.17627252998075E-16,0.,1.));
#1359=DIRECTION('',(6.09162535047818E-12,1.,0.));
#1360=DIRECTION('',(6.17627252998075E-16,0.,-1.));
#1361=DIRECTION('',(0.0274028648637075,0.999624470987611,0.));
#1362=DIRECTION('',(2.72138780453241E-32,-1.,1.68080327405582E-47));
#1363=DIRECTION('',(-6.17627252998075E-16,0.,1.));
#1364=DIRECTION('',(-0.0279544084460123,-0.999609199161569,0.));
#1365=DIRECTION('',(6.17627252998075E-16,0.,-1.));
#1366=DIRECTION('',(0.,-1.,0.));
#1367=DIRECTION('',(0.,1.,0.));
#1368=DIRECTION('',(6.17627252998075E-16,0.,-1.));
#1369=DIRECTION('',(1.,0.,6.17561557447743E-16));
#1370=DIRECTION('',(0.,0.,-1.));
#1371=DIRECTION('',(6.09162535047818E-12,1.,0.));
#1372=DIRECTION('',(0.,0.,1.));
#1373=DIRECTION('',(0.,-1.,0.));
#1374=DIRECTION('',(0.,0.,-1.));
#1375=DIRECTION('',(-0.0279544084460123,-0.999609199161569,0.));
#1376=DIRECTION('',(-2.72138780453241E-32,1.,0.));
#1377=DIRECTION('',(0.,0.,1.));
#1378=DIRECTION('',(0.0274028648637075,0.999624470987611,0.));
#1379=DIRECTION('',(0.,0.,1.));
#1380=DIRECTION('',(-1.,0.,0.));
#1381=DIRECTION('',(1.87807400210197E-15,0.,1.));
#1382=DIRECTION('',(0.710392866663109,0.703805353058763,-1.36420890306373E-15));
#1383=DIRECTION('',(0.,1.,0.));
#1384=DIRECTION('',(-1.87807400210197E-15,0.,-1.));
#1385=DIRECTION('',(-0.710392866663109,-0.703805353058763,1.35092905279685E-15));
#1386=DIRECTION('',(-1.87807400210197E-15,0.,-1.));
#1387=DIRECTION('',(0.,1.,0.));
#1388=DIRECTION('',(2.72138780453241E-32,-1.,-5.1109676853297E-47));
#1389=DIRECTION('',(1.87807400210197E-15,0.,1.));
#1390=DIRECTION('',(0.,-1.,0.));
#1391=DIRECTION('',(-1.87807400210197E-15,0.,-1.));
#1392=DIRECTION('',(1.,0.,-1.88044024795886E-15));
#1393=DIRECTION('',(0.,1.,0.));
#1394=DIRECTION('',(0.,1.,0.));
#1395=DIRECTION('',(1.04083408558608E-14,0.,0.999999999999999));
#1396=DIRECTION('',(2.53765262771464E-16,0.,1.));
#1397=DIRECTION('',(0.,1.,0.));
#1398=DIRECTION('',(-2.53765262771464E-16,0.,-1.));
#1399=DIRECTION('',(-1.,0.,0.));
#1400=DIRECTION('',(0.,0.,-1.));
#1401=DIRECTION('',(1.,2.72138780453241E-32,-5.55111512312579E-16));
#1402=DIRECTION('',(0.,1.,0.));
#1403=DIRECTION('',(-1.,-2.72138780453241E-32,5.55111512312579E-16));
#1404=DIRECTION('',(-5.55111512312579E-16,0.,-1.));
#1405=DIRECTION('',(1.,0.,-5.55111512312578E-16));
#1406=DIRECTION('',(2.53765262771464E-16,0.,1.));
#1407=DIRECTION('',(2.53765262771464E-16,0.,1.));
#1408=DIRECTION('',(1.,0.,-1.04754134475419E-15));
#1409=DIRECTION('',(1.04777297948999E-15,0.,1.));
#1410=DIRECTION('',(2.53765262771464E-16,0.,1.));
#1411=DIRECTION('',(2.53765262771464E-16,0.,1.));
#1412=DIRECTION('',(2.53765262771464E-16,0.,1.));
#1413=DIRECTION('',(-0.0274028648637075,-0.999624470987611,0.));
#1414=DIRECTION('',(2.53765262771464E-16,0.,1.));
#1415=DIRECTION('',(1.,2.72138780453241E-32,-2.53765262771464E-16));
#1416=DIRECTION('',(0.,-1.,0.));
#1417=DIRECTION('',(2.53765262771464E-16,0.,1.));
#1418=DIRECTION('',(2.53765262771464E-16,0.,1.));
#1419=DIRECTION('',(0.0279544084460123,0.999609199161569,0.));
#1420=DIRECTION('',(2.53765262771464E-16,0.,1.));
#1421=DIRECTION('',(2.53765262771464E-16,0.,1.));
#1422=DIRECTION('',(0.,1.,0.));
#1423=DIRECTION('',(-2.53765262771464E-16,0.,-1.));
#1424=DIRECTION('',(2.72138780453241E-32,-1.,-6.90593691320226E-48));
#1425=DIRECTION('',(-1.,0.,0.));
#1426=DIRECTION('',(2.53765262771464E-16,0.,1.));
#1427=DIRECTION('',(2.53765262771464E-16,0.,1.));
#1428=DIRECTION('',(0.710392866663109,0.703805353058763,0.));
#1429=DIRECTION('',(2.53765262771464E-16,0.,1.));
#1430=DIRECTION('',(2.53765262771464E-16,0.,1.));
#1431=DIRECTION('',(0.,-1.,0.));
#1432=DIRECTION('',(2.53765262771464E-16,0.,1.));
#1433=DIRECTION('',(1.,2.72138780453241E-32,-2.53765262771464E-16));
#1434=DIRECTION('',(0.,-1.,0.));
#1435=DIRECTION('',(2.53765262771464E-16,0.,1.));
#1436=DIRECTION('',(2.53765262771464E-16,0.,1.));
#1437=DIRECTION('',(0.,1.,0.));
#1438=DIRECTION('',(2.53765262771464E-16,0.,1.));
#1439=DIRECTION('',(2.53765262771464E-16,0.,1.));
#1440=DIRECTION('',(-0.710392866663109,-0.703805353058763,0.));
#1441=DIRECTION('',(2.53765262771464E-16,0.,1.));
#1442=DIRECTION('',(-2.72138780453241E-32,1.,6.90593691320226E-48));
#1443=DIRECTION('',(1.,0.,0.));
#1444=DIRECTION('',(2.53765262771464E-16,0.,1.));
#1445=DIRECTION('',(-6.09162535047818E-12,-1.,0.));
#1446=DIRECTION('',(0.,6.90593691320226E-48,-1.));
#1447=DIRECTION('',(0.,-1.,0.));
#1448=DIRECTION('',(0.,-6.90593691320226E-48,1.));
#1449=DIRECTION('',(0.,-1.,0.));
#1450=DIRECTION('',(1.,0.,0.));
#1451=DIRECTION('',(0.,0.,-1.));
#1452=DIRECTION('',(-1.,-2.72138780453241E-32,-1.87937324944589E-79));
#1453=DIRECTION('',(1.,2.72138780453241E-32,1.87937324944589E-79));
#1454=DIRECTION('',(0.,-1.,0.));
#1455=DIRECTION('',(1.87937324944589E-79,0.,-1.));
#1456=DIRECTION('',(-1.,0.,0.));
#1457=DIRECTION('',(-1.70803542250024E-16,-1.15541636817038E-47,1.));
#1458=DIRECTION('',(1.70803542250024E-16,1.15541636817038E-47,-1.));
#1459=DIRECTION('',(0.,-1.,0.));
#1460=DIRECTION('',(-1.,0.,-1.70803542250024E-16));
#1461=DIRECTION('',(-1.73472347597681E-16,0.,1.));
#1462=DIRECTION('',(1.,2.72138780453241E-32,1.87937324944589E-79));
#1463=DIRECTION('',(-1.,-2.72138780453241E-32,-1.87937324944589E-79));
#1464=DIRECTION('',(-1.87937324944589E-79,0.,1.));
#1465=DIRECTION('',(1.,0.,0.));
#1466=DIRECTION('',(0.,-1.,0.));
#1467=DIRECTION('',(0.,0.,1.));
#1468=DIRECTION('',(0.,-1.,0.));
#1469=DIRECTION('',(0.,0.,1.));
#1470=CARTESIAN_POINT('',(0.,0.,0.));
#1471=CARTESIAN_POINT('',(0.,-1.08000000000002,4.43500138545291E-15));
#1472=CARTESIAN_POINT('',(0.,-1.08000000000002,4.43500138545291E-15));
#1473=CARTESIAN_POINT('',(0.,-1.25,4.44089209850063E-15));
#1474=CARTESIAN_POINT('',(0.,-1.25,4.44089209850063E-15));
#1475=CARTESIAN_POINT('',(-16.,-1.25,4.44089209850063E-15));
#1476=CARTESIAN_POINT('',(-16.,-1.08000000000002,4.43500138545291E-15));
#1477=CARTESIAN_POINT('',(-16.,-1.08000000000002,4.43500138545291E-15));
#1478=CARTESIAN_POINT('',(0.,-1.08000000000002,4.43500138545291E-15));
#1479=CARTESIAN_POINT('',(0.,-1.08000000000002,4.43500138545291E-15));
#1480=CARTESIAN_POINT('',(0.,-129.409638846757,8.88178419700125E-15));
#1481=CARTESIAN_POINT('',(0.,-2.15677840299163,16.5893253454945));
#1482=CARTESIAN_POINT('',(-16.,-129.409638846757,8.88178419700125E-15));
#1483=CARTESIAN_POINT('',(-16.,-2.15677840299163,16.5893253454945));
#1484=CARTESIAN_POINT('',(0.,-2.15677840299163,16.5893253454945));
#1485=CARTESIAN_POINT('',(0.,-129.409638846757,8.88178419700125E-15));
#1486=CARTESIAN_POINT('',(0.,-21.0392945850267,14.12770520436));
#1487=CARTESIAN_POINT('',(0.,-24.5257307130669,-4.59270489288625));
#1488=CARTESIAN_POINT('',(-16.,-21.0392945850267,14.12770520436));
#1489=CARTESIAN_POINT('',(-16.,-24.5257307130669,-4.59270489288625));
#1490=CARTESIAN_POINT('',(0.,-24.5257307130669,-4.59270489288625));
#1491=CARTESIAN_POINT('',(0.,-21.0392945850267,14.12770520436));
#1492=CARTESIAN_POINT('',(0.,-18.8099999999998,-4.59270489288625));
#1493=CARTESIAN_POINT('',(0.,-18.8099999999998,-4.59270489288625));
#1494=CARTESIAN_POINT('',(-16.,-18.8099999999998,-4.59270489288625));
#1495=CARTESIAN_POINT('',(-16.,-18.8099999999998,-4.59270489288625));
#1496=CARTESIAN_POINT('',(0.,-18.8099999999998,-4.59270489288625));
#1497=CARTESIAN_POINT('',(0.,-18.8099999999998,-4.59270489288625));
#1498=CARTESIAN_POINT('',(0.,-18.8099999999998,-4.42270489288625));
#1499=CARTESIAN_POINT('',(0.,-18.8099999999998,-4.42270489288625));
#1500=CARTESIAN_POINT('',(-16.,-18.8099999999998,-4.42270489288625));
#1501=CARTESIAN_POINT('',(-16.,-18.8099999999998,-4.42270489288625));
#1502=CARTESIAN_POINT('',(0.,-18.8099999999998,-4.42270489288625));
#1503=CARTESIAN_POINT('',(0.,-18.8099999999998,-4.42270489288625));
#1504=CARTESIAN_POINT('',(0.,-24.5099999999998,-4.42270489288625));
#1505=CARTESIAN_POINT('',(0.,-24.5099999999998,-4.42270489288625));
#1506=CARTESIAN_POINT('',(-16.,-24.5099999999998,-4.42270489288625));
#1507=CARTESIAN_POINT('',(-16.,-24.5099999999998,-4.42270489288625));
#1508=CARTESIAN_POINT('',(0.,-24.5099999999998,-4.42270489288625));
#1509=CARTESIAN_POINT('',(0.,-24.5099999999998,-4.42270489288625));
#1510=CARTESIAN_POINT('',(0.,-21.0392945850267,14.12770520436));
#1511=CARTESIAN_POINT('',(0.,-2.32535198014683,16.5673492429035));
#1512=CARTESIAN_POINT('',(-16.,-21.0392945850267,14.12770520436));
#1513=CARTESIAN_POINT('',(-16.,-2.32535198014683,16.5673492429035));
#1514=CARTESIAN_POINT('',(0.,-2.32535198014683,16.5673492429035));
#1515=CARTESIAN_POINT('',(0.,-21.0392945850267,14.12770520436));
#1516=CARTESIAN_POINT('',(0.,-129.409638846757,8.88178419700125E-15));
#1517=CARTESIAN_POINT('',(-16.,-129.409638846757,8.88178419700125E-15));
#1518=CARTESIAN_POINT('',(0.,-129.409638846757,8.88178419700125E-15));
#1519=CARTESIAN_POINT('',(-16.,-21.7584086830435,15.7959659284622));
#1520=CARTESIAN_POINT('',(0.,-21.7584086830435,15.7959659284622));
#1521=CARTESIAN_POINT('',(-13.0218453410581,-149.426393095064,-39.9099852712879));
#1522=CARTESIAN_POINT('',(-33.7474443613131,1.89986834343783,-52.8666622811786));
#1523=CARTESIAN_POINT('',(-36.1700582471428,1.54826734488365,-54.3811673918727));
#1524=CARTESIAN_POINT('',(-33.7474443613131,0.,-52.8666622811786));
#1525=CARTESIAN_POINT('',(-33.7474443613131,1.74846663684802,-52.8666622811786));
#1526=CARTESIAN_POINT('',(-13.0218453410581,-149.426393095064,-39.9099852712879));
#1527=CARTESIAN_POINT('',(-36.1473251338085,1.4,-54.366955710627));
#1528=CARTESIAN_POINT('',(-45.9876186903953,65.5792515198696,-60.5186478846675));
#1529=CARTESIAN_POINT('',(-45.1046583237726,0.656003881440066,-59.9666622811786));
#1530=CARTESIAN_POINT('',(-45.1046583237726,0.,-59.9666622811786));
#1531=CARTESIAN_POINT('',(-45.1046583237726,0.806017785055309,-59.9666622811786));
#1532=CARTESIAN_POINT('',(-45.9876186903953,65.5792515198696,-60.5186478846675));
#1533=CARTESIAN_POINT('',(-45.1046583237726,0.,-59.9666622811786));
#1534=CARTESIAN_POINT('',(-45.9876186903953,65.5792515198696,-59.9666622811786));
#1535=CARTESIAN_POINT('',(-61.0634391667093,2.57868751890075,-59.9666622811786));
#1536=CARTESIAN_POINT('',(-45.9876186903953,65.5792515198696,-59.9666622811786));
#1537=CARTESIAN_POINT('',(-61.0983480768684,2.43280616987963,-59.9666622811786));
#1538=CARTESIAN_POINT('',(-60.2645407574578,5.91721562364934,-59.9666622811786));
#1539=CARTESIAN_POINT('',(-60.2645407574578,9.5,-59.9666622811786));
#1540=CARTESIAN_POINT('',(-60.2645407574578,4.67499999999999,-59.9666622811786));
#1541=CARTESIAN_POINT('',(-60.2645407574578,9.34999999999998,-59.9666622811786));
#1542=CARTESIAN_POINT('',(-60.2645407574578,5.91721562364934,-59.9666622811786));
#1543=CARTESIAN_POINT('',(-70.9299902857821,0.,-59.9666622811786));
#1544=CARTESIAN_POINT('',(-13.0218453410581,-149.426393095064,-52.8666622811786));
#1545=CARTESIAN_POINT('',(7.72429007963966,1.89705426458435,-52.8666622811786));
#1546=CARTESIAN_POINT('',(7.72429007963966,0.872824869820269,-52.8666622811786));
#1547=CARTESIAN_POINT('',(7.72429007963966,1.74564973964054,-52.8666622811786));
#1548=CARTESIAN_POINT('',(-13.0218453410581,-149.426393095064,-52.8666622811786));
#1549=CARTESIAN_POINT('',(-33.7474443613131,0.,-52.8666622811786));
#1550=CARTESIAN_POINT('',(-45.9876186903953,65.5792515198696,-27.8666622811786));
#1551=CARTESIAN_POINT('',(-39.9537875147613,1.08162126248837,-27.8666622811786));
#1552=CARTESIAN_POINT('',(-36.1700582471428,1.54826734488365,-27.8666622811786));
#1553=CARTESIAN_POINT('',(-39.9537875147613,0.,-27.8666622811786));
#1554=CARTESIAN_POINT('',(-39.9537875147613,0.930967828236922,-27.8666622811786));
#1555=CARTESIAN_POINT('',(-45.9876186903953,65.5792515198696,-27.8666622811786));
#1556=CARTESIAN_POINT('',(-36.1473251338085,1.4,-27.8666622811786));
#1557=CARTESIAN_POINT('',(-13.0218453410581,-149.426393095064,-27.8666622811786));
#1558=CARTESIAN_POINT('',(7.72429007963967,1.74564973964054,-27.8666622811786));
#1559=CARTESIAN_POINT('',(7.72429007963966,0.872824869820269,-27.8666622811786));
#1560=CARTESIAN_POINT('',(7.72429007963967,1.89705426458435,-27.8666622811786));
#1561=CARTESIAN_POINT('',(-13.0218453410581,-149.426393095064,-27.8666622811786));
#1562=CARTESIAN_POINT('',(29.1431710670047,0.,-27.8666622811786));
#1563=CARTESIAN_POINT('',(-60.2645407574578,5.91721562364934,-19.8001172592703));
#1564=CARTESIAN_POINT('',(-60.2645407574578,9.34999999999998,-19.8001172592703));
#1565=CARTESIAN_POINT('',(-60.3487770448542,9.3489663171588,-19.7666622811786));
#1566=CARTESIAN_POINT('',(-60.2645407574578,4.67499999999999,-19.8001172592703));
#1567=CARTESIAN_POINT('',(-60.2645407574578,9.5,-19.8001172592703));
#1568=CARTESIAN_POINT('',(-60.2645407574578,5.91721562364934,-19.8001172592703));
#1569=CARTESIAN_POINT('',(-60.3487770448542,9.49900960646131,-19.7666622811786));
#1570=CARTESIAN_POINT('',(-60.3487770448542,0.,-19.7666622811786));
#1571=CARTESIAN_POINT('',(-39.9537875147613,0.,-27.8666622811786));
#1572=CARTESIAN_POINT('',(-45.9876186903953,65.5792515198696,-25.4702877966259));
#1573=CARTESIAN_POINT('',(-60.3487770448542,2.41194543363488,-19.7666622811786));
#1574=CARTESIAN_POINT('',(-60.3487770448542,0.,-19.7666622811786));
#1575=CARTESIAN_POINT('',(-60.3487770448542,2.25812681690789,-19.7666622811786));
#1576=CARTESIAN_POINT('',(-45.9876186903953,65.5792515198696,-25.4702877966259));
#1577=CARTESIAN_POINT('',(-39.9537875147613,0.,-27.8666622811786));
#1578=CARTESIAN_POINT('',(-45.9876186903953,65.5792515198696,-19.7666622811786));
#1579=CARTESIAN_POINT('',(-61.0634391667093,2.57868751890075,-19.7666622811786));
#1580=CARTESIAN_POINT('',(-60.2645407574578,5.91721562364934,-19.7666622811786));
#1581=CARTESIAN_POINT('',(-60.2645407574578,5.91721562364934,-19.7666622811786));
#1582=CARTESIAN_POINT('',(-61.0983480768684,2.43280616987963,-19.7666622811786));
#1583=CARTESIAN_POINT('',(-45.9876186903953,65.5792515198696,-19.7666622811786));
#1584=CARTESIAN_POINT('',(-60.3487770448542,0.,-19.7666622811786));
#1585=CARTESIAN_POINT('',(-61.0634391667093,2.57868751890075,-39.1166622811786));
#1586=CARTESIAN_POINT('',(-36.1700582471428,1.54826734488365,-39.1166622811786));
#1587=CARTESIAN_POINT('',(-45.9876186903953,65.5792515198696,-39.1166622811786));
#1588=CARTESIAN_POINT('',(-60.2645407574578,9.34999999999998,-39.1166622811786));
#1589=CARTESIAN_POINT('',(-60.2645407574578,5.91721562364934,-39.1166622811786));
#1590=CARTESIAN_POINT('',(-60.2645407574578,9.5,-39.1166622811786));
#1591=CARTESIAN_POINT('',(-60.2645407574578,9.34999999999998,-39.1166622811786));
#1592=CARTESIAN_POINT('',(7.72429007963966,1.89705426458435,-39.1166622811786));
#1593=CARTESIAN_POINT('',(-13.0218453410581,-149.426393095064,-39.1166622811786));
#1594=CARTESIAN_POINT('',(-61.0983480768684,2.43280616987963,-39.1166622811786));
#1595=CARTESIAN_POINT('',(-60.2645407574578,5.91721562364934,-39.1166622811786));
#1596=CARTESIAN_POINT('',(7.72429007963966,1.74564973964054,-39.1166622811786));
#1597=CARTESIAN_POINT('',(7.72429007963966,1.74564973964054,-39.1166622811786));
#1598=CARTESIAN_POINT('',(-36.1473251338085,1.4,-39.1166622811786));
#1599=CARTESIAN_POINT('',(-13.0218453410581,-149.426393095064,-39.1166622811786));
#1600=CARTESIAN_POINT('',(-45.9876186903953,65.5792515198696,-39.1166622811786));
#1601=CARTESIAN_POINT('',(-52.2411224392666,-1.7,-28.8666622811786));
#1602=CARTESIAN_POINT('',(-36.1473251338085,-1.7,-28.8666622811786));
#1603=CARTESIAN_POINT('',(-52.1473251337852,-1.7,-28.8666622811786));
#1604=CARTESIAN_POINT('',(-52.1473251338085,13.5591598434607,-28.8666622811785));
#1605=CARTESIAN_POINT('',(-62.9873234378751,2.81968146245374,-28.8666622811785));
#1606=CARTESIAN_POINT('',(-60.2645407574578,5.51721562364934,-28.8666622811785));
#1607=CARTESIAN_POINT('',(-60.2645407574578,9.35,-28.8666622811785));
#1608=CARTESIAN_POINT('',(-60.2645407574578,4.675,-28.8666622811785));
#1609=CARTESIAN_POINT('',(-60.2645407574578,9.5,-28.8666622811785));
#1610=CARTESIAN_POINT('',(-60.2645407574578,5.51721562364934,-28.8666622811785));
#1611=CARTESIAN_POINT('',(-63.0938823678746,2.71411065949493,-28.8666622811785));
#1612=CARTESIAN_POINT('',(-52.1473251338085,13.5591598434607,-28.8666622811785));
#1613=CARTESIAN_POINT('',(-52.1473251338085,-1.85,-28.8666622811786));
#1614=CARTESIAN_POINT('',(-60.2411224392346,-1.85,-28.8666622811785));
#1615=CARTESIAN_POINT('',(-36.1473251338085,-1.85,-28.8666622811786));
#1616=CARTESIAN_POINT('',(-36.1473251338085,0.,-28.8666622811786));
#1617=CARTESIAN_POINT('',(-68.3349197446607,0.,-28.8666622811785));
#1618=CARTESIAN_POINT('',(-36.1473251338725,-1.7,-39.1166622811786));
#1619=CARTESIAN_POINT('',(-36.1473251338085,-1.7,-34.1477236088285));
#1620=CARTESIAN_POINT('',(-36.1473251338085,-1.85,-39.1166622811786));
#1621=CARTESIAN_POINT('',(-36.1473251338085,-1.85,-34.1477236088285));
#1622=CARTESIAN_POINT('',(-36.1473251338085,0.,-34.1477236088285));
#1623=CARTESIAN_POINT('',(-36.1473251338085,0.,-28.8666622811786));
#1624=CARTESIAN_POINT('',(-36.1473251338085,8.80352525092599,-38.4879666750539));
#1625=CARTESIAN_POINT('',(-36.1473251338085,-1.7,-38.4879666750539));
#1626=CARTESIAN_POINT('',(-32.9615586042291,-1.20521764295691,-38.4879666750539));
#1627=CARTESIAN_POINT('',(-30.6556579568802,-8.44968031900881,-38.4879666750539));
#1628=CARTESIAN_POINT('',(-30.4473251338085,-0.849942514651076,-38.4879666750539));
#1629=CARTESIAN_POINT('',(-30.4473251338085,-0.500000000000002,-38.4879666750539));
#1630=CARTESIAN_POINT('',(-30.4473251338085,-1.,-38.4879666750539));
#1631=CARTESIAN_POINT('',(-30.6556579568802,-8.44968031900881,-38.4879666750539));
#1632=CARTESIAN_POINT('',(-32.9160629284421,-1.34815169587882,-38.4879666750539));
#1633=CARTESIAN_POINT('',(-36.1473251338085,8.80352525092599,-38.4879666750539));
#1634=CARTESIAN_POINT('',(-36.1473251338085,-1.85,-38.4879666750539));
#1635=CARTESIAN_POINT('',(-36.1473251338085,0.,-38.4879666750539));
#1636=CARTESIAN_POINT('',(-28.9570787887133,0.,-38.4879666750539));
#1637=CARTESIAN_POINT('',(-36.1473251338085,8.80352525092599,-34.1477236088285));
#1638=CARTESIAN_POINT('',(-32.9615586042291,-1.20521764295691,-34.1477236088285));
#1639=CARTESIAN_POINT('',(-36.1473251338085,8.80352525092599,-34.1477236088285));
#1640=CARTESIAN_POINT('',(-32.9160629284421,-1.34815169587882,-34.1477236088285));
#1641=CARTESIAN_POINT('',(-30.6556579568802,-8.44968031900881,-34.1477236088285));
#1642=CARTESIAN_POINT('',(-30.4473251338085,-1.,-34.1477236088285));
#1643=CARTESIAN_POINT('',(-30.4473251338085,-0.500000000000002,-34.1477236088285));
#1644=CARTESIAN_POINT('',(-30.4473251338085,-0.849942514651076,-34.1477236088285));
#1645=CARTESIAN_POINT('',(-30.6556579568802,-8.44968031900881,-34.1477236088285));
#1646=CARTESIAN_POINT('',(-36.1473251338085,0.,-34.1477236088285));
#1647=CARTESIAN_POINT('',(-52.1473251338085,13.5591598434607,-42.8666622811786));
#1648=CARTESIAN_POINT('',(-62.9873234378751,2.81968146245374,-42.8666622811786));
#1649=CARTESIAN_POINT('',(-54.1473251338085,-1.56836338832723,-42.8666622811786));
#1650=CARTESIAN_POINT('',(-54.1473251338085,0.,-42.8666622811786));
#1651=CARTESIAN_POINT('',(-54.1473251338085,-1.71965578738326,-42.8666622811786));
#1652=CARTESIAN_POINT('',(-52.1473251338085,13.5591598434607,-42.8666622811786));
#1653=CARTESIAN_POINT('',(-63.0938823678746,2.71411065949493,-42.8666622811786));
#1654=CARTESIAN_POINT('',(-60.2645407574578,5.51721562364934,-42.8666622811786));
#1655=CARTESIAN_POINT('',(-60.2645407574578,9.5,-42.8666622811786));
#1656=CARTESIAN_POINT('',(-60.2645407574578,4.675,-42.8666622811786));
#1657=CARTESIAN_POINT('',(-60.2645407574578,9.35,-42.8666622811786));
#1658=CARTESIAN_POINT('',(-60.2645407574578,5.51721562364934,-42.8666622811786));
#1659=CARTESIAN_POINT('',(-54.1473251338085,0.,-42.8666622811786));
#1660=CARTESIAN_POINT('',(-54.1473251338085,-1.56836338832723,-42.8666622811786));
#1661=CARTESIAN_POINT('',(-53.9255613131245,-1.59768263871424,-42.8666622811786));
#1662=CARTESIAN_POINT('',(-53.7000337131499,-1.62226691048773,-42.9046165015695));
#1663=CARTESIAN_POINT('',(-53.489516409236,-1.64085600220373,-42.9779358102791));
#1664=CARTESIAN_POINT('',(-53.2789473041207,-1.65944966806764,-43.0512731603954));
#1665=CARTESIAN_POINT('',(-53.0776272252475,-1.67262268800637,-43.1620407388485));
#1666=CARTESIAN_POINT('',(-52.9026223174542,-1.68129570395193,-43.3011863474895));
#1667=CARTESIAN_POINT('',(-52.7283969660361,-1.68993008609599,-43.4397121343916));
#1668=CARTESIAN_POINT('',(-52.5754477289603,-1.69445705971944,-43.6101536136635));
#1669=CARTESIAN_POINT('',(-52.456482837825,-1.69686783881396,-43.7984617709216));
#1670=CARTESIAN_POINT('',(-52.3372856481574,-1.6992833253515,-43.9871376308534));
#1671=CARTESIAN_POINT('',(-52.2489179999828,-1.69974453569139,-44.1989327623066));
#1672=CARTESIAN_POINT('',(-52.1986705553403,-1.69991361386204,-44.4163897705643));
#1673=CARTESIAN_POINT('',(-52.1646606890721,-1.70002805402937,-44.5635750418264));
#1674=CARTESIAN_POINT('',(-52.1473251338085,-1.7,-44.7155987575316));
#1675=CARTESIAN_POINT('',(-52.1473251338085,-1.7,-44.8666622811786));
#1676=CARTESIAN_POINT('',(-52.1473251337969,-1.7,-44.8666622811786));
#1677=CARTESIAN_POINT('',(-52.1473251338085,0.,-44.8666622811786));
#1678=CARTESIAN_POINT('',(-52.1473251338085,-1.85,-44.8666622811786));
#1679=CARTESIAN_POINT('',(-52.1473251338085,-1.85,-44.8666622811786));
#1680=CARTESIAN_POINT('',(-52.1473251338085,-1.85,-44.6428483431714));
#1681=CARTESIAN_POINT('',(-52.1859609961086,-1.85012960798536,-44.4159482869062));
#1682=CARTESIAN_POINT('',(-52.260033618735,-1.84958779801709,-44.2047478326797));
#1683=CARTESIAN_POINT('',(-52.3341076081619,-1.84904597805125,-43.993543481347));
#1684=CARTESIAN_POINT('',(-52.4456713943641,-1.84774607077231,-43.7922074094343));
#1685=CARTESIAN_POINT('',(-52.5854478329131,-1.8437702538244,-43.6174468085928));
#1686=CARTESIAN_POINT('',(-52.7251188326776,-1.83979743598929,-43.4428180364452));
#1687=CARTESIAN_POINT('',(-52.8968377176481,-1.83292946310001,-43.289904005962));
#1688=CARTESIAN_POINT('',(-53.0861567871406,-1.8213733790262,-43.1713977767339));
#1689=CARTESIAN_POINT('',(-53.2749220824408,-1.80985109746972,-43.0532381881878));
#1690=CARTESIAN_POINT('',(-53.4863721997581,-1.79324887133644,-42.9660344540434));
#1691=CARTESIAN_POINT('',(-53.7027317152616,-1.77129733979689,-42.916704155427));
#1692=CARTESIAN_POINT('',(-53.848388356278,-1.75651922226516,-42.8834942197323));
#1693=CARTESIAN_POINT('',(-53.9984712315262,-1.73914079275001,-42.8666622811786));
#1694=CARTESIAN_POINT('',(-54.1473251338085,-1.71965578738326,-42.8666622811786));
#1695=CARTESIAN_POINT('',(-54.1473251338085,0.,-44.8666622811786));
#1696=CARTESIAN_POINT('',(-52.1473251337852,-1.7,-39.1166622811786));
#1697=CARTESIAN_POINT('',(-52.1473251338085,-1.7,-46.9666622811786));
#1698=CARTESIAN_POINT('',(-52.1473251338085,0.,-46.9666622811786));
#1699=CARTESIAN_POINT('',(-52.1473251338085,-1.85,-46.9666622811786));
#1700=CARTESIAN_POINT('',(-52.1473251338085,-1.85,-39.1166622811786));
#1701=CARTESIAN_POINT('',(-52.1473251338085,0.,-46.9666622811786));
#1702=CARTESIAN_POINT('',(-36.1473251338405,-1.7,-46.9666622811786));
#1703=CARTESIAN_POINT('',(-36.1473251338085,-1.7,-46.9666622811786));
#1704=CARTESIAN_POINT('',(-36.1473251338085,0.,-46.9666622811786));
#1705=CARTESIAN_POINT('',(-36.1473251338085,-1.85,-46.9666622811786));
#1706=CARTESIAN_POINT('',(-44.1473251338085,-1.85,-46.9666622811786));
#1707=CARTESIAN_POINT('',(-36.1473251338085,0.,-46.9666622811786));
#1708=CARTESIAN_POINT('',(-36.1473251338725,-1.7,-39.1166622811786));
#1709=CARTESIAN_POINT('',(-36.1473251338085,-1.85,-39.1166622811786));
#1710=CARTESIAN_POINT('',(-36.1473251338085,0.,-38.4879666750539));
#1711=CARTESIAN_POINT('',(-30.4473251338085,-0.849942514651076,-39.1166622811786));
#1712=CARTESIAN_POINT('',(-32.9615586042291,-1.20521764295691,-39.1166622811786));
#1713=CARTESIAN_POINT('',(-30.6556579568802,-8.44968031900881,-39.1166622811786));
#1714=CARTESIAN_POINT('',(-30.4473251338085,-1.,-39.1166622811786));
#1715=CARTESIAN_POINT('',(-30.4473251338085,-1.,-39.1166622811786));
#1716=CARTESIAN_POINT('',(-32.9160629284421,-1.34815169587882,-39.1166622811786));
#1717=CARTESIAN_POINT('',(-30.6556579568802,-8.44968031900881,-39.1166622811786));
#1718=CARTESIAN_POINT('',(-36.1473251338085,-1.85,-39.1166622811786));
#1719=CARTESIAN_POINT('',(-36.1473251338085,8.80352525092599,-39.1166622811786));
#1720=CARTESIAN_POINT('',(-52.1473251338085,-1.85,-39.1166622811786));
#1721=CARTESIAN_POINT('',(-52.1473251338085,-1.85,-39.1166622811786));
#1722=CARTESIAN_POINT('',(-63.0938823678746,2.71411065949493,-39.1166622811786));
#1723=CARTESIAN_POINT('',(-52.1473251338085,13.5591598434607,-39.1166622811786));
#1724=CARTESIAN_POINT('',(-60.2645407574578,9.5,-39.1166622811786));
#1725=CARTESIAN_POINT('',(-60.2645407574578,5.51721562364934,-39.1166622811786));
#1726=CARTESIAN_POINT('',(-60.2645407574578,9.35,-39.1166622811786));
#1727=CARTESIAN_POINT('',(-60.2645407574578,9.35,-39.1166622811786));
#1728=CARTESIAN_POINT('',(-62.9873234378751,2.81968146245374,-39.1166622811786));
#1729=CARTESIAN_POINT('',(-60.2645407574578,5.51721562364934,-39.1166622811786));
#1730=CARTESIAN_POINT('',(-52.1473251337852,-1.7,-39.1166622811786));
#1731=CARTESIAN_POINT('',(-52.1473251338085,13.5591598434607,-39.1166622811786));
#1732=CARTESIAN_POINT('',(-36.1473251338725,-1.7,-39.1166622811786));
#1733=CARTESIAN_POINT('',(-36.1473251338725,-1.7,-39.1166622811786));
#1734=CARTESIAN_POINT('',(-36.1473251338085,8.80352525092599,-39.1166622811786));
#1735=CARTESIAN_POINT('',(-40.8855669238393,-1.85,-34.8078239926362));
#1736=CARTESIAN_POINT('',(-40.8855669238393,-1.85,-34.8078239926362));
#1737=CARTESIAN_POINT('',(-40.8855669238393,-1.85,-41.3078239926362));
#1738=CARTESIAN_POINT('',(-40.8855669238393,-1.85,-34.8078239926362));
#1739=CARTESIAN_POINT('',(-40.8855669238393,-2.85,-34.8078239926362));
#1740=CARTESIAN_POINT('',(-40.8855669238393,-2.85,-34.8078239926362));
#1741=CARTESIAN_POINT('',(-40.8855669238393,-2.85,-41.3078239926362));
#1742=CARTESIAN_POINT('',(-40.8855669238393,-1.85,-41.3078239926362));
#1743=CARTESIAN_POINT('',(-40.8855669238393,-1.85,-41.3078239926362));
#1744=CARTESIAN_POINT('',(-40.8855669238393,-1.85,-41.3078239926362));
#1745=CARTESIAN_POINT('',(-47.3855669238393,-1.85,-41.3078239926362));
#1746=CARTESIAN_POINT('',(-40.8855669238393,-2.85,-41.3078239926362));
#1747=CARTESIAN_POINT('',(-47.3855669238393,-2.85,-41.3078239926362));
#1748=CARTESIAN_POINT('',(-47.3855669238393,-1.85,-41.3078239926362));
#1749=CARTESIAN_POINT('',(-47.3855669238393,-1.85,-41.3078239926362));
#1750=CARTESIAN_POINT('',(-47.3855669238393,-1.85,-41.3078239926362));
#1751=CARTESIAN_POINT('',(-47.3855669238393,-1.85,-34.8078239926362));
#1752=CARTESIAN_POINT('',(-47.3855669238393,-2.85,-41.3078239926362));
#1753=CARTESIAN_POINT('',(-47.3855669238393,-2.85,-34.8078239926362));
#1754=CARTESIAN_POINT('',(-47.3855669238393,-1.85,-34.8078239926362));
#1755=CARTESIAN_POINT('',(-47.3855669238393,-1.85,-34.8078239926362));
#1756=CARTESIAN_POINT('',(-47.3855669238393,-1.85,-34.8078239926362));
#1757=CARTESIAN_POINT('',(-47.3855669238393,-2.85,-34.8078239926362));
#1758=CARTESIAN_POINT('',(-40.8855669238393,-1.85,-34.8078239926362));
#1759=CARTESIAN_POINT('',(-44.1355669238393,-1.85,-38.0578239926362));
#1760=CARTESIAN_POINT('',(-44.1355669238393,-2.85,-38.0578239926362));
#1761=MECHANICAL_DESIGN_GEOMETRIC_PRESENTATION_REPRESENTATION('',(#117,
#118,#119,#93,#94,#95,#96,#97,#98,#99,#100,#101,#102,#103,#104,#105,#120),
#1762);
#1762=(
GEOMETRIC_REPRESENTATION_CONTEXT(3)
GLOBAL_UNCERTAINTY_ASSIGNED_CONTEXT((#1763))
GLOBAL_UNIT_ASSIGNED_CONTEXT((#1769,#1765,#1764))
REPRESENTATION_CONTEXT('RasPi Cables','TOP_LEVEL_ASSEMBLY_PART')
);
#1763=UNCERTAINTY_MEASURE_WITH_UNIT(LENGTH_MEASURE(0.0508),#1769,
'DISTANCE_ACCURACY_VALUE','Maximum Tolerance applied to model');
#1764=(
NAMED_UNIT(*)
SI_UNIT($,.STERADIAN.)
SOLID_ANGLE_UNIT()
);
#1765=(
CONVERSION_BASED_UNIT('DEGREE',#1767)
NAMED_UNIT(#1766)
PLANE_ANGLE_UNIT()
);
#1766=DIMENSIONAL_EXPONENTS(0.,0.,0.,0.,0.,0.,0.);
#1767=PLANE_ANGLE_MEASURE_WITH_UNIT(PLANE_ANGLE_MEASURE(0.0174532925),#1768);
#1768=(
NAMED_UNIT(*)
PLANE_ANGLE_UNIT()
SI_UNIT($,.RADIAN.)
);
#1769=(
LENGTH_UNIT()
NAMED_UNIT(*)
SI_UNIT(.MILLI.,.METRE.)
);
ENDSEC;
END-ISO-10303-21;
