ISO-10303-21;
HEADER;
/* Generated by software containing ST-Developer
 * from STEP Tools, Inc. (www.steptools.com) 
 */
/* OPTION: using custom schema-name function */

FILE_DESCRIPTION(
/* description */ (''),
/* implementation_level */ '2;1');

FILE_NAME(
/* name */ 'Collector Housing Plate Back 2 v1.2.stp',
/* time_stamp */ '2021-05-19T12:36:29+02:00',
/* author */ (''),
/* organization */ (''),
/* preprocessor_version */ 'ST-DEVELOPER v16.7',
/* originating_system */ 'SIEMENS PLM Software NX 12.0',
/* authorisation */ '');

FILE_SCHEMA (('AUTOMOTIVE_DESIGN { 1 0 10303 214 3 1 1 1 }'));
ENDSEC;

DATA;
#10=SHAPE_REPRESENTATION_RELATIONSHIP('None',
'relationship between Collector Housing Plate Back 2 v1.2-None and Col
lector Housing Plate Back 2 v1.2-None',#22,#11);
#11=ADVANCED_BREP_SHAPE_REPRESENTATION(
'Collector Housing Plate Back 2 v1.2-None',(#32),#595);
#12=SHAPE_DEFINITION_REPRESENTATION(#13,#22);
#13=PRODUCT_DEFINITION_SHAPE('','',#14);
#14=PRODUCT_DEFINITION(' ','',#16,#15);
#15=PRODUCT_DEFINITION_CONTEXT('part definition',#21,'design');
#16=PRODUCT_DEFINITION_FORMATION_WITH_SPECIFIED_SOURCE(' ',' ',#18,
 .NOT_KNOWN.);
#17=PRODUCT_RELATED_PRODUCT_CATEGORY('part','',(#18));
#18=PRODUCT('Collector Housing Plate Back 2 v1.2',
'Collector Housing Plate Back 2 v1.2',' ',(#19));
#19=PRODUCT_CONTEXT(' ',#21,'mechanical');
#20=APPLICATION_PROTOCOL_DEFINITION('international standard',
'automotive_design',2010,#21);
#21=APPLICATION_CONTEXT(
'core data for automotive mechanical design processes');
#22=SHAPE_REPRESENTATION('Collector Housing Plate Back 2 v1.2-None',(#366),
#595);
#23=PRESENTATION_LAYER_ASSIGNMENT('1','Layer 1',(#32));
#24=STYLED_ITEM('',(#25),#32);
#25=PRESENTATION_STYLE_ASSIGNMENT((#26));
#26=SURFACE_STYLE_USAGE(.BOTH.,#27);
#27=SURFACE_SIDE_STYLE('',(#28));
#28=SURFACE_STYLE_FILL_AREA(#29);
#29=FILL_AREA_STYLE('',(#30));
#30=FILL_AREA_STYLE_COLOUR('',#31);
#31=COLOUR_RGB('Medium Gray',0.490196078431373,0.490196078431373,0.490196078431373);
#32=MANIFOLD_SOLID_BREP('',#33);
#33=CLOSED_SHELL('',(#120,#121,#122,#123,#124,#125,#126,#127,#128,#129,
#130,#131,#132,#133,#134,#135,#136,#137));
#34=CYLINDRICAL_SURFACE('',#397,2.5);
#35=CYLINDRICAL_SURFACE('',#398,2.49999999999994);
#36=CYLINDRICAL_SURFACE('',#399,2.49999999999994);
#37=CYLINDRICAL_SURFACE('',#400,2.5);
#38=CYLINDRICAL_SURFACE('',#401,2.5);
#39=CYLINDRICAL_SURFACE('',#402,2.5);
#40=CYLINDRICAL_SURFACE('',#403,2.5);
#41=CYLINDRICAL_SURFACE('',#404,2.5);
#42=CYLINDRICAL_SURFACE('',#405,2.5);
#43=CYLINDRICAL_SURFACE('',#406,2.5);
#44=CYLINDRICAL_SURFACE('',#407,2.5);
#45=CYLINDRICAL_SURFACE('',#408,2.5);
#46=FACE_BOUND('',#152,.T.);
#47=FACE_BOUND('',#153,.T.);
#48=FACE_BOUND('',#154,.T.);
#49=FACE_BOUND('',#155,.T.);
#50=FACE_BOUND('',#156,.T.);
#51=FACE_BOUND('',#157,.T.);
#52=FACE_BOUND('',#158,.T.);
#53=FACE_BOUND('',#159,.T.);
#54=FACE_BOUND('',#160,.T.);
#55=FACE_BOUND('',#161,.T.);
#56=FACE_BOUND('',#162,.T.);
#57=FACE_BOUND('',#163,.T.);
#58=FACE_BOUND('',#164,.T.);
#59=FACE_BOUND('',#165,.T.);
#60=FACE_BOUND('',#166,.T.);
#61=FACE_BOUND('',#167,.T.);
#62=FACE_BOUND('',#168,.T.);
#63=FACE_BOUND('',#169,.T.);
#64=FACE_BOUND('',#170,.T.);
#65=FACE_BOUND('',#171,.T.);
#66=FACE_BOUND('',#172,.T.);
#67=FACE_BOUND('',#173,.T.);
#68=FACE_BOUND('',#174,.T.);
#69=FACE_BOUND('',#175,.T.);
#70=FACE_BOUND('',#176,.T.);
#71=FACE_BOUND('',#177,.T.);
#72=FACE_BOUND('',#178,.T.);
#73=FACE_BOUND('',#179,.T.);
#74=FACE_BOUND('',#180,.T.);
#75=FACE_BOUND('',#181,.T.);
#76=FACE_BOUND('',#182,.T.);
#77=FACE_BOUND('',#183,.T.);
#78=FACE_BOUND('',#184,.T.);
#79=FACE_BOUND('',#185,.T.);
#80=FACE_BOUND('',#186,.T.);
#81=FACE_BOUND('',#187,.T.);
#82=FACE_BOUND('',#188,.T.);
#83=FACE_BOUND('',#189,.T.);
#84=FACE_BOUND('',#190,.T.);
#85=FACE_BOUND('',#191,.T.);
#86=FACE_BOUND('',#192,.T.);
#87=FACE_BOUND('',#193,.T.);
#88=FACE_BOUND('',#194,.T.);
#89=FACE_BOUND('',#195,.T.);
#90=FACE_BOUND('',#196,.T.);
#91=FACE_BOUND('',#197,.T.);
#92=FACE_BOUND('',#198,.T.);
#93=FACE_BOUND('',#199,.T.);
#94=FACE_BOUND('',#200,.T.);
#95=FACE_BOUND('',#201,.T.);
#96=CIRCLE('',#371,2.5);
#97=CIRCLE('',#372,2.5);
#98=CIRCLE('',#373,2.5);
#99=CIRCLE('',#374,2.5);
#100=CIRCLE('',#375,2.5);
#101=CIRCLE('',#376,2.5);
#102=CIRCLE('',#377,2.5);
#103=CIRCLE('',#378,2.5);
#104=CIRCLE('',#379,2.5);
#105=CIRCLE('',#380,2.49999999999994);
#106=CIRCLE('',#381,2.49999999999994);
#107=CIRCLE('',#382,2.5);
#108=CIRCLE('',#384,2.5);
#109=CIRCLE('',#385,2.5);
#110=CIRCLE('',#386,2.5);
#111=CIRCLE('',#387,2.5);
#112=CIRCLE('',#388,2.5);
#113=CIRCLE('',#389,2.5);
#114=CIRCLE('',#390,2.5);
#115=CIRCLE('',#391,2.5);
#116=CIRCLE('',#392,2.5);
#117=CIRCLE('',#393,2.49999999999994);
#118=CIRCLE('',#394,2.49999999999994);
#119=CIRCLE('',#395,2.5);
#120=ADVANCED_FACE('',(#144),#138,.T.);
#121=ADVANCED_FACE('',(#145),#139,.T.);
#122=ADVANCED_FACE('',(#146),#140,.T.);
#123=ADVANCED_FACE('',(#147),#141,.T.);
#124=ADVANCED_FACE('',(#46,#47,#48,#49,#50,#51,#52,#53,#54,#55,#56,#57,
#58),#142,.F.);
#125=ADVANCED_FACE('',(#59,#60,#61,#62,#63,#64,#65,#66,#67,#68,#69,#70,
#71),#143,.T.);
#126=ADVANCED_FACE('',(#72,#73),#34,.F.);
#127=ADVANCED_FACE('',(#74,#75),#35,.F.);
#128=ADVANCED_FACE('',(#76,#77),#36,.F.);
#129=ADVANCED_FACE('',(#78,#79),#37,.F.);
#130=ADVANCED_FACE('',(#80,#81),#38,.F.);
#131=ADVANCED_FACE('',(#82,#83),#39,.F.);
#132=ADVANCED_FACE('',(#84,#85),#40,.F.);
#133=ADVANCED_FACE('',(#86,#87),#41,.F.);
#134=ADVANCED_FACE('',(#88,#89),#42,.F.);
#135=ADVANCED_FACE('',(#90,#91),#43,.F.);
#136=ADVANCED_FACE('',(#92,#93),#44,.F.);
#137=ADVANCED_FACE('',(#94,#95),#45,.F.);
#138=PLANE('',#367);
#139=PLANE('',#368);
#140=PLANE('',#369);
#141=PLANE('',#370);
#142=PLANE('',#383);
#143=PLANE('',#396);
#144=FACE_OUTER_BOUND('',#148,.T.);
#145=FACE_OUTER_BOUND('',#149,.T.);
#146=FACE_OUTER_BOUND('',#150,.T.);
#147=FACE_OUTER_BOUND('',#151,.T.);
#148=EDGE_LOOP('',(#202,#203,#204,#205));
#149=EDGE_LOOP('',(#206,#207,#208,#209));
#150=EDGE_LOOP('',(#210,#211,#212,#213));
#151=EDGE_LOOP('',(#214,#215,#216,#217));
#152=EDGE_LOOP('',(#218));
#153=EDGE_LOOP('',(#219));
#154=EDGE_LOOP('',(#220));
#155=EDGE_LOOP('',(#221));
#156=EDGE_LOOP('',(#222));
#157=EDGE_LOOP('',(#223));
#158=EDGE_LOOP('',(#224));
#159=EDGE_LOOP('',(#225));
#160=EDGE_LOOP('',(#226));
#161=EDGE_LOOP('',(#227));
#162=EDGE_LOOP('',(#228));
#163=EDGE_LOOP('',(#229));
#164=EDGE_LOOP('',(#230,#231,#232,#233));
#165=EDGE_LOOP('',(#234));
#166=EDGE_LOOP('',(#235));
#167=EDGE_LOOP('',(#236));
#168=EDGE_LOOP('',(#237));
#169=EDGE_LOOP('',(#238));
#170=EDGE_LOOP('',(#239));
#171=EDGE_LOOP('',(#240));
#172=EDGE_LOOP('',(#241));
#173=EDGE_LOOP('',(#242));
#174=EDGE_LOOP('',(#243));
#175=EDGE_LOOP('',(#244));
#176=EDGE_LOOP('',(#245));
#177=EDGE_LOOP('',(#246,#247,#248,#249));
#178=EDGE_LOOP('',(#250));
#179=EDGE_LOOP('',(#251));
#180=EDGE_LOOP('',(#252));
#181=EDGE_LOOP('',(#253));
#182=EDGE_LOOP('',(#254));
#183=EDGE_LOOP('',(#255));
#184=EDGE_LOOP('',(#256));
#185=EDGE_LOOP('',(#257));
#186=EDGE_LOOP('',(#258));
#187=EDGE_LOOP('',(#259));
#188=EDGE_LOOP('',(#260));
#189=EDGE_LOOP('',(#261));
#190=EDGE_LOOP('',(#262));
#191=EDGE_LOOP('',(#263));
#192=EDGE_LOOP('',(#264));
#193=EDGE_LOOP('',(#265));
#194=EDGE_LOOP('',(#266));
#195=EDGE_LOOP('',(#267));
#196=EDGE_LOOP('',(#268));
#197=EDGE_LOOP('',(#269));
#198=EDGE_LOOP('',(#270));
#199=EDGE_LOOP('',(#271));
#200=EDGE_LOOP('',(#272));
#201=EDGE_LOOP('',(#273));
#202=ORIENTED_EDGE('',*,*,#306,.F.);
#203=ORIENTED_EDGE('',*,*,#307,.F.);
#204=ORIENTED_EDGE('',*,*,#308,.T.);
#205=ORIENTED_EDGE('',*,*,#309,.T.);
#206=ORIENTED_EDGE('',*,*,#310,.F.);
#207=ORIENTED_EDGE('',*,*,#309,.F.);
#208=ORIENTED_EDGE('',*,*,#311,.T.);
#209=ORIENTED_EDGE('',*,*,#312,.T.);
#210=ORIENTED_EDGE('',*,*,#313,.F.);
#211=ORIENTED_EDGE('',*,*,#312,.F.);
#212=ORIENTED_EDGE('',*,*,#314,.T.);
#213=ORIENTED_EDGE('',*,*,#315,.T.);
#214=ORIENTED_EDGE('',*,*,#316,.F.);
#215=ORIENTED_EDGE('',*,*,#315,.F.);
#216=ORIENTED_EDGE('',*,*,#317,.T.);
#217=ORIENTED_EDGE('',*,*,#307,.T.);
#218=ORIENTED_EDGE('',*,*,#318,.F.);
#219=ORIENTED_EDGE('',*,*,#319,.F.);
#220=ORIENTED_EDGE('',*,*,#320,.F.);
#221=ORIENTED_EDGE('',*,*,#321,.F.);
#222=ORIENTED_EDGE('',*,*,#322,.F.);
#223=ORIENTED_EDGE('',*,*,#323,.F.);
#224=ORIENTED_EDGE('',*,*,#324,.F.);
#225=ORIENTED_EDGE('',*,*,#325,.F.);
#226=ORIENTED_EDGE('',*,*,#326,.F.);
#227=ORIENTED_EDGE('',*,*,#327,.F.);
#228=ORIENTED_EDGE('',*,*,#328,.F.);
#229=ORIENTED_EDGE('',*,*,#329,.F.);
#230=ORIENTED_EDGE('',*,*,#308,.F.);
#231=ORIENTED_EDGE('',*,*,#317,.F.);
#232=ORIENTED_EDGE('',*,*,#314,.F.);
#233=ORIENTED_EDGE('',*,*,#311,.F.);
#234=ORIENTED_EDGE('',*,*,#330,.F.);
#235=ORIENTED_EDGE('',*,*,#331,.F.);
#236=ORIENTED_EDGE('',*,*,#332,.F.);
#237=ORIENTED_EDGE('',*,*,#333,.F.);
#238=ORIENTED_EDGE('',*,*,#334,.F.);
#239=ORIENTED_EDGE('',*,*,#335,.F.);
#240=ORIENTED_EDGE('',*,*,#336,.F.);
#241=ORIENTED_EDGE('',*,*,#337,.F.);
#242=ORIENTED_EDGE('',*,*,#338,.T.);
#243=ORIENTED_EDGE('',*,*,#339,.T.);
#244=ORIENTED_EDGE('',*,*,#340,.T.);
#245=ORIENTED_EDGE('',*,*,#341,.T.);
#246=ORIENTED_EDGE('',*,*,#306,.T.);
#247=ORIENTED_EDGE('',*,*,#310,.T.);
#248=ORIENTED_EDGE('',*,*,#313,.T.);
#249=ORIENTED_EDGE('',*,*,#316,.T.);
#250=ORIENTED_EDGE('',*,*,#329,.T.);
#251=ORIENTED_EDGE('',*,*,#341,.F.);
#252=ORIENTED_EDGE('',*,*,#328,.T.);
#253=ORIENTED_EDGE('',*,*,#340,.F.);
#254=ORIENTED_EDGE('',*,*,#327,.T.);
#255=ORIENTED_EDGE('',*,*,#339,.F.);
#256=ORIENTED_EDGE('',*,*,#326,.T.);
#257=ORIENTED_EDGE('',*,*,#338,.F.);
#258=ORIENTED_EDGE('',*,*,#337,.T.);
#259=ORIENTED_EDGE('',*,*,#325,.T.);
#260=ORIENTED_EDGE('',*,*,#336,.T.);
#261=ORIENTED_EDGE('',*,*,#324,.T.);
#262=ORIENTED_EDGE('',*,*,#335,.T.);
#263=ORIENTED_EDGE('',*,*,#323,.T.);
#264=ORIENTED_EDGE('',*,*,#334,.T.);
#265=ORIENTED_EDGE('',*,*,#322,.T.);
#266=ORIENTED_EDGE('',*,*,#333,.T.);
#267=ORIENTED_EDGE('',*,*,#321,.T.);
#268=ORIENTED_EDGE('',*,*,#332,.T.);
#269=ORIENTED_EDGE('',*,*,#320,.T.);
#270=ORIENTED_EDGE('',*,*,#331,.T.);
#271=ORIENTED_EDGE('',*,*,#319,.T.);
#272=ORIENTED_EDGE('',*,*,#330,.T.);
#273=ORIENTED_EDGE('',*,*,#318,.T.);
#274=VERTEX_POINT('',#509);
#275=VERTEX_POINT('',#510);
#276=VERTEX_POINT('',#512);
#277=VERTEX_POINT('',#514);
#278=VERTEX_POINT('',#518);
#279=VERTEX_POINT('',#520);
#280=VERTEX_POINT('',#524);
#281=VERTEX_POINT('',#526);
#282=VERTEX_POINT('',#533);
#283=VERTEX_POINT('',#535);
#284=VERTEX_POINT('',#537);
#285=VERTEX_POINT('',#539);
#286=VERTEX_POINT('',#541);
#287=VERTEX_POINT('',#543);
#288=VERTEX_POINT('',#545);
#289=VERTEX_POINT('',#547);
#290=VERTEX_POINT('',#549);
#291=VERTEX_POINT('',#551);
#292=VERTEX_POINT('',#553);
#293=VERTEX_POINT('',#555);
#294=VERTEX_POINT('',#558);
#295=VERTEX_POINT('',#560);
#296=VERTEX_POINT('',#562);
#297=VERTEX_POINT('',#564);
#298=VERTEX_POINT('',#566);
#299=VERTEX_POINT('',#568);
#300=VERTEX_POINT('',#570);
#301=VERTEX_POINT('',#572);
#302=VERTEX_POINT('',#574);
#303=VERTEX_POINT('',#576);
#304=VERTEX_POINT('',#578);
#305=VERTEX_POINT('',#580);
#306=EDGE_CURVE('',#274,#275,#342,.T.);
#307=EDGE_CURVE('',#276,#274,#343,.T.);
#308=EDGE_CURVE('',#276,#277,#344,.T.);
#309=EDGE_CURVE('',#277,#275,#345,.T.);
#310=EDGE_CURVE('',#275,#278,#346,.T.);
#311=EDGE_CURVE('',#277,#279,#347,.T.);
#312=EDGE_CURVE('',#279,#278,#348,.T.);
#313=EDGE_CURVE('',#278,#280,#349,.T.);
#314=EDGE_CURVE('',#279,#281,#350,.T.);
#315=EDGE_CURVE('',#281,#280,#351,.T.);
#316=EDGE_CURVE('',#280,#274,#352,.T.);
#317=EDGE_CURVE('',#281,#276,#353,.T.);
#318=EDGE_CURVE('',#282,#282,#96,.T.);
#319=EDGE_CURVE('',#283,#283,#97,.T.);
#320=EDGE_CURVE('',#284,#284,#98,.T.);
#321=EDGE_CURVE('',#285,#285,#99,.T.);
#322=EDGE_CURVE('',#286,#286,#100,.T.);
#323=EDGE_CURVE('',#287,#287,#101,.T.);
#324=EDGE_CURVE('',#288,#288,#102,.T.);
#325=EDGE_CURVE('',#289,#289,#103,.T.);
#326=EDGE_CURVE('',#290,#290,#104,.T.);
#327=EDGE_CURVE('',#291,#291,#105,.T.);
#328=EDGE_CURVE('',#292,#292,#106,.T.);
#329=EDGE_CURVE('',#293,#293,#107,.T.);
#330=EDGE_CURVE('',#294,#294,#108,.T.);
#331=EDGE_CURVE('',#295,#295,#109,.T.);
#332=EDGE_CURVE('',#296,#296,#110,.T.);
#333=EDGE_CURVE('',#297,#297,#111,.T.);
#334=EDGE_CURVE('',#298,#298,#112,.T.);
#335=EDGE_CURVE('',#299,#299,#113,.T.);
#336=EDGE_CURVE('',#300,#300,#114,.T.);
#337=EDGE_CURVE('',#301,#301,#115,.T.);
#338=EDGE_CURVE('',#302,#302,#116,.T.);
#339=EDGE_CURVE('',#303,#303,#117,.T.);
#340=EDGE_CURVE('',#304,#304,#118,.T.);
#341=EDGE_CURVE('',#305,#305,#119,.T.);
#342=LINE('',#508,#354);
#343=LINE('',#511,#355);
#344=LINE('',#513,#356);
#345=LINE('',#515,#357);
#346=LINE('',#517,#358);
#347=LINE('',#519,#359);
#348=LINE('',#521,#360);
#349=LINE('',#523,#361);
#350=LINE('',#525,#362);
#351=LINE('',#527,#363);
#352=LINE('',#529,#364);
#353=LINE('',#530,#365);
#354=VECTOR('',#411,1.);
#355=VECTOR('',#412,1.);
#356=VECTOR('',#413,1.);
#357=VECTOR('',#414,1.);
#358=VECTOR('',#417,1.);
#359=VECTOR('',#418,1.);
#360=VECTOR('',#419,1.);
#361=VECTOR('',#422,1.);
#362=VECTOR('',#423,1.);
#363=VECTOR('',#424,1.);
#364=VECTOR('',#427,1.);
#365=VECTOR('',#428,1.);
#366=AXIS2_PLACEMENT_3D('',#507,#409,#410);
#367=AXIS2_PLACEMENT_3D('',#516,#415,#416);
#368=AXIS2_PLACEMENT_3D('',#522,#420,#421);
#369=AXIS2_PLACEMENT_3D('',#528,#425,#426);
#370=AXIS2_PLACEMENT_3D('',#531,#429,#430);
#371=AXIS2_PLACEMENT_3D('',#532,#431,#432);
#372=AXIS2_PLACEMENT_3D('',#534,#433,#434);
#373=AXIS2_PLACEMENT_3D('',#536,#435,#436);
#374=AXIS2_PLACEMENT_3D('',#538,#437,#438);
#375=AXIS2_PLACEMENT_3D('',#540,#439,#440);
#376=AXIS2_PLACEMENT_3D('',#542,#441,#442);
#377=AXIS2_PLACEMENT_3D('',#544,#443,#444);
#378=AXIS2_PLACEMENT_3D('',#546,#445,#446);
#379=AXIS2_PLACEMENT_3D('',#548,#447,#448);
#380=AXIS2_PLACEMENT_3D('',#550,#449,#450);
#381=AXIS2_PLACEMENT_3D('',#552,#451,#452);
#382=AXIS2_PLACEMENT_3D('',#554,#453,#454);
#383=AXIS2_PLACEMENT_3D('',#556,#455,#456);
#384=AXIS2_PLACEMENT_3D('',#557,#457,#458);
#385=AXIS2_PLACEMENT_3D('',#559,#459,#460);
#386=AXIS2_PLACEMENT_3D('',#561,#461,#462);
#387=AXIS2_PLACEMENT_3D('',#563,#463,#464);
#388=AXIS2_PLACEMENT_3D('',#565,#465,#466);
#389=AXIS2_PLACEMENT_3D('',#567,#467,#468);
#390=AXIS2_PLACEMENT_3D('',#569,#469,#470);
#391=AXIS2_PLACEMENT_3D('',#571,#471,#472);
#392=AXIS2_PLACEMENT_3D('',#573,#473,#474);
#393=AXIS2_PLACEMENT_3D('',#575,#475,#476);
#394=AXIS2_PLACEMENT_3D('',#577,#477,#478);
#395=AXIS2_PLACEMENT_3D('',#579,#479,#480);
#396=AXIS2_PLACEMENT_3D('',#581,#481,#482);
#397=AXIS2_PLACEMENT_3D('',#582,#483,#484);
#398=AXIS2_PLACEMENT_3D('',#583,#485,#486);
#399=AXIS2_PLACEMENT_3D('',#584,#487,#488);
#400=AXIS2_PLACEMENT_3D('',#585,#489,#490);
#401=AXIS2_PLACEMENT_3D('',#586,#491,#492);
#402=AXIS2_PLACEMENT_3D('',#587,#493,#494);
#403=AXIS2_PLACEMENT_3D('',#588,#495,#496);
#404=AXIS2_PLACEMENT_3D('',#589,#497,#498);
#405=AXIS2_PLACEMENT_3D('',#590,#499,#500);
#406=AXIS2_PLACEMENT_3D('',#591,#501,#502);
#407=AXIS2_PLACEMENT_3D('',#592,#503,#504);
#408=AXIS2_PLACEMENT_3D('',#593,#505,#506);
#409=DIRECTION('',(0.,0.,1.));
#410=DIRECTION('',(1.,0.,0.));
#411=DIRECTION('',(1.,1.5681116167022E-16,0.));
#412=DIRECTION('',(0.,0.,-1.));
#413=DIRECTION('',(1.,1.5681116167022E-16,0.));
#414=DIRECTION('',(0.,0.,-1.));
#415=DIRECTION('',(-1.5681116167022E-16,1.,0.));
#416=DIRECTION('',(-1.,-1.66533453693773E-16,0.));
#417=DIRECTION('',(0.,-1.,0.));
#418=DIRECTION('',(0.,-1.,0.));
#419=DIRECTION('',(0.,0.,-1.));
#420=DIRECTION('',(1.,0.,0.));
#421=DIRECTION('',(0.,0.,-1.));
#422=DIRECTION('',(-1.,0.,0.));
#423=DIRECTION('',(-1.,0.,0.));
#424=DIRECTION('',(0.,0.,-1.));
#425=DIRECTION('',(0.,-1.,0.));
#426=DIRECTION('',(0.,0.,-1.));
#427=DIRECTION('',(-2.97657208126093E-17,1.,0.));
#428=DIRECTION('',(-2.97657208126093E-17,1.,0.));
#429=DIRECTION('',(-1.,-2.97657208126093E-17,0.));
#430=DIRECTION('',(2.97657208126093E-17,-1.,0.));
#431=DIRECTION('',(0.,0.,1.));
#432=DIRECTION('',(1.,0.,0.));
#433=DIRECTION('',(0.,0.,1.));
#434=DIRECTION('',(0.999999999999979,0.,0.));
#435=DIRECTION('',(0.,0.,1.));
#436=DIRECTION('',(0.999999999999979,0.,0.));
#437=DIRECTION('',(0.,0.,1.));
#438=DIRECTION('',(0.999999999999979,0.,0.));
#439=DIRECTION('',(0.,0.,1.));
#440=DIRECTION('',(1.,0.,0.));
#441=DIRECTION('',(0.,0.,1.));
#442=DIRECTION('',(1.,0.,0.));
#443=DIRECTION('',(0.,0.,1.));
#444=DIRECTION('',(1.,0.,0.));
#445=DIRECTION('',(0.,0.,1.));
#446=DIRECTION('',(0.999999999999979,0.,0.));
#447=DIRECTION('',(0.,0.,1.));
#448=DIRECTION('',(1.,0.,0.));
#449=DIRECTION('',(0.,0.,1.));
#450=DIRECTION('',(1.,0.,0.));
#451=DIRECTION('',(0.,0.,1.));
#452=DIRECTION('',(1.,0.,0.));
#453=DIRECTION('',(0.,0.,1.));
#454=DIRECTION('',(1.,0.,0.));
#455=DIRECTION('',(0.,0.,-1.));
#456=DIRECTION('',(-1.,0.,0.));
#457=DIRECTION('',(0.,0.,-1.));
#458=DIRECTION('',(-1.,0.,0.));
#459=DIRECTION('',(0.,0.,-1.));
#460=DIRECTION('',(-0.999999999999979,0.,0.));
#461=DIRECTION('',(0.,0.,-1.));
#462=DIRECTION('',(-0.999999999999979,0.,0.));
#463=DIRECTION('',(0.,0.,-1.));
#464=DIRECTION('',(-0.999999999999979,0.,0.));
#465=DIRECTION('',(0.,0.,-1.));
#466=DIRECTION('',(-1.,0.,0.));
#467=DIRECTION('',(0.,0.,-1.));
#468=DIRECTION('',(-1.,0.,0.));
#469=DIRECTION('',(0.,0.,-1.));
#470=DIRECTION('',(-1.,0.,0.));
#471=DIRECTION('',(0.,0.,-1.));
#472=DIRECTION('',(-0.999999999999979,0.,0.));
#473=DIRECTION('',(0.,0.,1.));
#474=DIRECTION('',(1.,0.,0.));
#475=DIRECTION('',(0.,0.,1.));
#476=DIRECTION('',(1.,0.,0.));
#477=DIRECTION('',(0.,0.,1.));
#478=DIRECTION('',(1.,0.,0.));
#479=DIRECTION('',(0.,0.,1.));
#480=DIRECTION('',(1.,0.,0.));
#481=DIRECTION('',(0.,0.,-1.));
#482=DIRECTION('',(-1.,0.,0.));
#483=DIRECTION('',(0.,0.,-1.));
#484=DIRECTION('',(-1.,0.,0.));
#485=DIRECTION('',(0.,0.,-1.));
#486=DIRECTION('',(-1.,0.,0.));
#487=DIRECTION('',(0.,0.,-1.));
#488=DIRECTION('',(-1.,0.,0.));
#489=DIRECTION('',(0.,0.,-1.));
#490=DIRECTION('',(-1.,0.,0.));
#491=DIRECTION('',(0.,0.,1.));
#492=DIRECTION('',(0.999999999999979,0.,0.));
#493=DIRECTION('',(0.,0.,1.));
#494=DIRECTION('',(1.,0.,0.));
#495=DIRECTION('',(0.,0.,1.));
#496=DIRECTION('',(1.,0.,0.));
#497=DIRECTION('',(0.,0.,1.));
#498=DIRECTION('',(1.,0.,0.));
#499=DIRECTION('',(0.,0.,1.));
#500=DIRECTION('',(0.999999999999979,0.,0.));
#501=DIRECTION('',(0.,0.,1.));
#502=DIRECTION('',(0.999999999999979,0.,0.));
#503=DIRECTION('',(0.,0.,1.));
#504=DIRECTION('',(0.999999999999979,0.,0.));
#505=DIRECTION('',(0.,0.,1.));
#506=DIRECTION('',(1.,0.,0.));
#507=CARTESIAN_POINT('',(0.,0.,0.));
#508=CARTESIAN_POINT('',(0.,180.,0.));
#509=CARTESIAN_POINT('',(0.,180.,0.));
#510=CARTESIAN_POINT('',(708.,180.,0.));
#511=CARTESIAN_POINT('',(0.,180.,5.));
#512=CARTESIAN_POINT('',(0.,180.,5.));
#513=CARTESIAN_POINT('',(0.,180.,5.));
#514=CARTESIAN_POINT('',(708.,180.,5.));
#515=CARTESIAN_POINT('',(708.,180.,5.));
#516=CARTESIAN_POINT('',(0.,180.,5.));
#517=CARTESIAN_POINT('',(708.,180.,0.));
#518=CARTESIAN_POINT('',(708.,0.,0.));
#519=CARTESIAN_POINT('',(708.,180.,5.));
#520=CARTESIAN_POINT('',(708.,0.,5.));
#521=CARTESIAN_POINT('',(708.,0.,5.));
#522=CARTESIAN_POINT('',(708.,180.,5.));
#523=CARTESIAN_POINT('',(708.,0.,0.));
#524=CARTESIAN_POINT('',(0.,0.,0.));
#525=CARTESIAN_POINT('',(708.,0.,5.));
#526=CARTESIAN_POINT('',(0.,0.,5.));
#527=CARTESIAN_POINT('',(0.,0.,5.));
#528=CARTESIAN_POINT('',(708.,0.,5.));
#529=CARTESIAN_POINT('',(0.,0.,0.));
#530=CARTESIAN_POINT('',(0.,0.,5.));
#531=CARTESIAN_POINT('',(0.,0.,5.));
#532=CARTESIAN_POINT('',(172.,59.4999999999999,5.));
#533=CARTESIAN_POINT('',(174.5,59.4999999999999,5.));
#534=CARTESIAN_POINT('',(536.,39.5,5.));
#535=CARTESIAN_POINT('',(538.5,39.5,5.));
#536=CARTESIAN_POINT('',(536.,59.5,5.));
#537=CARTESIAN_POINT('',(538.5,59.5,5.));
#538=CARTESIAN_POINT('',(590.,39.5000000000001,5.));
#539=CARTESIAN_POINT('',(592.5,39.5000000000001,5.));
#540=CARTESIAN_POINT('',(118.,39.4999999999999,5.));
#541=CARTESIAN_POINT('',(120.5,39.4999999999999,5.));
#542=CARTESIAN_POINT('',(118.,59.4999999999999,5.));
#543=CARTESIAN_POINT('',(120.5,59.4999999999999,5.));
#544=CARTESIAN_POINT('',(172.,39.4999999999999,5.));
#545=CARTESIAN_POINT('',(174.5,39.4999999999999,5.));
#546=CARTESIAN_POINT('',(590.,59.5000000000001,5.));
#547=CARTESIAN_POINT('',(592.5,59.5000000000001,5.));
#548=CARTESIAN_POINT('',(358.,140.,5.));
#549=CARTESIAN_POINT('',(360.5,140.,5.));
#550=CARTESIAN_POINT('',(318.,170.,5.));
#551=CARTESIAN_POINT('',(320.5,170.,5.));
#552=CARTESIAN_POINT('',(318.,140.,5.));
#553=CARTESIAN_POINT('',(320.5,140.,5.));
#554=CARTESIAN_POINT('',(358.,170.,5.));
#555=CARTESIAN_POINT('',(360.5,170.,5.));
#556=CARTESIAN_POINT('',(0.,0.,5.));
#557=CARTESIAN_POINT('',(172.,59.4999999999999,0.));
#558=CARTESIAN_POINT('',(169.5,59.4999999999999,0.));
#559=CARTESIAN_POINT('',(536.,39.5,0.));
#560=CARTESIAN_POINT('',(533.5,39.5,0.));
#561=CARTESIAN_POINT('',(536.,59.5,0.));
#562=CARTESIAN_POINT('',(533.5,59.5,0.));
#563=CARTESIAN_POINT('',(590.,39.5000000000001,0.));
#564=CARTESIAN_POINT('',(587.5,39.5000000000001,0.));
#565=CARTESIAN_POINT('',(118.,39.4999999999999,0.));
#566=CARTESIAN_POINT('',(115.5,39.4999999999999,0.));
#567=CARTESIAN_POINT('',(118.,59.4999999999999,0.));
#568=CARTESIAN_POINT('',(115.5,59.4999999999999,0.));
#569=CARTESIAN_POINT('',(172.,39.4999999999999,0.));
#570=CARTESIAN_POINT('',(169.5,39.4999999999999,0.));
#571=CARTESIAN_POINT('',(590.,59.5000000000001,0.));
#572=CARTESIAN_POINT('',(587.5,59.5000000000001,0.));
#573=CARTESIAN_POINT('',(358.,140.,0.));
#574=CARTESIAN_POINT('',(360.5,140.,0.));
#575=CARTESIAN_POINT('',(318.,170.,0.));
#576=CARTESIAN_POINT('',(320.5,170.,0.));
#577=CARTESIAN_POINT('',(318.,140.,0.));
#578=CARTESIAN_POINT('',(320.5,140.,0.));
#579=CARTESIAN_POINT('',(358.,170.,0.));
#580=CARTESIAN_POINT('',(360.5,170.,0.));
#581=CARTESIAN_POINT('',(0.,0.,0.));
#582=CARTESIAN_POINT('',(358.,170.,5.));
#583=CARTESIAN_POINT('',(318.,140.,5.));
#584=CARTESIAN_POINT('',(318.,170.,5.));
#585=CARTESIAN_POINT('',(358.,140.,5.));
#586=CARTESIAN_POINT('',(590.,59.5000000000001,-0.5));
#587=CARTESIAN_POINT('',(172.,39.4999999999999,-0.5));
#588=CARTESIAN_POINT('',(118.,59.4999999999999,-0.5));
#589=CARTESIAN_POINT('',(118.,39.4999999999999,-0.5));
#590=CARTESIAN_POINT('',(590.,39.5000000000001,-0.5));
#591=CARTESIAN_POINT('',(536.,59.5,-0.5));
#592=CARTESIAN_POINT('',(536.,39.5,-0.5));
#593=CARTESIAN_POINT('',(172.,59.4999999999999,-0.5));
#594=MECHANICAL_DESIGN_GEOMETRIC_PRESENTATION_REPRESENTATION('',(#24),#595);
#595=(
GEOMETRIC_REPRESENTATION_CONTEXT(3)
GLOBAL_UNCERTAINTY_ASSIGNED_CONTEXT((#596))
GLOBAL_UNIT_ASSIGNED_CONTEXT((#602,#598,#597))
REPRESENTATION_CONTEXT('Collector Housing Plate Back 2 v1',
'TOP_LEVEL_ASSEMBLY_PART')
);
#596=UNCERTAINTY_MEASURE_WITH_UNIT(LENGTH_MEASURE(2.E-5),#602,
'DISTANCE_ACCURACY_VALUE','Maximum Tolerance applied to model');
#597=(
NAMED_UNIT(*)
SI_UNIT($,.STERADIAN.)
SOLID_ANGLE_UNIT()
);
#598=(
CONVERSION_BASED_UNIT('DEGREE',#600)
NAMED_UNIT(#599)
PLANE_ANGLE_UNIT()
);
#599=DIMENSIONAL_EXPONENTS(0.,0.,0.,0.,0.,0.,0.);
#600=PLANE_ANGLE_MEASURE_WITH_UNIT(PLANE_ANGLE_MEASURE(0.0174532925),#601);
#601=(
NAMED_UNIT(*)
PLANE_ANGLE_UNIT()
SI_UNIT($,.RADIAN.)
);
#602=(
LENGTH_UNIT()
NAMED_UNIT(*)
SI_UNIT(.MILLI.,.METRE.)
);
ENDSEC;
END-ISO-10303-21;
