ISO-10303-21;
HEADER;
/* Generated by software containing ST-Developer
 * from STEP Tools, Inc. (www.steptools.com) 
 */
/* OPTION: using custom schema-name function */

FILE_DESCRIPTION(
/* description */ (''),
/* implementation_level */ '2;1');

FILE_NAME(
/* name */ 'Collector Frame Barcode Plate Side v1.0.stp',
/* time_stamp */ '2021-05-19T12:36:33+02:00',
/* author */ (''),
/* organization */ (''),
/* preprocessor_version */ 'ST-DEVELOPER v16.7',
/* originating_system */ 'SIEMENS PLM Software NX 12.0',
/* authorisation */ '');

FILE_SCHEMA (('AUTOMOTIVE_DESIGN { 1 0 10303 214 3 1 1 1 }'));
ENDSEC;

DATA;
#10=SHAPE_REPRESENTATION_RELATIONSHIP('None',
'relationship between Collector Frame Barcode Plate Side v1.0-None and
 Collector Frame Barcode Plate Side v1.0-None',#22,#11);
#11=ADVANCED_BREP_SHAPE_REPRESENTATION(
'Collector Frame Barcode Plate Side v1.0-None',(#32),#847);
#12=SHAPE_DEFINITION_REPRESENTATION(#13,#22);
#13=PRODUCT_DEFINITION_SHAPE('','',#14);
#14=PRODUCT_DEFINITION(' ','',#16,#15);
#15=PRODUCT_DEFINITION_CONTEXT('part definition',#21,'design');
#16=PRODUCT_DEFINITION_FORMATION_WITH_SPECIFIED_SOURCE(' ',' ',#18,
 .NOT_KNOWN.);
#17=PRODUCT_RELATED_PRODUCT_CATEGORY('part','',(#18));
#18=PRODUCT('Collector Frame Barcode Plate Side v1.0',
'Collector Frame Barcode Plate Side v1.0',' ',(#19));
#19=PRODUCT_CONTEXT(' ',#21,'mechanical');
#20=APPLICATION_PROTOCOL_DEFINITION('international standard',
'automotive_design',2010,#21);
#21=APPLICATION_CONTEXT(
'core data for automotive mechanical design processes');
#22=SHAPE_REPRESENTATION('Collector Frame Barcode Plate Side v1.0-None',
(#546),#847);
#23=PRESENTATION_LAYER_ASSIGNMENT('1','Layer 1',(#32));
#24=STYLED_ITEM('',(#25),#32);
#25=PRESENTATION_STYLE_ASSIGNMENT((#26));
#26=SURFACE_STYLE_USAGE(.BOTH.,#27);
#27=SURFACE_SIDE_STYLE('',(#28));
#28=SURFACE_STYLE_FILL_AREA(#29);
#29=FILL_AREA_STYLE('',(#30));
#30=FILL_AREA_STYLE_COLOUR('',#31);
#31=COLOUR_RGB('Medium Gray',0.490196078431373,0.490196078431373,0.490196078431373);
#32=MANIFOLD_SOLID_BREP('',#33);
#33=CLOSED_SHELL('',(#34,#35,#36,#37,#38,#39,#40,#41,#42,#43,#44,#45,#46,
#47,#48,#49,#50,#51,#52,#53,#54,#55,#56,#57,#58,#59));
#34=ADVANCED_FACE('',(#86),#60,.F.);
#35=ADVANCED_FACE('',(#87),#61,.F.);
#36=ADVANCED_FACE('',(#88),#62,.F.);
#37=ADVANCED_FACE('',(#89),#63,.F.);
#38=ADVANCED_FACE('',(#90),#64,.F.);
#39=ADVANCED_FACE('',(#91),#65,.F.);
#40=ADVANCED_FACE('',(#92),#66,.F.);
#41=ADVANCED_FACE('',(#93),#67,.F.);
#42=ADVANCED_FACE('',(#94),#68,.F.);
#43=ADVANCED_FACE('',(#95),#69,.T.);
#44=ADVANCED_FACE('',(#96),#70,.F.);
#45=ADVANCED_FACE('',(#97),#71,.T.);
#46=ADVANCED_FACE('',(#98),#72,.T.);
#47=ADVANCED_FACE('',(#99),#73,.T.);
#48=ADVANCED_FACE('',(#100),#74,.T.);
#49=ADVANCED_FACE('',(#101),#75,.T.);
#50=ADVANCED_FACE('',(#102),#76,.T.);
#51=ADVANCED_FACE('',(#103),#77,.T.);
#52=ADVANCED_FACE('',(#104),#78,.T.);
#53=ADVANCED_FACE('',(#105),#79,.T.);
#54=ADVANCED_FACE('',(#106),#80,.T.);
#55=ADVANCED_FACE('',(#107),#81,.T.);
#56=ADVANCED_FACE('',(#108),#82,.T.);
#57=ADVANCED_FACE('',(#109),#83,.T.);
#58=ADVANCED_FACE('',(#110),#84,.T.);
#59=ADVANCED_FACE('',(#111),#85,.T.);
#60=PLANE('',#547);
#61=PLANE('',#548);
#62=PLANE('',#549);
#63=PLANE('',#550);
#64=PLANE('',#551);
#65=PLANE('',#552);
#66=PLANE('',#553);
#67=PLANE('',#554);
#68=PLANE('',#555);
#69=PLANE('',#556);
#70=PLANE('',#557);
#71=PLANE('',#558);
#72=PLANE('',#559);
#73=PLANE('',#560);
#74=PLANE('',#561);
#75=PLANE('',#562);
#76=PLANE('',#563);
#77=PLANE('',#564);
#78=PLANE('',#565);
#79=PLANE('',#566);
#80=PLANE('',#567);
#81=PLANE('',#568);
#82=PLANE('',#569);
#83=PLANE('',#570);
#84=PLANE('',#571);
#85=PLANE('',#572);
#86=FACE_OUTER_BOUND('',#112,.T.);
#87=FACE_OUTER_BOUND('',#113,.T.);
#88=FACE_OUTER_BOUND('',#114,.T.);
#89=FACE_OUTER_BOUND('',#115,.T.);
#90=FACE_OUTER_BOUND('',#116,.T.);
#91=FACE_OUTER_BOUND('',#117,.T.);
#92=FACE_OUTER_BOUND('',#118,.T.);
#93=FACE_OUTER_BOUND('',#119,.T.);
#94=FACE_OUTER_BOUND('',#120,.T.);
#95=FACE_OUTER_BOUND('',#121,.T.);
#96=FACE_OUTER_BOUND('',#122,.T.);
#97=FACE_OUTER_BOUND('',#123,.T.);
#98=FACE_OUTER_BOUND('',#124,.T.);
#99=FACE_OUTER_BOUND('',#125,.T.);
#100=FACE_OUTER_BOUND('',#126,.T.);
#101=FACE_OUTER_BOUND('',#127,.T.);
#102=FACE_OUTER_BOUND('',#128,.T.);
#103=FACE_OUTER_BOUND('',#129,.T.);
#104=FACE_OUTER_BOUND('',#130,.T.);
#105=FACE_OUTER_BOUND('',#131,.T.);
#106=FACE_OUTER_BOUND('',#132,.T.);
#107=FACE_OUTER_BOUND('',#133,.T.);
#108=FACE_OUTER_BOUND('',#134,.T.);
#109=FACE_OUTER_BOUND('',#135,.T.);
#110=FACE_OUTER_BOUND('',#136,.T.);
#111=FACE_OUTER_BOUND('',#137,.T.);
#112=EDGE_LOOP('',(#138,#139,#140,#141));
#113=EDGE_LOOP('',(#142,#143,#144,#145));
#114=EDGE_LOOP('',(#146,#147,#148,#149));
#115=EDGE_LOOP('',(#150,#151,#152,#153));
#116=EDGE_LOOP('',(#154,#155,#156,#157));
#117=EDGE_LOOP('',(#158,#159,#160,#161));
#118=EDGE_LOOP('',(#162,#163,#164,#165));
#119=EDGE_LOOP('',(#166,#167,#168,#169));
#120=EDGE_LOOP('',(#170,#171,#172,#173));
#121=EDGE_LOOP('',(#174,#175,#176,#177,#178,#179,#180,#181,#182,#183,#184,
#185,#186,#187,#188,#189,#190,#191,#192,#193,#194,#195,#196,#197));
#122=EDGE_LOOP('',(#198,#199,#200,#201,#202,#203,#204,#205,#206,#207,#208,
#209,#210,#211,#212,#213,#214,#215,#216,#217,#218,#219,#220,#221));
#123=EDGE_LOOP('',(#222,#223,#224,#225));
#124=EDGE_LOOP('',(#226,#227,#228,#229));
#125=EDGE_LOOP('',(#230,#231,#232,#233));
#126=EDGE_LOOP('',(#234,#235,#236,#237));
#127=EDGE_LOOP('',(#238,#239,#240,#241));
#128=EDGE_LOOP('',(#242,#243,#244,#245));
#129=EDGE_LOOP('',(#246,#247,#248,#249));
#130=EDGE_LOOP('',(#250,#251,#252,#253));
#131=EDGE_LOOP('',(#254,#255,#256,#257));
#132=EDGE_LOOP('',(#258,#259,#260,#261));
#133=EDGE_LOOP('',(#262,#263,#264,#265));
#134=EDGE_LOOP('',(#266,#267,#268,#269));
#135=EDGE_LOOP('',(#270,#271,#272,#273));
#136=EDGE_LOOP('',(#274,#275,#276,#277));
#137=EDGE_LOOP('',(#278,#279,#280,#281));
#138=ORIENTED_EDGE('',*,*,#330,.F.);
#139=ORIENTED_EDGE('',*,*,#331,.F.);
#140=ORIENTED_EDGE('',*,*,#332,.T.);
#141=ORIENTED_EDGE('',*,*,#333,.T.);
#142=ORIENTED_EDGE('',*,*,#334,.F.);
#143=ORIENTED_EDGE('',*,*,#335,.T.);
#144=ORIENTED_EDGE('',*,*,#336,.T.);
#145=ORIENTED_EDGE('',*,*,#337,.F.);
#146=ORIENTED_EDGE('',*,*,#338,.F.);
#147=ORIENTED_EDGE('',*,*,#339,.T.);
#148=ORIENTED_EDGE('',*,*,#340,.F.);
#149=ORIENTED_EDGE('',*,*,#341,.F.);
#150=ORIENTED_EDGE('',*,*,#342,.F.);
#151=ORIENTED_EDGE('',*,*,#343,.F.);
#152=ORIENTED_EDGE('',*,*,#344,.T.);
#153=ORIENTED_EDGE('',*,*,#345,.T.);
#154=ORIENTED_EDGE('',*,*,#346,.F.);
#155=ORIENTED_EDGE('',*,*,#347,.F.);
#156=ORIENTED_EDGE('',*,*,#348,.T.);
#157=ORIENTED_EDGE('',*,*,#349,.T.);
#158=ORIENTED_EDGE('',*,*,#350,.F.);
#159=ORIENTED_EDGE('',*,*,#351,.T.);
#160=ORIENTED_EDGE('',*,*,#352,.T.);
#161=ORIENTED_EDGE('',*,*,#353,.F.);
#162=ORIENTED_EDGE('',*,*,#354,.T.);
#163=ORIENTED_EDGE('',*,*,#355,.T.);
#164=ORIENTED_EDGE('',*,*,#356,.F.);
#165=ORIENTED_EDGE('',*,*,#353,.T.);
#166=ORIENTED_EDGE('',*,*,#357,.T.);
#167=ORIENTED_EDGE('',*,*,#348,.F.);
#168=ORIENTED_EDGE('',*,*,#358,.F.);
#169=ORIENTED_EDGE('',*,*,#340,.T.);
#170=ORIENTED_EDGE('',*,*,#359,.F.);
#171=ORIENTED_EDGE('',*,*,#360,.T.);
#172=ORIENTED_EDGE('',*,*,#361,.T.);
#173=ORIENTED_EDGE('',*,*,#332,.F.);
#174=ORIENTED_EDGE('',*,*,#331,.T.);
#175=ORIENTED_EDGE('',*,*,#362,.F.);
#176=ORIENTED_EDGE('',*,*,#363,.F.);
#177=ORIENTED_EDGE('',*,*,#364,.F.);
#178=ORIENTED_EDGE('',*,*,#350,.T.);
#179=ORIENTED_EDGE('',*,*,#356,.T.);
#180=ORIENTED_EDGE('',*,*,#365,.F.);
#181=ORIENTED_EDGE('',*,*,#366,.F.);
#182=ORIENTED_EDGE('',*,*,#367,.F.);
#183=ORIENTED_EDGE('',*,*,#337,.T.);
#184=ORIENTED_EDGE('',*,*,#368,.F.);
#185=ORIENTED_EDGE('',*,*,#369,.F.);
#186=ORIENTED_EDGE('',*,*,#370,.F.);
#187=ORIENTED_EDGE('',*,*,#341,.T.);
#188=ORIENTED_EDGE('',*,*,#358,.T.);
#189=ORIENTED_EDGE('',*,*,#347,.T.);
#190=ORIENTED_EDGE('',*,*,#371,.F.);
#191=ORIENTED_EDGE('',*,*,#372,.F.);
#192=ORIENTED_EDGE('',*,*,#373,.F.);
#193=ORIENTED_EDGE('',*,*,#343,.T.);
#194=ORIENTED_EDGE('',*,*,#374,.F.);
#195=ORIENTED_EDGE('',*,*,#375,.F.);
#196=ORIENTED_EDGE('',*,*,#376,.F.);
#197=ORIENTED_EDGE('',*,*,#359,.T.);
#198=ORIENTED_EDGE('',*,*,#333,.F.);
#199=ORIENTED_EDGE('',*,*,#361,.F.);
#200=ORIENTED_EDGE('',*,*,#377,.T.);
#201=ORIENTED_EDGE('',*,*,#378,.T.);
#202=ORIENTED_EDGE('',*,*,#379,.T.);
#203=ORIENTED_EDGE('',*,*,#345,.F.);
#204=ORIENTED_EDGE('',*,*,#380,.T.);
#205=ORIENTED_EDGE('',*,*,#381,.T.);
#206=ORIENTED_EDGE('',*,*,#382,.T.);
#207=ORIENTED_EDGE('',*,*,#349,.F.);
#208=ORIENTED_EDGE('',*,*,#357,.F.);
#209=ORIENTED_EDGE('',*,*,#339,.F.);
#210=ORIENTED_EDGE('',*,*,#383,.T.);
#211=ORIENTED_EDGE('',*,*,#384,.T.);
#212=ORIENTED_EDGE('',*,*,#385,.T.);
#213=ORIENTED_EDGE('',*,*,#335,.F.);
#214=ORIENTED_EDGE('',*,*,#386,.T.);
#215=ORIENTED_EDGE('',*,*,#387,.T.);
#216=ORIENTED_EDGE('',*,*,#388,.T.);
#217=ORIENTED_EDGE('',*,*,#354,.F.);
#218=ORIENTED_EDGE('',*,*,#352,.F.);
#219=ORIENTED_EDGE('',*,*,#389,.T.);
#220=ORIENTED_EDGE('',*,*,#390,.T.);
#221=ORIENTED_EDGE('',*,*,#391,.T.);
#222=ORIENTED_EDGE('',*,*,#382,.F.);
#223=ORIENTED_EDGE('',*,*,#392,.F.);
#224=ORIENTED_EDGE('',*,*,#371,.T.);
#225=ORIENTED_EDGE('',*,*,#346,.T.);
#226=ORIENTED_EDGE('',*,*,#380,.F.);
#227=ORIENTED_EDGE('',*,*,#344,.F.);
#228=ORIENTED_EDGE('',*,*,#373,.T.);
#229=ORIENTED_EDGE('',*,*,#393,.T.);
#230=ORIENTED_EDGE('',*,*,#381,.F.);
#231=ORIENTED_EDGE('',*,*,#393,.F.);
#232=ORIENTED_EDGE('',*,*,#372,.T.);
#233=ORIENTED_EDGE('',*,*,#392,.T.);
#234=ORIENTED_EDGE('',*,*,#379,.F.);
#235=ORIENTED_EDGE('',*,*,#394,.F.);
#236=ORIENTED_EDGE('',*,*,#374,.T.);
#237=ORIENTED_EDGE('',*,*,#342,.T.);
#238=ORIENTED_EDGE('',*,*,#377,.F.);
#239=ORIENTED_EDGE('',*,*,#360,.F.);
#240=ORIENTED_EDGE('',*,*,#376,.T.);
#241=ORIENTED_EDGE('',*,*,#395,.T.);
#242=ORIENTED_EDGE('',*,*,#378,.F.);
#243=ORIENTED_EDGE('',*,*,#395,.F.);
#244=ORIENTED_EDGE('',*,*,#375,.T.);
#245=ORIENTED_EDGE('',*,*,#394,.T.);
#246=ORIENTED_EDGE('',*,*,#383,.F.);
#247=ORIENTED_EDGE('',*,*,#338,.T.);
#248=ORIENTED_EDGE('',*,*,#370,.T.);
#249=ORIENTED_EDGE('',*,*,#396,.F.);
#250=ORIENTED_EDGE('',*,*,#385,.F.);
#251=ORIENTED_EDGE('',*,*,#397,.T.);
#252=ORIENTED_EDGE('',*,*,#368,.T.);
#253=ORIENTED_EDGE('',*,*,#336,.F.);
#254=ORIENTED_EDGE('',*,*,#384,.F.);
#255=ORIENTED_EDGE('',*,*,#396,.T.);
#256=ORIENTED_EDGE('',*,*,#369,.T.);
#257=ORIENTED_EDGE('',*,*,#397,.F.);
#258=ORIENTED_EDGE('',*,*,#386,.F.);
#259=ORIENTED_EDGE('',*,*,#334,.T.);
#260=ORIENTED_EDGE('',*,*,#367,.T.);
#261=ORIENTED_EDGE('',*,*,#398,.F.);
#262=ORIENTED_EDGE('',*,*,#388,.F.);
#263=ORIENTED_EDGE('',*,*,#399,.T.);
#264=ORIENTED_EDGE('',*,*,#365,.T.);
#265=ORIENTED_EDGE('',*,*,#355,.F.);
#266=ORIENTED_EDGE('',*,*,#387,.F.);
#267=ORIENTED_EDGE('',*,*,#398,.T.);
#268=ORIENTED_EDGE('',*,*,#366,.T.);
#269=ORIENTED_EDGE('',*,*,#399,.F.);
#270=ORIENTED_EDGE('',*,*,#389,.F.);
#271=ORIENTED_EDGE('',*,*,#351,.F.);
#272=ORIENTED_EDGE('',*,*,#364,.T.);
#273=ORIENTED_EDGE('',*,*,#400,.T.);
#274=ORIENTED_EDGE('',*,*,#390,.F.);
#275=ORIENTED_EDGE('',*,*,#400,.F.);
#276=ORIENTED_EDGE('',*,*,#363,.T.);
#277=ORIENTED_EDGE('',*,*,#401,.T.);
#278=ORIENTED_EDGE('',*,*,#391,.F.);
#279=ORIENTED_EDGE('',*,*,#401,.F.);
#280=ORIENTED_EDGE('',*,*,#362,.T.);
#281=ORIENTED_EDGE('',*,*,#330,.T.);
#282=VERTEX_POINT('',#701);
#283=VERTEX_POINT('',#702);
#284=VERTEX_POINT('',#704);
#285=VERTEX_POINT('',#706);
#286=VERTEX_POINT('',#710);
#287=VERTEX_POINT('',#711);
#288=VERTEX_POINT('',#713);
#289=VERTEX_POINT('',#715);
#290=VERTEX_POINT('',#719);
#291=VERTEX_POINT('',#720);
#292=VERTEX_POINT('',#722);
#293=VERTEX_POINT('',#724);
#294=VERTEX_POINT('',#728);
#295=VERTEX_POINT('',#729);
#296=VERTEX_POINT('',#731);
#297=VERTEX_POINT('',#733);
#298=VERTEX_POINT('',#737);
#299=VERTEX_POINT('',#738);
#300=VERTEX_POINT('',#740);
#301=VERTEX_POINT('',#742);
#302=VERTEX_POINT('',#746);
#303=VERTEX_POINT('',#747);
#304=VERTEX_POINT('',#749);
#305=VERTEX_POINT('',#751);
#306=VERTEX_POINT('',#755);
#307=VERTEX_POINT('',#757);
#308=VERTEX_POINT('',#764);
#309=VERTEX_POINT('',#766);
#310=VERTEX_POINT('',#770);
#311=VERTEX_POINT('',#772);
#312=VERTEX_POINT('',#775);
#313=VERTEX_POINT('',#777);
#314=VERTEX_POINT('',#780);
#315=VERTEX_POINT('',#782);
#316=VERTEX_POINT('',#785);
#317=VERTEX_POINT('',#787);
#318=VERTEX_POINT('',#790);
#319=VERTEX_POINT('',#792);
#320=VERTEX_POINT('',#796);
#321=VERTEX_POINT('',#798);
#322=VERTEX_POINT('',#801);
#323=VERTEX_POINT('',#803);
#324=VERTEX_POINT('',#806);
#325=VERTEX_POINT('',#808);
#326=VERTEX_POINT('',#811);
#327=VERTEX_POINT('',#813);
#328=VERTEX_POINT('',#816);
#329=VERTEX_POINT('',#818);
#330=EDGE_CURVE('',#282,#283,#402,.T.);
#331=EDGE_CURVE('',#284,#282,#403,.T.);
#332=EDGE_CURVE('',#284,#285,#404,.T.);
#333=EDGE_CURVE('',#285,#283,#405,.T.);
#334=EDGE_CURVE('',#286,#287,#406,.T.);
#335=EDGE_CURVE('',#286,#288,#407,.T.);
#336=EDGE_CURVE('',#288,#289,#408,.T.);
#337=EDGE_CURVE('',#287,#289,#409,.T.);
#338=EDGE_CURVE('',#290,#291,#410,.T.);
#339=EDGE_CURVE('',#290,#292,#411,.T.);
#340=EDGE_CURVE('',#293,#292,#412,.T.);
#341=EDGE_CURVE('',#291,#293,#413,.T.);
#342=EDGE_CURVE('',#294,#295,#414,.T.);
#343=EDGE_CURVE('',#296,#294,#415,.T.);
#344=EDGE_CURVE('',#296,#297,#416,.T.);
#345=EDGE_CURVE('',#297,#295,#417,.T.);
#346=EDGE_CURVE('',#298,#299,#418,.T.);
#347=EDGE_CURVE('',#300,#298,#419,.T.);
#348=EDGE_CURVE('',#300,#301,#420,.T.);
#349=EDGE_CURVE('',#301,#299,#421,.T.);
#350=EDGE_CURVE('',#302,#303,#422,.T.);
#351=EDGE_CURVE('',#302,#304,#423,.T.);
#352=EDGE_CURVE('',#304,#305,#424,.T.);
#353=EDGE_CURVE('',#303,#305,#425,.T.);
#354=EDGE_CURVE('',#305,#306,#426,.T.);
#355=EDGE_CURVE('',#306,#307,#427,.T.);
#356=EDGE_CURVE('',#303,#307,#428,.T.);
#357=EDGE_CURVE('',#292,#301,#429,.T.);
#358=EDGE_CURVE('',#293,#300,#430,.T.);
#359=EDGE_CURVE('',#308,#284,#431,.T.);
#360=EDGE_CURVE('',#308,#309,#432,.T.);
#361=EDGE_CURVE('',#309,#285,#433,.T.);
#362=EDGE_CURVE('',#310,#282,#434,.T.);
#363=EDGE_CURVE('',#311,#310,#435,.T.);
#364=EDGE_CURVE('',#302,#311,#436,.T.);
#365=EDGE_CURVE('',#312,#307,#437,.T.);
#366=EDGE_CURVE('',#313,#312,#438,.T.);
#367=EDGE_CURVE('',#287,#313,#439,.T.);
#368=EDGE_CURVE('',#314,#289,#440,.T.);
#369=EDGE_CURVE('',#315,#314,#441,.T.);
#370=EDGE_CURVE('',#291,#315,#442,.T.);
#371=EDGE_CURVE('',#316,#298,#443,.T.);
#372=EDGE_CURVE('',#317,#316,#444,.T.);
#373=EDGE_CURVE('',#296,#317,#445,.T.);
#374=EDGE_CURVE('',#318,#294,#446,.T.);
#375=EDGE_CURVE('',#319,#318,#447,.T.);
#376=EDGE_CURVE('',#308,#319,#448,.T.);
#377=EDGE_CURVE('',#309,#320,#449,.T.);
#378=EDGE_CURVE('',#320,#321,#450,.T.);
#379=EDGE_CURVE('',#321,#295,#451,.T.);
#380=EDGE_CURVE('',#297,#322,#452,.T.);
#381=EDGE_CURVE('',#322,#323,#453,.T.);
#382=EDGE_CURVE('',#323,#299,#454,.T.);
#383=EDGE_CURVE('',#290,#324,#455,.T.);
#384=EDGE_CURVE('',#324,#325,#456,.T.);
#385=EDGE_CURVE('',#325,#288,#457,.T.);
#386=EDGE_CURVE('',#286,#326,#458,.T.);
#387=EDGE_CURVE('',#326,#327,#459,.T.);
#388=EDGE_CURVE('',#327,#306,#460,.T.);
#389=EDGE_CURVE('',#304,#328,#461,.T.);
#390=EDGE_CURVE('',#328,#329,#462,.T.);
#391=EDGE_CURVE('',#329,#283,#463,.T.);
#392=EDGE_CURVE('',#316,#323,#464,.T.);
#393=EDGE_CURVE('',#317,#322,#465,.T.);
#394=EDGE_CURVE('',#318,#321,#466,.T.);
#395=EDGE_CURVE('',#319,#320,#467,.T.);
#396=EDGE_CURVE('',#324,#315,#468,.T.);
#397=EDGE_CURVE('',#325,#314,#469,.T.);
#398=EDGE_CURVE('',#326,#313,#470,.T.);
#399=EDGE_CURVE('',#327,#312,#471,.T.);
#400=EDGE_CURVE('',#311,#328,#472,.T.);
#401=EDGE_CURVE('',#310,#329,#473,.T.);
#402=LINE('',#700,#474);
#403=LINE('',#703,#475);
#404=LINE('',#705,#476);
#405=LINE('',#707,#477);
#406=LINE('',#709,#478);
#407=LINE('',#712,#479);
#408=LINE('',#714,#480);
#409=LINE('',#716,#481);
#410=LINE('',#718,#482);
#411=LINE('',#721,#483);
#412=LINE('',#723,#484);
#413=LINE('',#725,#485);
#414=LINE('',#727,#486);
#415=LINE('',#730,#487);
#416=LINE('',#732,#488);
#417=LINE('',#734,#489);
#418=LINE('',#736,#490);
#419=LINE('',#739,#491);
#420=LINE('',#741,#492);
#421=LINE('',#743,#493);
#422=LINE('',#745,#494);
#423=LINE('',#748,#495);
#424=LINE('',#750,#496);
#425=LINE('',#752,#497);
#426=LINE('',#754,#498);
#427=LINE('',#756,#499);
#428=LINE('',#758,#500);
#429=LINE('',#760,#501);
#430=LINE('',#761,#502);
#431=LINE('',#763,#503);
#432=LINE('',#765,#504);
#433=LINE('',#767,#505);
#434=LINE('',#769,#506);
#435=LINE('',#771,#507);
#436=LINE('',#773,#508);
#437=LINE('',#774,#509);
#438=LINE('',#776,#510);
#439=LINE('',#778,#511);
#440=LINE('',#779,#512);
#441=LINE('',#781,#513);
#442=LINE('',#783,#514);
#443=LINE('',#784,#515);
#444=LINE('',#786,#516);
#445=LINE('',#788,#517);
#446=LINE('',#789,#518);
#447=LINE('',#791,#519);
#448=LINE('',#793,#520);
#449=LINE('',#795,#521);
#450=LINE('',#797,#522);
#451=LINE('',#799,#523);
#452=LINE('',#800,#524);
#453=LINE('',#802,#525);
#454=LINE('',#804,#526);
#455=LINE('',#805,#527);
#456=LINE('',#807,#528);
#457=LINE('',#809,#529);
#458=LINE('',#810,#530);
#459=LINE('',#812,#531);
#460=LINE('',#814,#532);
#461=LINE('',#815,#533);
#462=LINE('',#817,#534);
#463=LINE('',#819,#535);
#464=LINE('',#821,#536);
#465=LINE('',#823,#537);
#466=LINE('',#826,#538);
#467=LINE('',#828,#539);
#468=LINE('',#831,#540);
#469=LINE('',#833,#541);
#470=LINE('',#836,#542);
#471=LINE('',#838,#543);
#472=LINE('',#841,#544);
#473=LINE('',#843,#545);
#474=VECTOR('',#575,1.);
#475=VECTOR('',#576,1.);
#476=VECTOR('',#577,1.);
#477=VECTOR('',#578,1.);
#478=VECTOR('',#581,1.);
#479=VECTOR('',#582,1.);
#480=VECTOR('',#583,1.);
#481=VECTOR('',#584,1.);
#482=VECTOR('',#587,1.);
#483=VECTOR('',#588,1.);
#484=VECTOR('',#589,1.);
#485=VECTOR('',#590,1.);
#486=VECTOR('',#593,1.);
#487=VECTOR('',#594,1.);
#488=VECTOR('',#595,1.);
#489=VECTOR('',#596,1.);
#490=VECTOR('',#599,1.);
#491=VECTOR('',#600,1.);
#492=VECTOR('',#601,1.);
#493=VECTOR('',#602,1.);
#494=VECTOR('',#605,1.);
#495=VECTOR('',#606,1.);
#496=VECTOR('',#607,1.);
#497=VECTOR('',#608,1.);
#498=VECTOR('',#611,1.);
#499=VECTOR('',#612,1.);
#500=VECTOR('',#613,1.);
#501=VECTOR('',#616,1.);
#502=VECTOR('',#617,1.);
#503=VECTOR('',#620,1.);
#504=VECTOR('',#621,1.);
#505=VECTOR('',#622,1.);
#506=VECTOR('',#625,1.);
#507=VECTOR('',#626,1.);
#508=VECTOR('',#627,1.);
#509=VECTOR('',#628,1.);
#510=VECTOR('',#629,1.);
#511=VECTOR('',#630,1.);
#512=VECTOR('',#631,1.);
#513=VECTOR('',#632,1.);
#514=VECTOR('',#633,1.);
#515=VECTOR('',#634,1.);
#516=VECTOR('',#635,1.);
#517=VECTOR('',#636,1.);
#518=VECTOR('',#637,1.);
#519=VECTOR('',#638,1.);
#520=VECTOR('',#639,1.);
#521=VECTOR('',#642,1.);
#522=VECTOR('',#643,1.);
#523=VECTOR('',#644,1.);
#524=VECTOR('',#645,1.);
#525=VECTOR('',#646,1.);
#526=VECTOR('',#647,1.);
#527=VECTOR('',#648,1.);
#528=VECTOR('',#649,1.);
#529=VECTOR('',#650,1.);
#530=VECTOR('',#651,1.);
#531=VECTOR('',#652,1.);
#532=VECTOR('',#653,1.);
#533=VECTOR('',#654,1.);
#534=VECTOR('',#655,1.);
#535=VECTOR('',#656,1.);
#536=VECTOR('',#659,1.);
#537=VECTOR('',#662,1.);
#538=VECTOR('',#667,1.);
#539=VECTOR('',#670,1.);
#540=VECTOR('',#675,1.);
#541=VECTOR('',#678,1.);
#542=VECTOR('',#683,1.);
#543=VECTOR('',#686,1.);
#544=VECTOR('',#691,1.);
#545=VECTOR('',#694,1.);
#546=AXIS2_PLACEMENT_3D('',#699,#573,#574);
#547=AXIS2_PLACEMENT_3D('',#708,#579,#580);
#548=AXIS2_PLACEMENT_3D('',#717,#585,#586);
#549=AXIS2_PLACEMENT_3D('',#726,#591,#592);
#550=AXIS2_PLACEMENT_3D('',#735,#597,#598);
#551=AXIS2_PLACEMENT_3D('',#744,#603,#604);
#552=AXIS2_PLACEMENT_3D('',#753,#609,#610);
#553=AXIS2_PLACEMENT_3D('',#759,#614,#615);
#554=AXIS2_PLACEMENT_3D('',#762,#618,#619);
#555=AXIS2_PLACEMENT_3D('',#768,#623,#624);
#556=AXIS2_PLACEMENT_3D('',#794,#640,#641);
#557=AXIS2_PLACEMENT_3D('',#820,#657,#658);
#558=AXIS2_PLACEMENT_3D('',#822,#660,#661);
#559=AXIS2_PLACEMENT_3D('',#824,#663,#664);
#560=AXIS2_PLACEMENT_3D('',#825,#665,#666);
#561=AXIS2_PLACEMENT_3D('',#827,#668,#669);
#562=AXIS2_PLACEMENT_3D('',#829,#671,#672);
#563=AXIS2_PLACEMENT_3D('',#830,#673,#674);
#564=AXIS2_PLACEMENT_3D('',#832,#676,#677);
#565=AXIS2_PLACEMENT_3D('',#834,#679,#680);
#566=AXIS2_PLACEMENT_3D('',#835,#681,#682);
#567=AXIS2_PLACEMENT_3D('',#837,#684,#685);
#568=AXIS2_PLACEMENT_3D('',#839,#687,#688);
#569=AXIS2_PLACEMENT_3D('',#840,#689,#690);
#570=AXIS2_PLACEMENT_3D('',#842,#692,#693);
#571=AXIS2_PLACEMENT_3D('',#844,#695,#696);
#572=AXIS2_PLACEMENT_3D('',#845,#697,#698);
#573=DIRECTION('',(0.,0.,1.));
#574=DIRECTION('',(1.,0.,0.));
#575=DIRECTION('',(0.,0.,-1.));
#576=DIRECTION('',(0.,1.,0.));
#577=DIRECTION('',(0.,0.,-1.));
#578=DIRECTION('',(0.,1.,0.));
#579=DIRECTION('',(-1.,0.,0.));
#580=DIRECTION('',(0.,0.,1.));
#581=DIRECTION('',(0.,0.,1.));
#582=DIRECTION('',(-1.,0.,0.));
#583=DIRECTION('',(0.,0.,1.));
#584=DIRECTION('',(-1.,0.,0.));
#585=DIRECTION('',(0.,-1.,0.));
#586=DIRECTION('',(0.,0.,-1.));
#587=DIRECTION('',(0.,0.,1.));
#588=DIRECTION('',(-1.,0.,0.));
#589=DIRECTION('',(0.,0.,-1.));
#590=DIRECTION('',(-1.,0.,0.));
#591=DIRECTION('',(0.,-1.,0.));
#592=DIRECTION('',(0.,0.,-1.));
#593=DIRECTION('',(0.,0.,-1.));
#594=DIRECTION('',(1.,0.,0.));
#595=DIRECTION('',(0.,0.,-1.));
#596=DIRECTION('',(1.,0.,0.));
#597=DIRECTION('',(0.,1.,0.));
#598=DIRECTION('',(0.,0.,1.));
#599=DIRECTION('',(0.,0.,-1.));
#600=DIRECTION('',(1.,0.,0.));
#601=DIRECTION('',(0.,0.,-1.));
#602=DIRECTION('',(1.,0.,0.));
#603=DIRECTION('',(0.,1.,0.));
#604=DIRECTION('',(0.,0.,1.));
#605=DIRECTION('',(0.,1.,0.));
#606=DIRECTION('',(0.,0.,-1.));
#607=DIRECTION('',(0.,1.,0.));
#608=DIRECTION('',(0.,0.,-1.));
#609=DIRECTION('',(-1.,0.,0.));
#610=DIRECTION('',(0.,0.,1.));
#611=DIRECTION('',(-1.,0.,0.));
#612=DIRECTION('',(0.,0.,1.));
#613=DIRECTION('',(-1.,0.,0.));
#614=DIRECTION('',(0.,-1.,0.));
#615=DIRECTION('',(0.,0.,-1.));
#616=DIRECTION('',(3.55510131660375E-17,-1.,0.));
#617=DIRECTION('',(3.55510131660375E-17,-1.,0.));
#618=DIRECTION('',(1.,3.55510131660375E-17,0.));
#619=DIRECTION('',(-3.55510131660375E-17,1.,0.));
#620=DIRECTION('',(1.,0.,0.));
#621=DIRECTION('',(0.,0.,-1.));
#622=DIRECTION('',(1.,0.,0.));
#623=DIRECTION('',(0.,1.,0.));
#624=DIRECTION('',(0.,0.,1.));
#625=DIRECTION('',(-1.,0.,0.));
#626=DIRECTION('',(0.,-1.,0.));
#627=DIRECTION('',(1.,0.,0.));
#628=DIRECTION('',(7.11020263320749E-17,-1.,0.));
#629=DIRECTION('',(1.,-1.02370321265606E-16,0.));
#630=DIRECTION('',(-7.11020263320749E-17,1.,0.));
#631=DIRECTION('',(7.11020263320749E-17,-1.,0.));
#632=DIRECTION('',(1.,-1.89106495064446E-16,0.));
#633=DIRECTION('',(-7.11020263320749E-17,1.,0.));
#634=DIRECTION('',(0.,1.,0.));
#635=DIRECTION('',(-1.,-2.60208521396521E-16,0.));
#636=DIRECTION('',(0.,-1.,0.));
#637=DIRECTION('',(0.,1.,0.));
#638=DIRECTION('',(-1.,-1.73472347597681E-16,0.));
#639=DIRECTION('',(0.,-1.,0.));
#640=DIRECTION('',(0.,0.,1.));
#641=DIRECTION('',(1.,0.,0.));
#642=DIRECTION('',(0.,-1.,0.));
#643=DIRECTION('',(-1.,-1.73472347597681E-16,0.));
#644=DIRECTION('',(0.,1.,0.));
#645=DIRECTION('',(0.,-1.,0.));
#646=DIRECTION('',(-1.,-2.60208521396521E-16,0.));
#647=DIRECTION('',(0.,1.,0.));
#648=DIRECTION('',(-7.11020263320749E-17,1.,0.));
#649=DIRECTION('',(1.,-1.89106495064446E-16,0.));
#650=DIRECTION('',(7.11020263320749E-17,-1.,0.));
#651=DIRECTION('',(-7.11020263320749E-17,1.,0.));
#652=DIRECTION('',(1.,-1.02370321265606E-16,0.));
#653=DIRECTION('',(7.11020263320749E-17,-1.,0.));
#654=DIRECTION('',(1.,0.,0.));
#655=DIRECTION('',(0.,-1.,0.));
#656=DIRECTION('',(-1.,0.,0.));
#657=DIRECTION('',(0.,0.,1.));
#658=DIRECTION('',(1.,0.,0.));
#659=DIRECTION('',(0.,0.,-1.));
#660=DIRECTION('',(-1.,0.,0.));
#661=DIRECTION('',(0.,0.,1.));
#662=DIRECTION('',(0.,0.,-1.));
#663=DIRECTION('',(1.,0.,0.));
#664=DIRECTION('',(0.,0.,-1.));
#665=DIRECTION('',(2.60208521396521E-16,-1.,0.));
#666=DIRECTION('',(1.,2.60208521396521E-16,0.));
#667=DIRECTION('',(0.,0.,-1.));
#668=DIRECTION('',(-1.,0.,0.));
#669=DIRECTION('',(0.,0.,1.));
#670=DIRECTION('',(0.,0.,-1.));
#671=DIRECTION('',(1.,0.,0.));
#672=DIRECTION('',(0.,0.,-1.));
#673=DIRECTION('',(1.73472347597681E-16,-1.,0.));
#674=DIRECTION('',(1.,1.73472347597681E-16,0.));
#675=DIRECTION('',(0.,0.,1.));
#676=DIRECTION('',(-1.,-7.11020263320749E-17,0.));
#677=DIRECTION('',(0.,0.,1.));
#678=DIRECTION('',(0.,0.,1.));
#679=DIRECTION('',(1.,7.11020263320749E-17,0.));
#680=DIRECTION('',(0.,0.,-1.));
#681=DIRECTION('',(1.89106495064446E-16,1.,0.));
#682=DIRECTION('',(1.,-1.94289029309402E-16,0.));
#683=DIRECTION('',(0.,0.,1.));
#684=DIRECTION('',(-1.,-7.11020263320749E-17,0.));
#685=DIRECTION('',(0.,0.,1.));
#686=DIRECTION('',(0.,0.,1.));
#687=DIRECTION('',(1.,7.11020263320749E-17,0.));
#688=DIRECTION('',(0.,0.,-1.));
#689=DIRECTION('',(1.02370321265606E-16,1.,0.));
#690=DIRECTION('',(1.,-1.11022302462516E-16,0.));
#691=DIRECTION('',(0.,0.,-1.));
#692=DIRECTION('',(0.,1.,0.));
#693=DIRECTION('',(0.,0.,1.));
#694=DIRECTION('',(0.,0.,-1.));
#695=DIRECTION('',(1.,0.,0.));
#696=DIRECTION('',(0.,0.,-1.));
#697=DIRECTION('',(0.,-1.,0.));
#698=DIRECTION('',(0.,0.,-1.));
#699=CARTESIAN_POINT('',(0.,0.,0.));
#700=CARTESIAN_POINT('',(160.,56.,5.));
#701=CARTESIAN_POINT('',(160.,56.,5.));
#702=CARTESIAN_POINT('',(160.,56.,0.));
#703=CARTESIAN_POINT('',(160.,0.,5.));
#704=CARTESIAN_POINT('',(160.,0.,5.));
#705=CARTESIAN_POINT('',(160.,0.,5.));
#706=CARTESIAN_POINT('',(160.,0.,0.));
#707=CARTESIAN_POINT('',(160.,0.,0.));
#708=CARTESIAN_POINT('',(160.,0.,5.));
#709=CARTESIAN_POINT('',(100.,152.,5.));
#710=CARTESIAN_POINT('',(100.,152.,0.));
#711=CARTESIAN_POINT('',(100.,152.,5.));
#712=CARTESIAN_POINT('',(160.,152.,0.));
#713=CARTESIAN_POINT('',(60.,152.,0.));
#714=CARTESIAN_POINT('',(60.,152.,5.));
#715=CARTESIAN_POINT('',(60.,152.,5.));
#716=CARTESIAN_POINT('',(160.,152.,5.));
#717=CARTESIAN_POINT('',(160.,152.,5.));
#718=CARTESIAN_POINT('',(40.,152.,5.));
#719=CARTESIAN_POINT('',(40.,152.,0.));
#720=CARTESIAN_POINT('',(40.,152.,5.));
#721=CARTESIAN_POINT('',(160.,152.,0.));
#722=CARTESIAN_POINT('',(0.,152.,0.));
#723=CARTESIAN_POINT('',(0.,152.,5.));
#724=CARTESIAN_POINT('',(0.,152.,5.));
#725=CARTESIAN_POINT('',(160.,152.,5.));
#726=CARTESIAN_POINT('',(160.,152.,5.));
#727=CARTESIAN_POINT('',(100.,2.60208521396521E-15,5.));
#728=CARTESIAN_POINT('',(100.,2.60208521396521E-15,5.));
#729=CARTESIAN_POINT('',(100.,2.60208521396521E-15,0.));
#730=CARTESIAN_POINT('',(0.,0.,5.));
#731=CARTESIAN_POINT('',(60.,0.,5.));
#732=CARTESIAN_POINT('',(60.,0.,5.));
#733=CARTESIAN_POINT('',(60.,0.,0.));
#734=CARTESIAN_POINT('',(0.,0.,0.));
#735=CARTESIAN_POINT('',(0.,0.,5.));
#736=CARTESIAN_POINT('',(40.,0.,5.));
#737=CARTESIAN_POINT('',(40.,0.,5.));
#738=CARTESIAN_POINT('',(40.,0.,0.));
#739=CARTESIAN_POINT('',(0.,0.,5.));
#740=CARTESIAN_POINT('',(0.,0.,5.));
#741=CARTESIAN_POINT('',(0.,0.,5.));
#742=CARTESIAN_POINT('',(0.,0.,0.));
#743=CARTESIAN_POINT('',(0.,0.,0.));
#744=CARTESIAN_POINT('',(0.,0.,5.));
#745=CARTESIAN_POINT('',(160.,0.,5.));
#746=CARTESIAN_POINT('',(160.,96.,5.));
#747=CARTESIAN_POINT('',(160.,152.,5.));
#748=CARTESIAN_POINT('',(160.,96.,5.));
#749=CARTESIAN_POINT('',(160.,96.,0.));
#750=CARTESIAN_POINT('',(160.,0.,0.));
#751=CARTESIAN_POINT('',(160.,152.,0.));
#752=CARTESIAN_POINT('',(160.,152.,5.));
#753=CARTESIAN_POINT('',(160.,0.,5.));
#754=CARTESIAN_POINT('',(160.,152.,0.));
#755=CARTESIAN_POINT('',(120.,152.,0.));
#756=CARTESIAN_POINT('',(120.,152.,5.));
#757=CARTESIAN_POINT('',(120.,152.,5.));
#758=CARTESIAN_POINT('',(160.,152.,5.));
#759=CARTESIAN_POINT('',(160.,152.,5.));
#760=CARTESIAN_POINT('',(-5.4037540012377E-15,152.,0.));
#761=CARTESIAN_POINT('',(-5.4037540012377E-15,152.,5.));
#762=CARTESIAN_POINT('',(-5.4037540012377E-15,152.,5.));
#763=CARTESIAN_POINT('',(0.,0.,5.));
#764=CARTESIAN_POINT('',(120.,1.59872115546023E-14,5.));
#765=CARTESIAN_POINT('',(120.,1.59872115546023E-14,5.));
#766=CARTESIAN_POINT('',(120.,0.,0.));
#767=CARTESIAN_POINT('',(0.,0.,0.));
#768=CARTESIAN_POINT('',(0.,0.,5.));
#769=CARTESIAN_POINT('',(165.,56.,5.));
#770=CARTESIAN_POINT('',(165.,56.,5.));
#771=CARTESIAN_POINT('',(165.,96.,5.));
#772=CARTESIAN_POINT('',(165.,96.,5.));
#773=CARTESIAN_POINT('',(160.,96.,5.));
#774=CARTESIAN_POINT('',(120.,152.,5.));
#775=CARTESIAN_POINT('',(120.,157.,5.));
#776=CARTESIAN_POINT('',(120.,157.,5.));
#777=CARTESIAN_POINT('',(100.,157.,5.));
#778=CARTESIAN_POINT('',(100.,157.,5.));
#779=CARTESIAN_POINT('',(60.,152.,5.));
#780=CARTESIAN_POINT('',(60.,157.,5.));
#781=CARTESIAN_POINT('',(60.,157.,5.));
#782=CARTESIAN_POINT('',(40.,157.,5.));
#783=CARTESIAN_POINT('',(40.,157.,5.));
#784=CARTESIAN_POINT('',(40.,-5.00000000000001,5.));
#785=CARTESIAN_POINT('',(40.,-5.00000000000001,5.));
#786=CARTESIAN_POINT('',(60.,-5.00000000000001,5.));
#787=CARTESIAN_POINT('',(60.,-5.00000000000001,5.));
#788=CARTESIAN_POINT('',(60.,0.,5.));
#789=CARTESIAN_POINT('',(100.,-5.,5.));
#790=CARTESIAN_POINT('',(100.,-5.,5.));
#791=CARTESIAN_POINT('',(120.,-5.,5.));
#792=CARTESIAN_POINT('',(120.,-5.,5.));
#793=CARTESIAN_POINT('',(120.,1.59872115546023E-14,5.));
#794=CARTESIAN_POINT('',(0.,0.,5.));
#795=CARTESIAN_POINT('',(120.,1.59872115546023E-14,0.));
#796=CARTESIAN_POINT('',(120.,-5.,0.));
#797=CARTESIAN_POINT('',(120.,-5.,0.));
#798=CARTESIAN_POINT('',(100.,-5.,0.));
#799=CARTESIAN_POINT('',(100.,-5.,0.));
#800=CARTESIAN_POINT('',(60.,0.,0.));
#801=CARTESIAN_POINT('',(60.,-5.00000000000001,0.));
#802=CARTESIAN_POINT('',(60.,-5.00000000000001,0.));
#803=CARTESIAN_POINT('',(40.,-5.00000000000001,0.));
#804=CARTESIAN_POINT('',(40.,-5.00000000000001,0.));
#805=CARTESIAN_POINT('',(40.,157.,0.));
#806=CARTESIAN_POINT('',(40.,157.,0.));
#807=CARTESIAN_POINT('',(60.,157.,0.));
#808=CARTESIAN_POINT('',(60.,157.,0.));
#809=CARTESIAN_POINT('',(60.,152.,0.));
#810=CARTESIAN_POINT('',(100.,157.,0.));
#811=CARTESIAN_POINT('',(100.,157.,0.));
#812=CARTESIAN_POINT('',(120.,157.,0.));
#813=CARTESIAN_POINT('',(120.,157.,0.));
#814=CARTESIAN_POINT('',(120.,152.,0.));
#815=CARTESIAN_POINT('',(160.,96.,0.));
#816=CARTESIAN_POINT('',(165.,96.,0.));
#817=CARTESIAN_POINT('',(165.,96.,0.));
#818=CARTESIAN_POINT('',(165.,56.,0.));
#819=CARTESIAN_POINT('',(165.,56.,0.));
#820=CARTESIAN_POINT('',(0.,0.,0.));
#821=CARTESIAN_POINT('',(40.,-5.00000000000001,5.));
#822=CARTESIAN_POINT('',(40.,-5.00000000000001,5.));
#823=CARTESIAN_POINT('',(60.,-5.00000000000001,5.));
#824=CARTESIAN_POINT('',(60.,0.,5.));
#825=CARTESIAN_POINT('',(60.,-5.00000000000001,5.));
#826=CARTESIAN_POINT('',(100.,-5.,5.));
#827=CARTESIAN_POINT('',(100.,-5.,5.));
#828=CARTESIAN_POINT('',(120.,-5.,5.));
#829=CARTESIAN_POINT('',(120.,1.59872115546023E-14,5.));
#830=CARTESIAN_POINT('',(120.,-5.,5.));
#831=CARTESIAN_POINT('',(40.,157.,5.));
#832=CARTESIAN_POINT('',(40.,157.,5.));
#833=CARTESIAN_POINT('',(60.,157.,5.));
#834=CARTESIAN_POINT('',(60.,152.,5.));
#835=CARTESIAN_POINT('',(60.,157.,5.));
#836=CARTESIAN_POINT('',(100.,157.,5.));
#837=CARTESIAN_POINT('',(100.,157.,5.));
#838=CARTESIAN_POINT('',(120.,157.,5.));
#839=CARTESIAN_POINT('',(120.,152.,5.));
#840=CARTESIAN_POINT('',(120.,157.,5.));
#841=CARTESIAN_POINT('',(165.,96.,5.));
#842=CARTESIAN_POINT('',(160.,96.,5.));
#843=CARTESIAN_POINT('',(165.,56.,5.));
#844=CARTESIAN_POINT('',(165.,96.,5.));
#845=CARTESIAN_POINT('',(165.,56.,5.));
#846=MECHANICAL_DESIGN_GEOMETRIC_PRESENTATION_REPRESENTATION('',(#24),#847);
#847=(
GEOMETRIC_REPRESENTATION_CONTEXT(3)
GLOBAL_UNCERTAINTY_ASSIGNED_CONTEXT((#848))
GLOBAL_UNIT_ASSIGNED_CONTEXT((#854,#850,#849))
REPRESENTATION_CONTEXT('Collector Frame Barcode Plate Side v1',
'TOP_LEVEL_ASSEMBLY_PART')
);
#848=UNCERTAINTY_MEASURE_WITH_UNIT(LENGTH_MEASURE(2.E-5),#854,
'DISTANCE_ACCURACY_VALUE','Maximum Tolerance applied to model');
#849=(
NAMED_UNIT(*)
SI_UNIT($,.STERADIAN.)
SOLID_ANGLE_UNIT()
);
#850=(
CONVERSION_BASED_UNIT('DEGREE',#852)
NAMED_UNIT(#851)
PLANE_ANGLE_UNIT()
);
#851=DIMENSIONAL_EXPONENTS(0.,0.,0.,0.,0.,0.,0.);
#852=PLANE_ANGLE_MEASURE_WITH_UNIT(PLANE_ANGLE_MEASURE(0.0174532925),#853);
#853=(
NAMED_UNIT(*)
PLANE_ANGLE_UNIT()
SI_UNIT($,.RADIAN.)
);
#854=(
LENGTH_UNIT()
NAMED_UNIT(*)
SI_UNIT(.MILLI.,.METRE.)
);
ENDSEC;
END-ISO-10303-21;
