ISO-10303-21;
HEADER;
/* Generated by software containing ST-Developer
 * from STEP Tools, Inc. (www.steptools.com) 
 */
/* OPTION: using custom schema-name function */

FILE_DESCRIPTION(
/* description */ (''),
/* implementation_level */ '2;1');

FILE_NAME(
/* name */ 'Collector Frame Barcode Plate Back v1.0.stp',
/* time_stamp */ '2021-05-19T12:36:33+02:00',
/* author */ (''),
/* organization */ (''),
/* preprocessor_version */ 'ST-DEVELOPER v16.7',
/* originating_system */ 'SIEMENS PLM Software NX 12.0',
/* authorisation */ '');

FILE_SCHEMA (('AUTOMOTIVE_DESIGN { 1 0 10303 214 3 1 1 1 }'));
ENDSEC;

DATA;
#10=SHAPE_REPRESENTATION_RELATIONSHIP('None',
'relationship between Collector Frame Barcode Plate Back v1.0-None and
 Collector Frame Barcode Plate Back v1.0-None',#22,#11);
#11=ADVANCED_BREP_SHAPE_REPRESENTATION(
'Collector Frame Barcode Plate Back v1.0-None',(#32),#979);
#12=SHAPE_DEFINITION_REPRESENTATION(#13,#22);
#13=PRODUCT_DEFINITION_SHAPE('','',#14);
#14=PRODUCT_DEFINITION(' ','',#16,#15);
#15=PRODUCT_DEFINITION_CONTEXT('part definition',#21,'design');
#16=PRODUCT_DEFINITION_FORMATION_WITH_SPECIFIED_SOURCE(' ',' ',#18,
 .NOT_KNOWN.);
#17=PRODUCT_RELATED_PRODUCT_CATEGORY('part','',(#18));
#18=PRODUCT('Collector Frame Barcode Plate Back v1.0',
'Collector Frame Barcode Plate Back v1.0',' ',(#19));
#19=PRODUCT_CONTEXT(' ',#21,'mechanical');
#20=APPLICATION_PROTOCOL_DEFINITION('international standard',
'automotive_design',2010,#21);
#21=APPLICATION_CONTEXT(
'core data for automotive mechanical design processes');
#22=SHAPE_REPRESENTATION('Collector Frame Barcode Plate Back v1.0-None',
(#630),#979);
#23=PRESENTATION_LAYER_ASSIGNMENT('1','Layer 1',(#32));
#24=STYLED_ITEM('',(#25),#32);
#25=PRESENTATION_STYLE_ASSIGNMENT((#26));
#26=SURFACE_STYLE_USAGE(.BOTH.,#27);
#27=SURFACE_SIDE_STYLE('',(#28));
#28=SURFACE_STYLE_FILL_AREA(#29);
#29=FILL_AREA_STYLE('',(#30));
#30=FILL_AREA_STYLE_COLOUR('',#31);
#31=COLOUR_RGB('Medium Gray',0.490196078431373,0.490196078431373,0.490196078431373);
#32=MANIFOLD_SOLID_BREP('',#33);
#33=CLOSED_SHELL('',(#34,#35,#36,#37,#38,#39,#40,#41,#42,#43,#44,#45,#46,
#47,#48,#49,#50,#51,#52,#53,#54,#55,#56,#57,#58,#59,#60,#61,#62,#63));
#34=ADVANCED_FACE('',(#94),#64,.F.);
#35=ADVANCED_FACE('',(#95),#65,.F.);
#36=ADVANCED_FACE('',(#96),#66,.F.);
#37=ADVANCED_FACE('',(#97),#67,.F.);
#38=ADVANCED_FACE('',(#98),#68,.F.);
#39=ADVANCED_FACE('',(#99),#69,.F.);
#40=ADVANCED_FACE('',(#100),#70,.F.);
#41=ADVANCED_FACE('',(#101),#71,.F.);
#42=ADVANCED_FACE('',(#102),#72,.T.);
#43=ADVANCED_FACE('',(#103),#73,.F.);
#44=ADVANCED_FACE('',(#104),#74,.T.);
#45=ADVANCED_FACE('',(#105),#75,.T.);
#46=ADVANCED_FACE('',(#106),#76,.T.);
#47=ADVANCED_FACE('',(#107),#77,.T.);
#48=ADVANCED_FACE('',(#108),#78,.T.);
#49=ADVANCED_FACE('',(#109),#79,.T.);
#50=ADVANCED_FACE('',(#110),#80,.T.);
#51=ADVANCED_FACE('',(#111),#81,.T.);
#52=ADVANCED_FACE('',(#112),#82,.T.);
#53=ADVANCED_FACE('',(#113),#83,.T.);
#54=ADVANCED_FACE('',(#114),#84,.T.);
#55=ADVANCED_FACE('',(#115),#85,.T.);
#56=ADVANCED_FACE('',(#116),#86,.F.);
#57=ADVANCED_FACE('',(#117),#87,.F.);
#58=ADVANCED_FACE('',(#118),#88,.F.);
#59=ADVANCED_FACE('',(#119),#89,.F.);
#60=ADVANCED_FACE('',(#120),#90,.T.);
#61=ADVANCED_FACE('',(#121),#91,.T.);
#62=ADVANCED_FACE('',(#122),#92,.T.);
#63=ADVANCED_FACE('',(#123),#93,.T.);
#64=PLANE('',#631);
#65=PLANE('',#632);
#66=PLANE('',#633);
#67=PLANE('',#634);
#68=PLANE('',#635);
#69=PLANE('',#636);
#70=PLANE('',#637);
#71=PLANE('',#638);
#72=PLANE('',#639);
#73=PLANE('',#640);
#74=PLANE('',#641);
#75=PLANE('',#642);
#76=PLANE('',#643);
#77=PLANE('',#644);
#78=PLANE('',#645);
#79=PLANE('',#646);
#80=PLANE('',#647);
#81=PLANE('',#648);
#82=PLANE('',#649);
#83=PLANE('',#650);
#84=PLANE('',#651);
#85=PLANE('',#652);
#86=PLANE('',#653);
#87=PLANE('',#654);
#88=PLANE('',#655);
#89=PLANE('',#656);
#90=PLANE('',#657);
#91=PLANE('',#658);
#92=PLANE('',#659);
#93=PLANE('',#660);
#94=FACE_OUTER_BOUND('',#124,.T.);
#95=FACE_OUTER_BOUND('',#125,.T.);
#96=FACE_OUTER_BOUND('',#126,.T.);
#97=FACE_OUTER_BOUND('',#127,.T.);
#98=FACE_OUTER_BOUND('',#128,.T.);
#99=FACE_OUTER_BOUND('',#129,.T.);
#100=FACE_OUTER_BOUND('',#130,.T.);
#101=FACE_OUTER_BOUND('',#131,.T.);
#102=FACE_OUTER_BOUND('',#132,.T.);
#103=FACE_OUTER_BOUND('',#133,.T.);
#104=FACE_OUTER_BOUND('',#134,.T.);
#105=FACE_OUTER_BOUND('',#135,.T.);
#106=FACE_OUTER_BOUND('',#136,.T.);
#107=FACE_OUTER_BOUND('',#137,.T.);
#108=FACE_OUTER_BOUND('',#138,.T.);
#109=FACE_OUTER_BOUND('',#139,.T.);
#110=FACE_OUTER_BOUND('',#140,.T.);
#111=FACE_OUTER_BOUND('',#141,.T.);
#112=FACE_OUTER_BOUND('',#142,.T.);
#113=FACE_OUTER_BOUND('',#143,.T.);
#114=FACE_OUTER_BOUND('',#144,.T.);
#115=FACE_OUTER_BOUND('',#145,.T.);
#116=FACE_OUTER_BOUND('',#146,.T.);
#117=FACE_OUTER_BOUND('',#147,.T.);
#118=FACE_OUTER_BOUND('',#148,.T.);
#119=FACE_OUTER_BOUND('',#149,.T.);
#120=FACE_OUTER_BOUND('',#150,.T.);
#121=FACE_OUTER_BOUND('',#151,.T.);
#122=FACE_OUTER_BOUND('',#152,.T.);
#123=FACE_OUTER_BOUND('',#153,.T.);
#124=EDGE_LOOP('',(#154,#155,#156,#157));
#125=EDGE_LOOP('',(#158,#159,#160,#161));
#126=EDGE_LOOP('',(#162,#163,#164,#165));
#127=EDGE_LOOP('',(#166,#167,#168,#169));
#128=EDGE_LOOP('',(#170,#171,#172,#173));
#129=EDGE_LOOP('',(#174,#175,#176,#177));
#130=EDGE_LOOP('',(#178,#179,#180,#181));
#131=EDGE_LOOP('',(#182,#183,#184,#185));
#132=EDGE_LOOP('',(#186,#187,#188,#189,#190,#191,#192,#193,#194,#195,#196,
#197,#198,#199,#200,#201,#202,#203,#204,#205,#206,#207,#208,#209,#210,#211,
#212,#213));
#133=EDGE_LOOP('',(#214,#215,#216,#217,#218,#219,#220,#221,#222,#223,#224,
#225,#226,#227,#228,#229,#230,#231,#232,#233,#234,#235,#236,#237,#238,#239,
#240,#241));
#134=EDGE_LOOP('',(#242,#243,#244,#245));
#135=EDGE_LOOP('',(#246,#247,#248,#249));
#136=EDGE_LOOP('',(#250,#251,#252,#253));
#137=EDGE_LOOP('',(#254,#255,#256,#257));
#138=EDGE_LOOP('',(#258,#259,#260,#261));
#139=EDGE_LOOP('',(#262,#263,#264,#265));
#140=EDGE_LOOP('',(#266,#267,#268,#269));
#141=EDGE_LOOP('',(#270,#271,#272,#273));
#142=EDGE_LOOP('',(#274,#275,#276,#277));
#143=EDGE_LOOP('',(#278,#279,#280,#281));
#144=EDGE_LOOP('',(#282,#283,#284,#285));
#145=EDGE_LOOP('',(#286,#287,#288,#289));
#146=EDGE_LOOP('',(#290,#291,#292,#293));
#147=EDGE_LOOP('',(#294,#295,#296,#297));
#148=EDGE_LOOP('',(#298,#299,#300,#301));
#149=EDGE_LOOP('',(#302,#303,#304,#305));
#150=EDGE_LOOP('',(#306,#307,#308,#309));
#151=EDGE_LOOP('',(#310,#311,#312,#313));
#152=EDGE_LOOP('',(#314,#315,#316,#317));
#153=EDGE_LOOP('',(#318,#319,#320,#321));
#154=ORIENTED_EDGE('',*,*,#378,.F.);
#155=ORIENTED_EDGE('',*,*,#379,.F.);
#156=ORIENTED_EDGE('',*,*,#380,.T.);
#157=ORIENTED_EDGE('',*,*,#381,.T.);
#158=ORIENTED_EDGE('',*,*,#382,.F.);
#159=ORIENTED_EDGE('',*,*,#383,.F.);
#160=ORIENTED_EDGE('',*,*,#384,.T.);
#161=ORIENTED_EDGE('',*,*,#385,.T.);
#162=ORIENTED_EDGE('',*,*,#386,.F.);
#163=ORIENTED_EDGE('',*,*,#387,.T.);
#164=ORIENTED_EDGE('',*,*,#388,.T.);
#165=ORIENTED_EDGE('',*,*,#389,.F.);
#166=ORIENTED_EDGE('',*,*,#390,.F.);
#167=ORIENTED_EDGE('',*,*,#391,.T.);
#168=ORIENTED_EDGE('',*,*,#392,.F.);
#169=ORIENTED_EDGE('',*,*,#393,.F.);
#170=ORIENTED_EDGE('',*,*,#394,.F.);
#171=ORIENTED_EDGE('',*,*,#395,.F.);
#172=ORIENTED_EDGE('',*,*,#396,.T.);
#173=ORIENTED_EDGE('',*,*,#397,.T.);
#174=ORIENTED_EDGE('',*,*,#398,.F.);
#175=ORIENTED_EDGE('',*,*,#399,.F.);
#176=ORIENTED_EDGE('',*,*,#400,.T.);
#177=ORIENTED_EDGE('',*,*,#401,.T.);
#178=ORIENTED_EDGE('',*,*,#402,.T.);
#179=ORIENTED_EDGE('',*,*,#403,.T.);
#180=ORIENTED_EDGE('',*,*,#404,.F.);
#181=ORIENTED_EDGE('',*,*,#405,.T.);
#182=ORIENTED_EDGE('',*,*,#406,.F.);
#183=ORIENTED_EDGE('',*,*,#407,.T.);
#184=ORIENTED_EDGE('',*,*,#408,.T.);
#185=ORIENTED_EDGE('',*,*,#409,.F.);
#186=ORIENTED_EDGE('',*,*,#406,.T.);
#187=ORIENTED_EDGE('',*,*,#410,.T.);
#188=ORIENTED_EDGE('',*,*,#411,.T.);
#189=ORIENTED_EDGE('',*,*,#379,.T.);
#190=ORIENTED_EDGE('',*,*,#412,.F.);
#191=ORIENTED_EDGE('',*,*,#413,.F.);
#192=ORIENTED_EDGE('',*,*,#404,.T.);
#193=ORIENTED_EDGE('',*,*,#414,.F.);
#194=ORIENTED_EDGE('',*,*,#415,.F.);
#195=ORIENTED_EDGE('',*,*,#416,.F.);
#196=ORIENTED_EDGE('',*,*,#389,.T.);
#197=ORIENTED_EDGE('',*,*,#417,.F.);
#198=ORIENTED_EDGE('',*,*,#418,.F.);
#199=ORIENTED_EDGE('',*,*,#419,.F.);
#200=ORIENTED_EDGE('',*,*,#393,.T.);
#201=ORIENTED_EDGE('',*,*,#420,.T.);
#202=ORIENTED_EDGE('',*,*,#421,.T.);
#203=ORIENTED_EDGE('',*,*,#383,.T.);
#204=ORIENTED_EDGE('',*,*,#422,.F.);
#205=ORIENTED_EDGE('',*,*,#423,.F.);
#206=ORIENTED_EDGE('',*,*,#399,.T.);
#207=ORIENTED_EDGE('',*,*,#424,.F.);
#208=ORIENTED_EDGE('',*,*,#425,.F.);
#209=ORIENTED_EDGE('',*,*,#426,.F.);
#210=ORIENTED_EDGE('',*,*,#395,.T.);
#211=ORIENTED_EDGE('',*,*,#427,.F.);
#212=ORIENTED_EDGE('',*,*,#428,.F.);
#213=ORIENTED_EDGE('',*,*,#429,.F.);
#214=ORIENTED_EDGE('',*,*,#381,.F.);
#215=ORIENTED_EDGE('',*,*,#430,.F.);
#216=ORIENTED_EDGE('',*,*,#431,.F.);
#217=ORIENTED_EDGE('',*,*,#408,.F.);
#218=ORIENTED_EDGE('',*,*,#432,.T.);
#219=ORIENTED_EDGE('',*,*,#433,.T.);
#220=ORIENTED_EDGE('',*,*,#434,.T.);
#221=ORIENTED_EDGE('',*,*,#397,.F.);
#222=ORIENTED_EDGE('',*,*,#435,.T.);
#223=ORIENTED_EDGE('',*,*,#436,.T.);
#224=ORIENTED_EDGE('',*,*,#437,.T.);
#225=ORIENTED_EDGE('',*,*,#401,.F.);
#226=ORIENTED_EDGE('',*,*,#438,.T.);
#227=ORIENTED_EDGE('',*,*,#439,.T.);
#228=ORIENTED_EDGE('',*,*,#385,.F.);
#229=ORIENTED_EDGE('',*,*,#440,.F.);
#230=ORIENTED_EDGE('',*,*,#441,.F.);
#231=ORIENTED_EDGE('',*,*,#391,.F.);
#232=ORIENTED_EDGE('',*,*,#442,.T.);
#233=ORIENTED_EDGE('',*,*,#443,.T.);
#234=ORIENTED_EDGE('',*,*,#444,.T.);
#235=ORIENTED_EDGE('',*,*,#387,.F.);
#236=ORIENTED_EDGE('',*,*,#445,.T.);
#237=ORIENTED_EDGE('',*,*,#446,.T.);
#238=ORIENTED_EDGE('',*,*,#447,.T.);
#239=ORIENTED_EDGE('',*,*,#402,.F.);
#240=ORIENTED_EDGE('',*,*,#448,.T.);
#241=ORIENTED_EDGE('',*,*,#449,.T.);
#242=ORIENTED_EDGE('',*,*,#437,.F.);
#243=ORIENTED_EDGE('',*,*,#450,.F.);
#244=ORIENTED_EDGE('',*,*,#424,.T.);
#245=ORIENTED_EDGE('',*,*,#398,.T.);
#246=ORIENTED_EDGE('',*,*,#435,.F.);
#247=ORIENTED_EDGE('',*,*,#396,.F.);
#248=ORIENTED_EDGE('',*,*,#426,.T.);
#249=ORIENTED_EDGE('',*,*,#451,.T.);
#250=ORIENTED_EDGE('',*,*,#436,.F.);
#251=ORIENTED_EDGE('',*,*,#451,.F.);
#252=ORIENTED_EDGE('',*,*,#425,.T.);
#253=ORIENTED_EDGE('',*,*,#450,.T.);
#254=ORIENTED_EDGE('',*,*,#434,.F.);
#255=ORIENTED_EDGE('',*,*,#452,.F.);
#256=ORIENTED_EDGE('',*,*,#427,.T.);
#257=ORIENTED_EDGE('',*,*,#394,.T.);
#258=ORIENTED_EDGE('',*,*,#432,.F.);
#259=ORIENTED_EDGE('',*,*,#407,.F.);
#260=ORIENTED_EDGE('',*,*,#429,.T.);
#261=ORIENTED_EDGE('',*,*,#453,.T.);
#262=ORIENTED_EDGE('',*,*,#433,.F.);
#263=ORIENTED_EDGE('',*,*,#453,.F.);
#264=ORIENTED_EDGE('',*,*,#428,.T.);
#265=ORIENTED_EDGE('',*,*,#452,.T.);
#266=ORIENTED_EDGE('',*,*,#442,.F.);
#267=ORIENTED_EDGE('',*,*,#390,.T.);
#268=ORIENTED_EDGE('',*,*,#419,.T.);
#269=ORIENTED_EDGE('',*,*,#454,.F.);
#270=ORIENTED_EDGE('',*,*,#444,.F.);
#271=ORIENTED_EDGE('',*,*,#455,.T.);
#272=ORIENTED_EDGE('',*,*,#417,.T.);
#273=ORIENTED_EDGE('',*,*,#388,.F.);
#274=ORIENTED_EDGE('',*,*,#443,.F.);
#275=ORIENTED_EDGE('',*,*,#454,.T.);
#276=ORIENTED_EDGE('',*,*,#418,.T.);
#277=ORIENTED_EDGE('',*,*,#455,.F.);
#278=ORIENTED_EDGE('',*,*,#445,.F.);
#279=ORIENTED_EDGE('',*,*,#386,.T.);
#280=ORIENTED_EDGE('',*,*,#416,.T.);
#281=ORIENTED_EDGE('',*,*,#456,.F.);
#282=ORIENTED_EDGE('',*,*,#447,.F.);
#283=ORIENTED_EDGE('',*,*,#457,.T.);
#284=ORIENTED_EDGE('',*,*,#414,.T.);
#285=ORIENTED_EDGE('',*,*,#403,.F.);
#286=ORIENTED_EDGE('',*,*,#446,.F.);
#287=ORIENTED_EDGE('',*,*,#456,.T.);
#288=ORIENTED_EDGE('',*,*,#415,.T.);
#289=ORIENTED_EDGE('',*,*,#457,.F.);
#290=ORIENTED_EDGE('',*,*,#431,.T.);
#291=ORIENTED_EDGE('',*,*,#458,.F.);
#292=ORIENTED_EDGE('',*,*,#410,.F.);
#293=ORIENTED_EDGE('',*,*,#409,.T.);
#294=ORIENTED_EDGE('',*,*,#430,.T.);
#295=ORIENTED_EDGE('',*,*,#380,.F.);
#296=ORIENTED_EDGE('',*,*,#411,.F.);
#297=ORIENTED_EDGE('',*,*,#458,.T.);
#298=ORIENTED_EDGE('',*,*,#441,.T.);
#299=ORIENTED_EDGE('',*,*,#459,.F.);
#300=ORIENTED_EDGE('',*,*,#420,.F.);
#301=ORIENTED_EDGE('',*,*,#392,.T.);
#302=ORIENTED_EDGE('',*,*,#440,.T.);
#303=ORIENTED_EDGE('',*,*,#384,.F.);
#304=ORIENTED_EDGE('',*,*,#421,.F.);
#305=ORIENTED_EDGE('',*,*,#459,.T.);
#306=ORIENTED_EDGE('',*,*,#438,.F.);
#307=ORIENTED_EDGE('',*,*,#400,.F.);
#308=ORIENTED_EDGE('',*,*,#423,.T.);
#309=ORIENTED_EDGE('',*,*,#460,.T.);
#310=ORIENTED_EDGE('',*,*,#439,.F.);
#311=ORIENTED_EDGE('',*,*,#460,.F.);
#312=ORIENTED_EDGE('',*,*,#422,.T.);
#313=ORIENTED_EDGE('',*,*,#382,.T.);
#314=ORIENTED_EDGE('',*,*,#448,.F.);
#315=ORIENTED_EDGE('',*,*,#405,.F.);
#316=ORIENTED_EDGE('',*,*,#413,.T.);
#317=ORIENTED_EDGE('',*,*,#461,.T.);
#318=ORIENTED_EDGE('',*,*,#449,.F.);
#319=ORIENTED_EDGE('',*,*,#461,.F.);
#320=ORIENTED_EDGE('',*,*,#412,.T.);
#321=ORIENTED_EDGE('',*,*,#378,.T.);
#322=VERTEX_POINT('',#809);
#323=VERTEX_POINT('',#810);
#324=VERTEX_POINT('',#812);
#325=VERTEX_POINT('',#814);
#326=VERTEX_POINT('',#818);
#327=VERTEX_POINT('',#819);
#328=VERTEX_POINT('',#821);
#329=VERTEX_POINT('',#823);
#330=VERTEX_POINT('',#827);
#331=VERTEX_POINT('',#828);
#332=VERTEX_POINT('',#830);
#333=VERTEX_POINT('',#832);
#334=VERTEX_POINT('',#836);
#335=VERTEX_POINT('',#837);
#336=VERTEX_POINT('',#839);
#337=VERTEX_POINT('',#841);
#338=VERTEX_POINT('',#845);
#339=VERTEX_POINT('',#846);
#340=VERTEX_POINT('',#848);
#341=VERTEX_POINT('',#850);
#342=VERTEX_POINT('',#854);
#343=VERTEX_POINT('',#855);
#344=VERTEX_POINT('',#857);
#345=VERTEX_POINT('',#859);
#346=VERTEX_POINT('',#863);
#347=VERTEX_POINT('',#864);
#348=VERTEX_POINT('',#866);
#349=VERTEX_POINT('',#868);
#350=VERTEX_POINT('',#872);
#351=VERTEX_POINT('',#873);
#352=VERTEX_POINT('',#875);
#353=VERTEX_POINT('',#877);
#354=VERTEX_POINT('',#881);
#355=VERTEX_POINT('',#884);
#356=VERTEX_POINT('',#887);
#357=VERTEX_POINT('',#889);
#358=VERTEX_POINT('',#892);
#359=VERTEX_POINT('',#894);
#360=VERTEX_POINT('',#897);
#361=VERTEX_POINT('',#900);
#362=VERTEX_POINT('',#903);
#363=VERTEX_POINT('',#905);
#364=VERTEX_POINT('',#908);
#365=VERTEX_POINT('',#910);
#366=VERTEX_POINT('',#914);
#367=VERTEX_POINT('',#917);
#368=VERTEX_POINT('',#919);
#369=VERTEX_POINT('',#922);
#370=VERTEX_POINT('',#924);
#371=VERTEX_POINT('',#927);
#372=VERTEX_POINT('',#930);
#373=VERTEX_POINT('',#933);
#374=VERTEX_POINT('',#935);
#375=VERTEX_POINT('',#938);
#376=VERTEX_POINT('',#940);
#377=VERTEX_POINT('',#943);
#378=EDGE_CURVE('',#322,#323,#462,.T.);
#379=EDGE_CURVE('',#324,#322,#463,.T.);
#380=EDGE_CURVE('',#324,#325,#464,.T.);
#381=EDGE_CURVE('',#325,#323,#465,.T.);
#382=EDGE_CURVE('',#326,#327,#466,.T.);
#383=EDGE_CURVE('',#328,#326,#467,.T.);
#384=EDGE_CURVE('',#328,#329,#468,.T.);
#385=EDGE_CURVE('',#329,#327,#469,.T.);
#386=EDGE_CURVE('',#330,#331,#470,.T.);
#387=EDGE_CURVE('',#330,#332,#471,.T.);
#388=EDGE_CURVE('',#332,#333,#472,.T.);
#389=EDGE_CURVE('',#331,#333,#473,.T.);
#390=EDGE_CURVE('',#334,#335,#474,.T.);
#391=EDGE_CURVE('',#334,#336,#475,.T.);
#392=EDGE_CURVE('',#337,#336,#476,.T.);
#393=EDGE_CURVE('',#335,#337,#477,.T.);
#394=EDGE_CURVE('',#338,#339,#478,.T.);
#395=EDGE_CURVE('',#340,#338,#479,.T.);
#396=EDGE_CURVE('',#340,#341,#480,.T.);
#397=EDGE_CURVE('',#341,#339,#481,.T.);
#398=EDGE_CURVE('',#342,#343,#482,.T.);
#399=EDGE_CURVE('',#344,#342,#483,.T.);
#400=EDGE_CURVE('',#344,#345,#484,.T.);
#401=EDGE_CURVE('',#345,#343,#485,.T.);
#402=EDGE_CURVE('',#346,#347,#486,.T.);
#403=EDGE_CURVE('',#347,#348,#487,.T.);
#404=EDGE_CURVE('',#349,#348,#488,.T.);
#405=EDGE_CURVE('',#349,#346,#489,.T.);
#406=EDGE_CURVE('',#350,#351,#490,.T.);
#407=EDGE_CURVE('',#350,#352,#491,.T.);
#408=EDGE_CURVE('',#352,#353,#492,.T.);
#409=EDGE_CURVE('',#351,#353,#493,.T.);
#410=EDGE_CURVE('',#351,#354,#494,.T.);
#411=EDGE_CURVE('',#354,#324,#495,.T.);
#412=EDGE_CURVE('',#355,#322,#496,.T.);
#413=EDGE_CURVE('',#349,#355,#497,.T.);
#414=EDGE_CURVE('',#356,#348,#498,.T.);
#415=EDGE_CURVE('',#357,#356,#499,.T.);
#416=EDGE_CURVE('',#331,#357,#500,.T.);
#417=EDGE_CURVE('',#358,#333,#501,.T.);
#418=EDGE_CURVE('',#359,#358,#502,.T.);
#419=EDGE_CURVE('',#335,#359,#503,.T.);
#420=EDGE_CURVE('',#337,#360,#504,.T.);
#421=EDGE_CURVE('',#360,#328,#505,.T.);
#422=EDGE_CURVE('',#361,#326,#506,.T.);
#423=EDGE_CURVE('',#344,#361,#507,.T.);
#424=EDGE_CURVE('',#362,#342,#508,.T.);
#425=EDGE_CURVE('',#363,#362,#509,.T.);
#426=EDGE_CURVE('',#340,#363,#510,.T.);
#427=EDGE_CURVE('',#364,#338,#511,.T.);
#428=EDGE_CURVE('',#365,#364,#512,.T.);
#429=EDGE_CURVE('',#350,#365,#513,.T.);
#430=EDGE_CURVE('',#366,#325,#514,.T.);
#431=EDGE_CURVE('',#353,#366,#515,.T.);
#432=EDGE_CURVE('',#352,#367,#516,.T.);
#433=EDGE_CURVE('',#367,#368,#517,.T.);
#434=EDGE_CURVE('',#368,#339,#518,.T.);
#435=EDGE_CURVE('',#341,#369,#519,.T.);
#436=EDGE_CURVE('',#369,#370,#520,.T.);
#437=EDGE_CURVE('',#370,#343,#521,.T.);
#438=EDGE_CURVE('',#345,#371,#522,.T.);
#439=EDGE_CURVE('',#371,#327,#523,.T.);
#440=EDGE_CURVE('',#372,#329,#524,.T.);
#441=EDGE_CURVE('',#336,#372,#525,.T.);
#442=EDGE_CURVE('',#334,#373,#526,.T.);
#443=EDGE_CURVE('',#373,#374,#527,.T.);
#444=EDGE_CURVE('',#374,#332,#528,.T.);
#445=EDGE_CURVE('',#330,#375,#529,.T.);
#446=EDGE_CURVE('',#375,#376,#530,.T.);
#447=EDGE_CURVE('',#376,#347,#531,.T.);
#448=EDGE_CURVE('',#346,#377,#532,.T.);
#449=EDGE_CURVE('',#377,#323,#533,.T.);
#450=EDGE_CURVE('',#362,#370,#534,.T.);
#451=EDGE_CURVE('',#363,#369,#535,.T.);
#452=EDGE_CURVE('',#364,#368,#536,.T.);
#453=EDGE_CURVE('',#365,#367,#537,.T.);
#454=EDGE_CURVE('',#373,#359,#538,.T.);
#455=EDGE_CURVE('',#374,#358,#539,.T.);
#456=EDGE_CURVE('',#375,#357,#540,.T.);
#457=EDGE_CURVE('',#376,#356,#541,.T.);
#458=EDGE_CURVE('',#354,#366,#542,.T.);
#459=EDGE_CURVE('',#360,#372,#543,.T.);
#460=EDGE_CURVE('',#361,#371,#544,.T.);
#461=EDGE_CURVE('',#355,#377,#545,.T.);
#462=LINE('',#808,#546);
#463=LINE('',#811,#547);
#464=LINE('',#813,#548);
#465=LINE('',#815,#549);
#466=LINE('',#817,#550);
#467=LINE('',#820,#551);
#468=LINE('',#822,#552);
#469=LINE('',#824,#553);
#470=LINE('',#826,#554);
#471=LINE('',#829,#555);
#472=LINE('',#831,#556);
#473=LINE('',#833,#557);
#474=LINE('',#835,#558);
#475=LINE('',#838,#559);
#476=LINE('',#840,#560);
#477=LINE('',#842,#561);
#478=LINE('',#844,#562);
#479=LINE('',#847,#563);
#480=LINE('',#849,#564);
#481=LINE('',#851,#565);
#482=LINE('',#853,#566);
#483=LINE('',#856,#567);
#484=LINE('',#858,#568);
#485=LINE('',#860,#569);
#486=LINE('',#862,#570);
#487=LINE('',#865,#571);
#488=LINE('',#867,#572);
#489=LINE('',#869,#573);
#490=LINE('',#871,#574);
#491=LINE('',#874,#575);
#492=LINE('',#876,#576);
#493=LINE('',#878,#577);
#494=LINE('',#880,#578);
#495=LINE('',#882,#579);
#496=LINE('',#883,#580);
#497=LINE('',#885,#581);
#498=LINE('',#886,#582);
#499=LINE('',#888,#583);
#500=LINE('',#890,#584);
#501=LINE('',#891,#585);
#502=LINE('',#893,#586);
#503=LINE('',#895,#587);
#504=LINE('',#896,#588);
#505=LINE('',#898,#589);
#506=LINE('',#899,#590);
#507=LINE('',#901,#591);
#508=LINE('',#902,#592);
#509=LINE('',#904,#593);
#510=LINE('',#906,#594);
#511=LINE('',#907,#595);
#512=LINE('',#909,#596);
#513=LINE('',#911,#597);
#514=LINE('',#913,#598);
#515=LINE('',#915,#599);
#516=LINE('',#916,#600);
#517=LINE('',#918,#601);
#518=LINE('',#920,#602);
#519=LINE('',#921,#603);
#520=LINE('',#923,#604);
#521=LINE('',#925,#605);
#522=LINE('',#926,#606);
#523=LINE('',#928,#607);
#524=LINE('',#929,#608);
#525=LINE('',#931,#609);
#526=LINE('',#932,#610);
#527=LINE('',#934,#611);
#528=LINE('',#936,#612);
#529=LINE('',#937,#613);
#530=LINE('',#939,#614);
#531=LINE('',#941,#615);
#532=LINE('',#942,#616);
#533=LINE('',#944,#617);
#534=LINE('',#946,#618);
#535=LINE('',#948,#619);
#536=LINE('',#951,#620);
#537=LINE('',#953,#621);
#538=LINE('',#956,#622);
#539=LINE('',#958,#623);
#540=LINE('',#961,#624);
#541=LINE('',#963,#625);
#542=LINE('',#966,#626);
#543=LINE('',#969,#627);
#544=LINE('',#972,#628);
#545=LINE('',#975,#629);
#546=VECTOR('',#663,1.);
#547=VECTOR('',#664,1.);
#548=VECTOR('',#665,1.);
#549=VECTOR('',#666,1.);
#550=VECTOR('',#669,1.);
#551=VECTOR('',#670,1.);
#552=VECTOR('',#671,1.);
#553=VECTOR('',#672,1.);
#554=VECTOR('',#675,1.);
#555=VECTOR('',#676,1.);
#556=VECTOR('',#677,1.);
#557=VECTOR('',#678,1.);
#558=VECTOR('',#681,1.);
#559=VECTOR('',#682,1.);
#560=VECTOR('',#683,1.);
#561=VECTOR('',#684,1.);
#562=VECTOR('',#687,1.);
#563=VECTOR('',#688,1.);
#564=VECTOR('',#689,1.);
#565=VECTOR('',#690,1.);
#566=VECTOR('',#693,1.);
#567=VECTOR('',#694,1.);
#568=VECTOR('',#695,1.);
#569=VECTOR('',#696,1.);
#570=VECTOR('',#699,1.);
#571=VECTOR('',#700,1.);
#572=VECTOR('',#701,1.);
#573=VECTOR('',#702,1.);
#574=VECTOR('',#705,1.);
#575=VECTOR('',#706,1.);
#576=VECTOR('',#707,1.);
#577=VECTOR('',#708,1.);
#578=VECTOR('',#711,1.);
#579=VECTOR('',#712,1.);
#580=VECTOR('',#713,1.);
#581=VECTOR('',#714,1.);
#582=VECTOR('',#715,1.);
#583=VECTOR('',#716,1.);
#584=VECTOR('',#717,1.);
#585=VECTOR('',#718,1.);
#586=VECTOR('',#719,1.);
#587=VECTOR('',#720,1.);
#588=VECTOR('',#721,1.);
#589=VECTOR('',#722,1.);
#590=VECTOR('',#723,1.);
#591=VECTOR('',#724,1.);
#592=VECTOR('',#725,1.);
#593=VECTOR('',#726,1.);
#594=VECTOR('',#727,1.);
#595=VECTOR('',#728,1.);
#596=VECTOR('',#729,1.);
#597=VECTOR('',#730,1.);
#598=VECTOR('',#733,1.);
#599=VECTOR('',#734,1.);
#600=VECTOR('',#735,1.);
#601=VECTOR('',#736,1.);
#602=VECTOR('',#737,1.);
#603=VECTOR('',#738,1.);
#604=VECTOR('',#739,1.);
#605=VECTOR('',#740,1.);
#606=VECTOR('',#741,1.);
#607=VECTOR('',#742,1.);
#608=VECTOR('',#743,1.);
#609=VECTOR('',#744,1.);
#610=VECTOR('',#745,1.);
#611=VECTOR('',#746,1.);
#612=VECTOR('',#747,1.);
#613=VECTOR('',#748,1.);
#614=VECTOR('',#749,1.);
#615=VECTOR('',#750,1.);
#616=VECTOR('',#751,1.);
#617=VECTOR('',#752,1.);
#618=VECTOR('',#755,1.);
#619=VECTOR('',#758,1.);
#620=VECTOR('',#763,1.);
#621=VECTOR('',#766,1.);
#622=VECTOR('',#771,1.);
#623=VECTOR('',#774,1.);
#624=VECTOR('',#779,1.);
#625=VECTOR('',#782,1.);
#626=VECTOR('',#787,1.);
#627=VECTOR('',#792,1.);
#628=VECTOR('',#797,1.);
#629=VECTOR('',#802,1.);
#630=AXIS2_PLACEMENT_3D('',#807,#661,#662);
#631=AXIS2_PLACEMENT_3D('',#816,#667,#668);
#632=AXIS2_PLACEMENT_3D('',#825,#673,#674);
#633=AXIS2_PLACEMENT_3D('',#834,#679,#680);
#634=AXIS2_PLACEMENT_3D('',#843,#685,#686);
#635=AXIS2_PLACEMENT_3D('',#852,#691,#692);
#636=AXIS2_PLACEMENT_3D('',#861,#697,#698);
#637=AXIS2_PLACEMENT_3D('',#870,#703,#704);
#638=AXIS2_PLACEMENT_3D('',#879,#709,#710);
#639=AXIS2_PLACEMENT_3D('',#912,#731,#732);
#640=AXIS2_PLACEMENT_3D('',#945,#753,#754);
#641=AXIS2_PLACEMENT_3D('',#947,#756,#757);
#642=AXIS2_PLACEMENT_3D('',#949,#759,#760);
#643=AXIS2_PLACEMENT_3D('',#950,#761,#762);
#644=AXIS2_PLACEMENT_3D('',#952,#764,#765);
#645=AXIS2_PLACEMENT_3D('',#954,#767,#768);
#646=AXIS2_PLACEMENT_3D('',#955,#769,#770);
#647=AXIS2_PLACEMENT_3D('',#957,#772,#773);
#648=AXIS2_PLACEMENT_3D('',#959,#775,#776);
#649=AXIS2_PLACEMENT_3D('',#960,#777,#778);
#650=AXIS2_PLACEMENT_3D('',#962,#780,#781);
#651=AXIS2_PLACEMENT_3D('',#964,#783,#784);
#652=AXIS2_PLACEMENT_3D('',#965,#785,#786);
#653=AXIS2_PLACEMENT_3D('',#967,#788,#789);
#654=AXIS2_PLACEMENT_3D('',#968,#790,#791);
#655=AXIS2_PLACEMENT_3D('',#970,#793,#794);
#656=AXIS2_PLACEMENT_3D('',#971,#795,#796);
#657=AXIS2_PLACEMENT_3D('',#973,#798,#799);
#658=AXIS2_PLACEMENT_3D('',#974,#800,#801);
#659=AXIS2_PLACEMENT_3D('',#976,#803,#804);
#660=AXIS2_PLACEMENT_3D('',#977,#805,#806);
#661=DIRECTION('',(0.,0.,1.));
#662=DIRECTION('',(1.,0.,0.));
#663=DIRECTION('',(0.,0.,-1.));
#664=DIRECTION('',(0.,1.,0.));
#665=DIRECTION('',(0.,0.,-1.));
#666=DIRECTION('',(0.,1.,0.));
#667=DIRECTION('',(-1.,0.,0.));
#668=DIRECTION('',(0.,0.,1.));
#669=DIRECTION('',(0.,0.,-1.));
#670=DIRECTION('',(3.55510131660375E-17,-1.,0.));
#671=DIRECTION('',(0.,0.,-1.));
#672=DIRECTION('',(3.55510131660375E-17,-1.,0.));
#673=DIRECTION('',(1.,3.55510131660375E-17,0.));
#674=DIRECTION('',(-3.55510131660375E-17,1.,0.));
#675=DIRECTION('',(0.,0.,1.));
#676=DIRECTION('',(-1.,1.32169407693471E-16,0.));
#677=DIRECTION('',(0.,0.,1.));
#678=DIRECTION('',(-1.,1.32169407693471E-16,0.));
#679=DIRECTION('',(-1.32169407693471E-16,-1.,0.));
#680=DIRECTION('',(1.,-1.38777878078145E-16,0.));
#681=DIRECTION('',(0.,0.,1.));
#682=DIRECTION('',(-1.,1.32169407693471E-16,0.));
#683=DIRECTION('',(0.,0.,-1.));
#684=DIRECTION('',(-1.,1.32169407693471E-16,0.));
#685=DIRECTION('',(-1.32169407693471E-16,-1.,0.));
#686=DIRECTION('',(1.,-1.38777878078145E-16,0.));
#687=DIRECTION('',(0.,0.,-1.));
#688=DIRECTION('',(1.,0.,0.));
#689=DIRECTION('',(0.,0.,-1.));
#690=DIRECTION('',(1.,0.,0.));
#691=DIRECTION('',(0.,1.,0.));
#692=DIRECTION('',(0.,0.,1.));
#693=DIRECTION('',(0.,0.,-1.));
#694=DIRECTION('',(1.,0.,0.));
#695=DIRECTION('',(0.,0.,-1.));
#696=DIRECTION('',(1.,0.,0.));
#697=DIRECTION('',(0.,1.,0.));
#698=DIRECTION('',(0.,0.,1.));
#699=DIRECTION('',(-1.,1.32169407693471E-16,0.));
#700=DIRECTION('',(0.,0.,1.));
#701=DIRECTION('',(-1.,1.32169407693471E-16,0.));
#702=DIRECTION('',(0.,0.,-1.));
#703=DIRECTION('',(-1.32169407693471E-16,-1.,0.));
#704=DIRECTION('',(1.,-1.38777878078145E-16,0.));
#705=DIRECTION('',(1.,0.,0.));
#706=DIRECTION('',(0.,0.,-1.));
#707=DIRECTION('',(1.,0.,0.));
#708=DIRECTION('',(0.,0.,-1.));
#709=DIRECTION('',(0.,1.,0.));
#710=DIRECTION('',(0.,0.,1.));
#711=DIRECTION('',(0.,1.,0.));
#712=DIRECTION('',(-1.,0.,0.));
#713=DIRECTION('',(-1.,0.,0.));
#714=DIRECTION('',(9.91270557701033E-16,-1.,0.));
#715=DIRECTION('',(7.11020263320749E-17,-1.,0.));
#716=DIRECTION('',(1.,-5.90022343661857E-17,0.));
#717=DIRECTION('',(-7.11020263320749E-17,1.,0.));
#718=DIRECTION('',(7.11020263320749E-17,-1.,0.));
#719=DIRECTION('',(1.,-5.90022343661856E-17,0.));
#720=DIRECTION('',(-7.11020263320749E-17,1.,0.));
#721=DIRECTION('',(1.42495142669523E-15,-1.,0.));
#722=DIRECTION('',(1.,0.,0.));
#723=DIRECTION('',(1.,0.,0.));
#724=DIRECTION('',(-2.78794844353415E-16,1.,0.));
#725=DIRECTION('',(0.,1.,0.));
#726=DIRECTION('',(-1.,-1.30104260698261E-16,0.));
#727=DIRECTION('',(0.,-1.,0.));
#728=DIRECTION('',(0.,1.,0.));
#729=DIRECTION('',(-1.,-1.30104260698261E-16,0.));
#730=DIRECTION('',(0.,-1.,0.));
#731=DIRECTION('',(0.,0.,1.));
#732=DIRECTION('',(1.,0.,0.));
#733=DIRECTION('',(-1.,0.,0.));
#734=DIRECTION('',(0.,1.,0.));
#735=DIRECTION('',(0.,-1.,0.));
#736=DIRECTION('',(-1.,-1.30104260698261E-16,0.));
#737=DIRECTION('',(0.,1.,0.));
#738=DIRECTION('',(0.,-1.,0.));
#739=DIRECTION('',(-1.,-1.30104260698261E-16,0.));
#740=DIRECTION('',(0.,1.,0.));
#741=DIRECTION('',(-2.78794844353415E-16,1.,0.));
#742=DIRECTION('',(1.,0.,0.));
#743=DIRECTION('',(1.,0.,0.));
#744=DIRECTION('',(1.42495142669523E-15,-1.,0.));
#745=DIRECTION('',(-7.11020263320749E-17,1.,0.));
#746=DIRECTION('',(1.,-5.90022343661856E-17,0.));
#747=DIRECTION('',(7.11020263320749E-17,-1.,0.));
#748=DIRECTION('',(-7.11020263320749E-17,1.,0.));
#749=DIRECTION('',(1.,-5.90022343661857E-17,0.));
#750=DIRECTION('',(7.11020263320749E-17,-1.,0.));
#751=DIRECTION('',(9.91270557701033E-16,-1.,0.));
#752=DIRECTION('',(-1.,0.,0.));
#753=DIRECTION('',(0.,0.,1.));
#754=DIRECTION('',(1.,0.,0.));
#755=DIRECTION('',(0.,0.,-1.));
#756=DIRECTION('',(-1.,0.,0.));
#757=DIRECTION('',(0.,0.,1.));
#758=DIRECTION('',(0.,0.,-1.));
#759=DIRECTION('',(1.,0.,0.));
#760=DIRECTION('',(0.,0.,-1.));
#761=DIRECTION('',(1.30104260698261E-16,-1.,0.));
#762=DIRECTION('',(1.,1.30104260698261E-16,0.));
#763=DIRECTION('',(0.,0.,-1.));
#764=DIRECTION('',(-1.,0.,0.));
#765=DIRECTION('',(0.,0.,1.));
#766=DIRECTION('',(0.,0.,-1.));
#767=DIRECTION('',(1.,0.,0.));
#768=DIRECTION('',(0.,0.,-1.));
#769=DIRECTION('',(1.30104260698261E-16,-1.,0.));
#770=DIRECTION('',(1.,1.30104260698261E-16,0.));
#771=DIRECTION('',(0.,0.,1.));
#772=DIRECTION('',(-1.,-7.11020263320749E-17,0.));
#773=DIRECTION('',(0.,0.,1.));
#774=DIRECTION('',(0.,0.,1.));
#775=DIRECTION('',(1.,7.11020263320749E-17,0.));
#776=DIRECTION('',(0.,0.,-1.));
#777=DIRECTION('',(5.90022343661856E-17,1.,0.));
#778=DIRECTION('',(1.,-5.55111512312578E-17,0.));
#779=DIRECTION('',(0.,0.,1.));
#780=DIRECTION('',(-1.,-7.11020263320749E-17,0.));
#781=DIRECTION('',(0.,0.,1.));
#782=DIRECTION('',(0.,0.,1.));
#783=DIRECTION('',(1.,7.11020263320749E-17,0.));
#784=DIRECTION('',(0.,0.,-1.));
#785=DIRECTION('',(5.90022343661857E-17,1.,0.));
#786=DIRECTION('',(1.,-5.55111512312578E-17,0.));
#787=DIRECTION('',(0.,0.,-1.));
#788=DIRECTION('',(-1.,0.,0.));
#789=DIRECTION('',(0.,0.,1.));
#790=DIRECTION('',(0.,-1.,0.));
#791=DIRECTION('',(0.,0.,-1.));
#792=DIRECTION('',(0.,0.,-1.));
#793=DIRECTION('',(1.,1.42495142669523E-15,0.));
#794=DIRECTION('',(-1.42507533551495E-15,1.,0.));
#795=DIRECTION('',(0.,1.,0.));
#796=DIRECTION('',(0.,0.,1.));
#797=DIRECTION('',(0.,0.,-1.));
#798=DIRECTION('',(-1.,-2.78794844353415E-16,0.));
#799=DIRECTION('',(2.78423117894278E-16,-1.,0.));
#800=DIRECTION('',(0.,1.,0.));
#801=DIRECTION('',(0.,0.,1.));
#802=DIRECTION('',(0.,0.,-1.));
#803=DIRECTION('',(1.,9.91270557701033E-16,0.));
#804=DIRECTION('',(-9.99200722162641E-16,1.,0.));
#805=DIRECTION('',(0.,-1.,0.));
#806=DIRECTION('',(0.,0.,-1.));
#807=CARTESIAN_POINT('',(0.,0.,0.));
#808=CARTESIAN_POINT('',(210.,96.,5.));
#809=CARTESIAN_POINT('',(210.,96.,5.));
#810=CARTESIAN_POINT('',(210.,96.,0.));
#811=CARTESIAN_POINT('',(210.,0.,5.));
#812=CARTESIAN_POINT('',(210.,56.,5.));
#813=CARTESIAN_POINT('',(210.,56.,5.));
#814=CARTESIAN_POINT('',(210.,56.,0.));
#815=CARTESIAN_POINT('',(210.,0.,0.));
#816=CARTESIAN_POINT('',(210.,0.,5.));
#817=CARTESIAN_POINT('',(-1.73472347597681E-15,56.,5.));
#818=CARTESIAN_POINT('',(-1.9908567372981E-15,56.,5.));
#819=CARTESIAN_POINT('',(-1.73472347597681E-15,56.,0.));
#820=CARTESIAN_POINT('',(-5.4037540012377E-15,152.,5.));
#821=CARTESIAN_POINT('',(-4.33680868994202E-15,96.,5.));
#822=CARTESIAN_POINT('',(-4.33680868994202E-15,96.,5.));
#823=CARTESIAN_POINT('',(-3.4128972639396E-15,96.,0.));
#824=CARTESIAN_POINT('',(-5.4037540012377E-15,152.,0.));
#825=CARTESIAN_POINT('',(-5.4037540012377E-15,152.,5.));
#826=CARTESIAN_POINT('',(125.,152.,5.));
#827=CARTESIAN_POINT('',(125.,152.,0.));
#828=CARTESIAN_POINT('',(125.,152.,5.));
#829=CARTESIAN_POINT('',(210.,152.,0.));
#830=CARTESIAN_POINT('',(85.,152.,0.));
#831=CARTESIAN_POINT('',(85.,152.,5.));
#832=CARTESIAN_POINT('',(85.,152.,5.));
#833=CARTESIAN_POINT('',(210.,152.,5.));
#834=CARTESIAN_POINT('',(210.,152.,5.));
#835=CARTESIAN_POINT('',(65.,152.,5.));
#836=CARTESIAN_POINT('',(65.,152.,0.));
#837=CARTESIAN_POINT('',(65.,152.,5.));
#838=CARTESIAN_POINT('',(210.,152.,0.));
#839=CARTESIAN_POINT('',(-5.00000000000008,152.,0.));
#840=CARTESIAN_POINT('',(-5.00000000000008,152.,5.));
#841=CARTESIAN_POINT('',(-5.00000000000008,152.,5.));
#842=CARTESIAN_POINT('',(210.,152.,5.));
#843=CARTESIAN_POINT('',(210.,152.,5.));
#844=CARTESIAN_POINT('',(125.,1.21430643318376E-14,5.));
#845=CARTESIAN_POINT('',(125.,1.21430643318376E-14,5.));
#846=CARTESIAN_POINT('',(125.,1.21430643318376E-14,0.));
#847=CARTESIAN_POINT('',(0.,0.,5.));
#848=CARTESIAN_POINT('',(85.,7.105427357601E-15,5.));
#849=CARTESIAN_POINT('',(85.,7.105427357601E-15,5.));
#850=CARTESIAN_POINT('',(85.,0.,0.));
#851=CARTESIAN_POINT('',(0.,0.,0.));
#852=CARTESIAN_POINT('',(0.,0.,5.));
#853=CARTESIAN_POINT('',(65.,-2.60208521396521E-15,5.));
#854=CARTESIAN_POINT('',(65.,-2.60208521396521E-15,5.));
#855=CARTESIAN_POINT('',(65.,-2.60208521396521E-15,0.));
#856=CARTESIAN_POINT('',(0.,0.,5.));
#857=CARTESIAN_POINT('',(-4.99999999999999,0.,5.));
#858=CARTESIAN_POINT('',(-4.99999999999999,0.,5.));
#859=CARTESIAN_POINT('',(-4.99999999999999,0.,0.));
#860=CARTESIAN_POINT('',(0.,0.,0.));
#861=CARTESIAN_POINT('',(0.,0.,5.));
#862=CARTESIAN_POINT('',(210.,152.,0.));
#863=CARTESIAN_POINT('',(215.,152.,0.));
#864=CARTESIAN_POINT('',(145.,152.,0.));
#865=CARTESIAN_POINT('',(145.,152.,5.));
#866=CARTESIAN_POINT('',(145.,152.,5.));
#867=CARTESIAN_POINT('',(210.,152.,5.));
#868=CARTESIAN_POINT('',(215.,152.,5.));
#869=CARTESIAN_POINT('',(215.,152.,5.));
#870=CARTESIAN_POINT('',(210.,152.,5.));
#871=CARTESIAN_POINT('',(0.,0.,5.));
#872=CARTESIAN_POINT('',(145.,7.13263913407845E-15,5.));
#873=CARTESIAN_POINT('',(215.,0.,5.));
#874=CARTESIAN_POINT('',(145.,7.13263913407845E-15,5.));
#875=CARTESIAN_POINT('',(145.,0.,0.));
#876=CARTESIAN_POINT('',(0.,0.,0.));
#877=CARTESIAN_POINT('',(215.,0.,0.));
#878=CARTESIAN_POINT('',(215.,0.,5.));
#879=CARTESIAN_POINT('',(0.,0.,5.));
#880=CARTESIAN_POINT('',(215.,0.,5.));
#881=CARTESIAN_POINT('',(215.,56.,5.));
#882=CARTESIAN_POINT('',(215.,56.,5.));
#883=CARTESIAN_POINT('',(215.,96.,5.));
#884=CARTESIAN_POINT('',(215.,96.,5.));
#885=CARTESIAN_POINT('',(215.,152.,5.));
#886=CARTESIAN_POINT('',(145.,152.,5.));
#887=CARTESIAN_POINT('',(145.,157.,5.));
#888=CARTESIAN_POINT('',(145.,157.,5.));
#889=CARTESIAN_POINT('',(125.,157.,5.));
#890=CARTESIAN_POINT('',(125.,157.,5.));
#891=CARTESIAN_POINT('',(85.,152.,5.));
#892=CARTESIAN_POINT('',(85.,157.,5.));
#893=CARTESIAN_POINT('',(85.,157.,5.));
#894=CARTESIAN_POINT('',(65.,157.,5.));
#895=CARTESIAN_POINT('',(65.,157.,5.));
#896=CARTESIAN_POINT('',(-5.00000000000008,152.,5.));
#897=CARTESIAN_POINT('',(-5.,96.,5.));
#898=CARTESIAN_POINT('',(-5.,96.,5.));
#899=CARTESIAN_POINT('',(-5.,56.,5.));
#900=CARTESIAN_POINT('',(-5.,56.,5.));
#901=CARTESIAN_POINT('',(-4.99999999999999,0.,5.));
#902=CARTESIAN_POINT('',(65.,-5.00000000000003,5.));
#903=CARTESIAN_POINT('',(65.,-5.00000000000003,5.));
#904=CARTESIAN_POINT('',(85.,-5.00000000000002,5.));
#905=CARTESIAN_POINT('',(85.,-5.00000000000002,5.));
#906=CARTESIAN_POINT('',(85.,7.105427357601E-15,5.));
#907=CARTESIAN_POINT('',(125.,-5.00000000000002,5.));
#908=CARTESIAN_POINT('',(125.,-5.00000000000002,5.));
#909=CARTESIAN_POINT('',(145.,-5.00000000000002,5.));
#910=CARTESIAN_POINT('',(145.,-5.00000000000002,5.));
#911=CARTESIAN_POINT('',(145.,7.105427357601E-15,5.));
#912=CARTESIAN_POINT('',(0.,0.,5.));
#913=CARTESIAN_POINT('',(215.,56.,0.));
#914=CARTESIAN_POINT('',(215.,56.,0.));
#915=CARTESIAN_POINT('',(215.,0.,0.));
#916=CARTESIAN_POINT('',(145.,7.105427357601E-15,0.));
#917=CARTESIAN_POINT('',(145.,-5.00000000000002,0.));
#918=CARTESIAN_POINT('',(145.,-5.00000000000002,0.));
#919=CARTESIAN_POINT('',(125.,-5.00000000000002,0.));
#920=CARTESIAN_POINT('',(125.,-5.00000000000002,0.));
#921=CARTESIAN_POINT('',(85.,7.105427357601E-15,0.));
#922=CARTESIAN_POINT('',(85.,-5.00000000000002,0.));
#923=CARTESIAN_POINT('',(85.,-5.00000000000002,0.));
#924=CARTESIAN_POINT('',(65.,-5.00000000000003,0.));
#925=CARTESIAN_POINT('',(65.,-5.00000000000003,0.));
#926=CARTESIAN_POINT('',(-4.99999999999999,0.,0.));
#927=CARTESIAN_POINT('',(-5.,56.,0.));
#928=CARTESIAN_POINT('',(-5.,56.,0.));
#929=CARTESIAN_POINT('',(-5.,96.,0.));
#930=CARTESIAN_POINT('',(-5.,96.,0.));
#931=CARTESIAN_POINT('',(-5.00000000000008,152.,0.));
#932=CARTESIAN_POINT('',(65.,157.,0.));
#933=CARTESIAN_POINT('',(65.,157.,0.));
#934=CARTESIAN_POINT('',(85.,157.,0.));
#935=CARTESIAN_POINT('',(85.,157.,0.));
#936=CARTESIAN_POINT('',(85.,152.,0.));
#937=CARTESIAN_POINT('',(125.,157.,0.));
#938=CARTESIAN_POINT('',(125.,157.,0.));
#939=CARTESIAN_POINT('',(145.,157.,0.));
#940=CARTESIAN_POINT('',(145.,157.,0.));
#941=CARTESIAN_POINT('',(145.,152.,0.));
#942=CARTESIAN_POINT('',(215.,152.,0.));
#943=CARTESIAN_POINT('',(215.,96.,0.));
#944=CARTESIAN_POINT('',(215.,96.,0.));
#945=CARTESIAN_POINT('',(0.,0.,0.));
#946=CARTESIAN_POINT('',(65.,-5.00000000000003,5.));
#947=CARTESIAN_POINT('',(65.,-5.00000000000003,5.));
#948=CARTESIAN_POINT('',(85.,-5.00000000000002,5.));
#949=CARTESIAN_POINT('',(85.,7.105427357601E-15,5.));
#950=CARTESIAN_POINT('',(85.,-5.00000000000002,5.));
#951=CARTESIAN_POINT('',(125.,-5.00000000000002,5.));
#952=CARTESIAN_POINT('',(125.,-5.00000000000002,5.));
#953=CARTESIAN_POINT('',(145.,-5.00000000000002,5.));
#954=CARTESIAN_POINT('',(145.,7.105427357601E-15,5.));
#955=CARTESIAN_POINT('',(145.,-5.00000000000002,5.));
#956=CARTESIAN_POINT('',(65.,157.,5.));
#957=CARTESIAN_POINT('',(65.,157.,5.));
#958=CARTESIAN_POINT('',(85.,157.,5.));
#959=CARTESIAN_POINT('',(85.,152.,5.));
#960=CARTESIAN_POINT('',(85.,157.,5.));
#961=CARTESIAN_POINT('',(125.,157.,5.));
#962=CARTESIAN_POINT('',(125.,157.,5.));
#963=CARTESIAN_POINT('',(145.,157.,5.));
#964=CARTESIAN_POINT('',(145.,152.,5.));
#965=CARTESIAN_POINT('',(145.,157.,5.));
#966=CARTESIAN_POINT('',(215.,56.,5.));
#967=CARTESIAN_POINT('',(215.,0.,5.));
#968=CARTESIAN_POINT('',(215.,56.,5.));
#969=CARTESIAN_POINT('',(-5.,96.,5.));
#970=CARTESIAN_POINT('',(-5.00000000000008,152.,5.));
#971=CARTESIAN_POINT('',(-5.,96.,5.));
#972=CARTESIAN_POINT('',(-5.,56.,5.));
#973=CARTESIAN_POINT('',(-4.99999999999999,0.,5.));
#974=CARTESIAN_POINT('',(-5.,56.,5.));
#975=CARTESIAN_POINT('',(215.,96.,5.));
#976=CARTESIAN_POINT('',(215.,152.,5.));
#977=CARTESIAN_POINT('',(215.,96.,5.));
#978=MECHANICAL_DESIGN_GEOMETRIC_PRESENTATION_REPRESENTATION('',(#24),#979);
#979=(
GEOMETRIC_REPRESENTATION_CONTEXT(3)
GLOBAL_UNCERTAINTY_ASSIGNED_CONTEXT((#980))
GLOBAL_UNIT_ASSIGNED_CONTEXT((#986,#982,#981))
REPRESENTATION_CONTEXT('Collector Frame Barcode Plate Back v1',
'TOP_LEVEL_ASSEMBLY_PART')
);
#980=UNCERTAINTY_MEASURE_WITH_UNIT(LENGTH_MEASURE(2.E-5),#986,
'DISTANCE_ACCURACY_VALUE','Maximum Tolerance applied to model');
#981=(
NAMED_UNIT(*)
SI_UNIT($,.STERADIAN.)
SOLID_ANGLE_UNIT()
);
#982=(
CONVERSION_BASED_UNIT('DEGREE',#984)
NAMED_UNIT(#983)
PLANE_ANGLE_UNIT()
);
#983=DIMENSIONAL_EXPONENTS(0.,0.,0.,0.,0.,0.,0.);
#984=PLANE_ANGLE_MEASURE_WITH_UNIT(PLANE_ANGLE_MEASURE(0.0174532925),#985);
#985=(
NAMED_UNIT(*)
PLANE_ANGLE_UNIT()
SI_UNIT($,.RADIAN.)
);
#986=(
LENGTH_UNIT()
NAMED_UNIT(*)
SI_UNIT(.MILLI.,.METRE.)
);
ENDSEC;
END-ISO-10303-21;
