ISO-10303-21;
HEADER;
/* Generated by software containing ST-Developer
 * from STEP Tools, Inc. (www.steptools.com) 
 */
/* OPTION: using custom schema-name function */

FILE_DESCRIPTION(
/* description */ (''),
/* implementation_level */ '2;1');

FILE_NAME(
/* name */ 'Collector Frame Guide Side Single v2.0.stp',
/* time_stamp */ '2021-05-19T12:36:33+02:00',
/* author */ (''),
/* organization */ (''),
/* preprocessor_version */ 'ST-DEVELOPER v16.7',
/* originating_system */ 'SIEMENS PLM Software NX 12.0',
/* authorisation */ '');

FILE_SCHEMA (('AUTOMOTIVE_DESIGN { 1 0 10303 214 3 1 1 1 }'));
ENDSEC;

DATA;
#10=SHAPE_REPRESENTATION_RELATIONSHIP('None',
'relationship between Collector Frame Guide Side Single v2.0-None and 
Collector Frame Guide Side Single v2.0-None',#22,#11);
#11=ADVANCED_BREP_SHAPE_REPRESENTATION(
'Collector Frame Guide Side Single v2.0-None',(#32),#655);
#12=SHAPE_DEFINITION_REPRESENTATION(#13,#22);
#13=PRODUCT_DEFINITION_SHAPE('','',#14);
#14=PRODUCT_DEFINITION(' ','',#16,#15);
#15=PRODUCT_DEFINITION_CONTEXT('part definition',#21,'design');
#16=PRODUCT_DEFINITION_FORMATION_WITH_SPECIFIED_SOURCE(' ',' ',#18,
 .NOT_KNOWN.);
#17=PRODUCT_RELATED_PRODUCT_CATEGORY('part','',(#18));
#18=PRODUCT('Collector Frame Guide Side Single v2.0',
'Collector Frame Guide Side Single v2.0',' ',(#19));
#19=PRODUCT_CONTEXT(' ',#21,'mechanical');
#20=APPLICATION_PROTOCOL_DEFINITION('international standard',
'automotive_design',2010,#21);
#21=APPLICATION_CONTEXT(
'core data for automotive mechanical design processes');
#22=SHAPE_REPRESENTATION('Collector Frame Guide Side Single v2.0-None',
(#422),#655);
#23=PRESENTATION_LAYER_ASSIGNMENT('1','Layer 1',(#32));
#24=STYLED_ITEM('',(#25),#32);
#25=PRESENTATION_STYLE_ASSIGNMENT((#26));
#26=SURFACE_STYLE_USAGE(.BOTH.,#27);
#27=SURFACE_SIDE_STYLE('',(#28));
#28=SURFACE_STYLE_FILL_AREA(#29);
#29=FILL_AREA_STYLE('',(#30));
#30=FILL_AREA_STYLE_COLOUR('',#31);
#31=COLOUR_RGB('Medium Gray',0.490196078431373,0.490196078431373,0.490196078431373);
#32=MANIFOLD_SOLID_BREP('',#33);
#33=CLOSED_SHELL('',(#41,#42,#43,#44,#45,#46,#47,#48,#49,#50,#51,#52,#53,
#54,#55,#56,#57,#58,#59,#60));
#34=CYLINDRICAL_SURFACE('',#436,20.);
#35=FACE_BOUND('',#103,.T.);
#36=FACE_BOUND('',#104,.T.);
#37=FACE_BOUND('',#105,.T.);
#38=FACE_BOUND('',#106,.T.);
#39=CIRCLE('',#428,20.);
#40=CIRCLE('',#430,20.);
#41=ADVANCED_FACE('',(#80),#61,.F.);
#42=ADVANCED_FACE('',(#81),#62,.F.);
#43=ADVANCED_FACE('',(#82),#63,.F.);
#44=ADVANCED_FACE('',(#83),#64,.F.);
#45=ADVANCED_FACE('',(#84),#65,.F.);
#46=ADVANCED_FACE('',(#35,#36),#66,.T.);
#47=ADVANCED_FACE('',(#37,#38),#67,.F.);
#48=ADVANCED_FACE('',(#85),#68,.T.);
#49=ADVANCED_FACE('',(#86),#69,.T.);
#50=ADVANCED_FACE('',(#87),#70,.T.);
#51=ADVANCED_FACE('',(#88),#71,.T.);
#52=ADVANCED_FACE('',(#89),#34,.T.);
#53=ADVANCED_FACE('',(#90),#72,.F.);
#54=ADVANCED_FACE('',(#91),#73,.F.);
#55=ADVANCED_FACE('',(#92),#74,.F.);
#56=ADVANCED_FACE('',(#93),#75,.F.);
#57=ADVANCED_FACE('',(#94),#76,.F.);
#58=ADVANCED_FACE('',(#95),#77,.F.);
#59=ADVANCED_FACE('',(#96),#78,.T.);
#60=ADVANCED_FACE('',(#97),#79,.T.);
#61=PLANE('',#423);
#62=PLANE('',#424);
#63=PLANE('',#425);
#64=PLANE('',#426);
#65=PLANE('',#427);
#66=PLANE('',#429);
#67=PLANE('',#431);
#68=PLANE('',#432);
#69=PLANE('',#433);
#70=PLANE('',#434);
#71=PLANE('',#435);
#72=PLANE('',#437);
#73=PLANE('',#438);
#74=PLANE('',#439);
#75=PLANE('',#440);
#76=PLANE('',#441);
#77=PLANE('',#442);
#78=PLANE('',#443);
#79=PLANE('',#444);
#80=FACE_OUTER_BOUND('',#98,.T.);
#81=FACE_OUTER_BOUND('',#99,.T.);
#82=FACE_OUTER_BOUND('',#100,.T.);
#83=FACE_OUTER_BOUND('',#101,.T.);
#84=FACE_OUTER_BOUND('',#102,.T.);
#85=FACE_OUTER_BOUND('',#107,.T.);
#86=FACE_OUTER_BOUND('',#108,.T.);
#87=FACE_OUTER_BOUND('',#109,.T.);
#88=FACE_OUTER_BOUND('',#110,.T.);
#89=FACE_OUTER_BOUND('',#111,.T.);
#90=FACE_OUTER_BOUND('',#112,.T.);
#91=FACE_OUTER_BOUND('',#113,.T.);
#92=FACE_OUTER_BOUND('',#114,.T.);
#93=FACE_OUTER_BOUND('',#115,.T.);
#94=FACE_OUTER_BOUND('',#116,.T.);
#95=FACE_OUTER_BOUND('',#117,.T.);
#96=FACE_OUTER_BOUND('',#118,.T.);
#97=FACE_OUTER_BOUND('',#119,.T.);
#98=EDGE_LOOP('',(#120,#121,#122,#123));
#99=EDGE_LOOP('',(#124,#125,#126,#127));
#100=EDGE_LOOP('',(#128,#129,#130,#131));
#101=EDGE_LOOP('',(#132,#133,#134,#135));
#102=EDGE_LOOP('',(#136,#137,#138,#139));
#103=EDGE_LOOP('',(#140,#141,#142,#143,#144,#145,#146,#147,#148,#149,#150,
#151,#152,#153));
#104=EDGE_LOOP('',(#154,#155,#156,#157));
#105=EDGE_LOOP('',(#158,#159,#160,#161));
#106=EDGE_LOOP('',(#162,#163,#164,#165,#166,#167,#168,#169,#170,#171,#172,
#173,#174,#175));
#107=EDGE_LOOP('',(#176,#177,#178,#179));
#108=EDGE_LOOP('',(#180,#181,#182,#183));
#109=EDGE_LOOP('',(#184,#185,#186,#187));
#110=EDGE_LOOP('',(#188,#189,#190,#191));
#111=EDGE_LOOP('',(#192,#193,#194,#195));
#112=EDGE_LOOP('',(#196,#197,#198,#199));
#113=EDGE_LOOP('',(#200,#201,#202,#203));
#114=EDGE_LOOP('',(#204,#205,#206,#207));
#115=EDGE_LOOP('',(#208,#209,#210,#211));
#116=EDGE_LOOP('',(#212,#213,#214,#215));
#117=EDGE_LOOP('',(#216,#217,#218,#219));
#118=EDGE_LOOP('',(#220,#221,#222,#223));
#119=EDGE_LOOP('',(#224,#225,#226,#227));
#120=ORIENTED_EDGE('',*,*,#264,.F.);
#121=ORIENTED_EDGE('',*,*,#265,.F.);
#122=ORIENTED_EDGE('',*,*,#266,.T.);
#123=ORIENTED_EDGE('',*,*,#267,.T.);
#124=ORIENTED_EDGE('',*,*,#268,.F.);
#125=ORIENTED_EDGE('',*,*,#269,.F.);
#126=ORIENTED_EDGE('',*,*,#270,.T.);
#127=ORIENTED_EDGE('',*,*,#271,.T.);
#128=ORIENTED_EDGE('',*,*,#272,.F.);
#129=ORIENTED_EDGE('',*,*,#273,.F.);
#130=ORIENTED_EDGE('',*,*,#274,.T.);
#131=ORIENTED_EDGE('',*,*,#275,.T.);
#132=ORIENTED_EDGE('',*,*,#276,.F.);
#133=ORIENTED_EDGE('',*,*,#277,.T.);
#134=ORIENTED_EDGE('',*,*,#278,.T.);
#135=ORIENTED_EDGE('',*,*,#279,.F.);
#136=ORIENTED_EDGE('',*,*,#280,.F.);
#137=ORIENTED_EDGE('',*,*,#281,.T.);
#138=ORIENTED_EDGE('',*,*,#282,.T.);
#139=ORIENTED_EDGE('',*,*,#266,.F.);
#140=ORIENTED_EDGE('',*,*,#283,.F.);
#141=ORIENTED_EDGE('',*,*,#284,.T.);
#142=ORIENTED_EDGE('',*,*,#285,.T.);
#143=ORIENTED_EDGE('',*,*,#286,.T.);
#144=ORIENTED_EDGE('',*,*,#287,.T.);
#145=ORIENTED_EDGE('',*,*,#288,.T.);
#146=ORIENTED_EDGE('',*,*,#289,.F.);
#147=ORIENTED_EDGE('',*,*,#276,.T.);
#148=ORIENTED_EDGE('',*,*,#290,.T.);
#149=ORIENTED_EDGE('',*,*,#280,.T.);
#150=ORIENTED_EDGE('',*,*,#265,.T.);
#151=ORIENTED_EDGE('',*,*,#291,.F.);
#152=ORIENTED_EDGE('',*,*,#292,.F.);
#153=ORIENTED_EDGE('',*,*,#273,.T.);
#154=ORIENTED_EDGE('',*,*,#293,.T.);
#155=ORIENTED_EDGE('',*,*,#294,.F.);
#156=ORIENTED_EDGE('',*,*,#269,.T.);
#157=ORIENTED_EDGE('',*,*,#295,.F.);
#158=ORIENTED_EDGE('',*,*,#296,.F.);
#159=ORIENTED_EDGE('',*,*,#297,.T.);
#160=ORIENTED_EDGE('',*,*,#271,.F.);
#161=ORIENTED_EDGE('',*,*,#298,.T.);
#162=ORIENTED_EDGE('',*,*,#282,.F.);
#163=ORIENTED_EDGE('',*,*,#299,.T.);
#164=ORIENTED_EDGE('',*,*,#278,.F.);
#165=ORIENTED_EDGE('',*,*,#300,.T.);
#166=ORIENTED_EDGE('',*,*,#301,.F.);
#167=ORIENTED_EDGE('',*,*,#302,.F.);
#168=ORIENTED_EDGE('',*,*,#303,.F.);
#169=ORIENTED_EDGE('',*,*,#304,.F.);
#170=ORIENTED_EDGE('',*,*,#305,.F.);
#171=ORIENTED_EDGE('',*,*,#306,.T.);
#172=ORIENTED_EDGE('',*,*,#275,.F.);
#173=ORIENTED_EDGE('',*,*,#307,.T.);
#174=ORIENTED_EDGE('',*,*,#308,.T.);
#175=ORIENTED_EDGE('',*,*,#267,.F.);
#176=ORIENTED_EDGE('',*,*,#306,.F.);
#177=ORIENTED_EDGE('',*,*,#309,.F.);
#178=ORIENTED_EDGE('',*,*,#283,.T.);
#179=ORIENTED_EDGE('',*,*,#272,.T.);
#180=ORIENTED_EDGE('',*,*,#298,.F.);
#181=ORIENTED_EDGE('',*,*,#270,.F.);
#182=ORIENTED_EDGE('',*,*,#294,.T.);
#183=ORIENTED_EDGE('',*,*,#310,.T.);
#184=ORIENTED_EDGE('',*,*,#297,.F.);
#185=ORIENTED_EDGE('',*,*,#311,.F.);
#186=ORIENTED_EDGE('',*,*,#295,.T.);
#187=ORIENTED_EDGE('',*,*,#268,.T.);
#188=ORIENTED_EDGE('',*,*,#300,.F.);
#189=ORIENTED_EDGE('',*,*,#277,.F.);
#190=ORIENTED_EDGE('',*,*,#289,.T.);
#191=ORIENTED_EDGE('',*,*,#312,.T.);
#192=ORIENTED_EDGE('',*,*,#290,.F.);
#193=ORIENTED_EDGE('',*,*,#279,.T.);
#194=ORIENTED_EDGE('',*,*,#299,.F.);
#195=ORIENTED_EDGE('',*,*,#281,.F.);
#196=ORIENTED_EDGE('',*,*,#284,.F.);
#197=ORIENTED_EDGE('',*,*,#309,.T.);
#198=ORIENTED_EDGE('',*,*,#305,.T.);
#199=ORIENTED_EDGE('',*,*,#313,.F.);
#200=ORIENTED_EDGE('',*,*,#310,.F.);
#201=ORIENTED_EDGE('',*,*,#293,.F.);
#202=ORIENTED_EDGE('',*,*,#311,.T.);
#203=ORIENTED_EDGE('',*,*,#296,.T.);
#204=ORIENTED_EDGE('',*,*,#303,.T.);
#205=ORIENTED_EDGE('',*,*,#314,.F.);
#206=ORIENTED_EDGE('',*,*,#286,.F.);
#207=ORIENTED_EDGE('',*,*,#315,.T.);
#208=ORIENTED_EDGE('',*,*,#302,.T.);
#209=ORIENTED_EDGE('',*,*,#316,.F.);
#210=ORIENTED_EDGE('',*,*,#287,.F.);
#211=ORIENTED_EDGE('',*,*,#314,.T.);
#212=ORIENTED_EDGE('',*,*,#312,.F.);
#213=ORIENTED_EDGE('',*,*,#288,.F.);
#214=ORIENTED_EDGE('',*,*,#316,.T.);
#215=ORIENTED_EDGE('',*,*,#301,.T.);
#216=ORIENTED_EDGE('',*,*,#304,.T.);
#217=ORIENTED_EDGE('',*,*,#315,.F.);
#218=ORIENTED_EDGE('',*,*,#285,.F.);
#219=ORIENTED_EDGE('',*,*,#313,.T.);
#220=ORIENTED_EDGE('',*,*,#307,.F.);
#221=ORIENTED_EDGE('',*,*,#274,.F.);
#222=ORIENTED_EDGE('',*,*,#292,.T.);
#223=ORIENTED_EDGE('',*,*,#317,.T.);
#224=ORIENTED_EDGE('',*,*,#308,.F.);
#225=ORIENTED_EDGE('',*,*,#317,.F.);
#226=ORIENTED_EDGE('',*,*,#291,.T.);
#227=ORIENTED_EDGE('',*,*,#264,.T.);
#228=VERTEX_POINT('',#545);
#229=VERTEX_POINT('',#546);
#230=VERTEX_POINT('',#548);
#231=VERTEX_POINT('',#550);
#232=VERTEX_POINT('',#554);
#233=VERTEX_POINT('',#555);
#234=VERTEX_POINT('',#557);
#235=VERTEX_POINT('',#559);
#236=VERTEX_POINT('',#563);
#237=VERTEX_POINT('',#564);
#238=VERTEX_POINT('',#566);
#239=VERTEX_POINT('',#568);
#240=VERTEX_POINT('',#572);
#241=VERTEX_POINT('',#573);
#242=VERTEX_POINT('',#575);
#243=VERTEX_POINT('',#577);
#244=VERTEX_POINT('',#581);
#245=VERTEX_POINT('',#583);
#246=VERTEX_POINT('',#587);
#247=VERTEX_POINT('',#589);
#248=VERTEX_POINT('',#591);
#249=VERTEX_POINT('',#593);
#250=VERTEX_POINT('',#595);
#251=VERTEX_POINT('',#597);
#252=VERTEX_POINT('',#601);
#253=VERTEX_POINT('',#604);
#254=VERTEX_POINT('',#605);
#255=VERTEX_POINT('',#610);
#256=VERTEX_POINT('',#611);
#257=VERTEX_POINT('',#616);
#258=VERTEX_POINT('',#618);
#259=VERTEX_POINT('',#620);
#260=VERTEX_POINT('',#622);
#261=VERTEX_POINT('',#624);
#262=VERTEX_POINT('',#626);
#263=VERTEX_POINT('',#629);
#264=EDGE_CURVE('',#228,#229,#318,.T.);
#265=EDGE_CURVE('',#230,#228,#319,.T.);
#266=EDGE_CURVE('',#230,#231,#320,.T.);
#267=EDGE_CURVE('',#231,#229,#321,.T.);
#268=EDGE_CURVE('',#232,#233,#322,.T.);
#269=EDGE_CURVE('',#234,#232,#323,.T.);
#270=EDGE_CURVE('',#234,#235,#324,.T.);
#271=EDGE_CURVE('',#235,#233,#325,.T.);
#272=EDGE_CURVE('',#236,#237,#326,.T.);
#273=EDGE_CURVE('',#238,#236,#327,.T.);
#274=EDGE_CURVE('',#238,#239,#328,.T.);
#275=EDGE_CURVE('',#239,#237,#329,.T.);
#276=EDGE_CURVE('',#240,#241,#330,.T.);
#277=EDGE_CURVE('',#240,#242,#331,.T.);
#278=EDGE_CURVE('',#242,#243,#332,.T.);
#279=EDGE_CURVE('',#241,#243,#333,.T.);
#280=EDGE_CURVE('',#244,#230,#334,.T.);
#281=EDGE_CURVE('',#244,#245,#335,.T.);
#282=EDGE_CURVE('',#245,#231,#336,.T.);
#283=EDGE_CURVE('',#246,#236,#337,.T.);
#284=EDGE_CURVE('',#246,#247,#338,.T.);
#285=EDGE_CURVE('',#247,#248,#339,.T.);
#286=EDGE_CURVE('',#248,#249,#340,.T.);
#287=EDGE_CURVE('',#249,#250,#341,.T.);
#288=EDGE_CURVE('',#250,#251,#342,.T.);
#289=EDGE_CURVE('',#240,#251,#343,.T.);
#290=EDGE_CURVE('',#241,#244,#39,.T.);
#291=EDGE_CURVE('',#252,#228,#344,.T.);
#292=EDGE_CURVE('',#238,#252,#345,.T.);
#293=EDGE_CURVE('',#253,#254,#346,.T.);
#294=EDGE_CURVE('',#234,#254,#347,.T.);
#295=EDGE_CURVE('',#253,#232,#348,.T.);
#296=EDGE_CURVE('',#255,#256,#349,.T.);
#297=EDGE_CURVE('',#255,#233,#350,.T.);
#298=EDGE_CURVE('',#235,#256,#351,.T.);
#299=EDGE_CURVE('',#245,#243,#40,.T.);
#300=EDGE_CURVE('',#242,#257,#352,.T.);
#301=EDGE_CURVE('',#258,#257,#353,.T.);
#302=EDGE_CURVE('',#259,#258,#354,.T.);
#303=EDGE_CURVE('',#260,#259,#355,.T.);
#304=EDGE_CURVE('',#261,#260,#356,.T.);
#305=EDGE_CURVE('',#262,#261,#357,.T.);
#306=EDGE_CURVE('',#262,#237,#358,.T.);
#307=EDGE_CURVE('',#239,#263,#359,.T.);
#308=EDGE_CURVE('',#263,#229,#360,.T.);
#309=EDGE_CURVE('',#246,#262,#361,.T.);
#310=EDGE_CURVE('',#254,#256,#362,.T.);
#311=EDGE_CURVE('',#253,#255,#363,.T.);
#312=EDGE_CURVE('',#251,#257,#364,.T.);
#313=EDGE_CURVE('',#247,#261,#365,.T.);
#314=EDGE_CURVE('',#249,#259,#366,.T.);
#315=EDGE_CURVE('',#248,#260,#367,.T.);
#316=EDGE_CURVE('',#250,#258,#368,.T.);
#317=EDGE_CURVE('',#252,#263,#369,.T.);
#318=LINE('',#544,#370);
#319=LINE('',#547,#371);
#320=LINE('',#549,#372);
#321=LINE('',#551,#373);
#322=LINE('',#553,#374);
#323=LINE('',#556,#375);
#324=LINE('',#558,#376);
#325=LINE('',#560,#377);
#326=LINE('',#562,#378);
#327=LINE('',#565,#379);
#328=LINE('',#567,#380);
#329=LINE('',#569,#381);
#330=LINE('',#571,#382);
#331=LINE('',#574,#383);
#332=LINE('',#576,#384);
#333=LINE('',#578,#385);
#334=LINE('',#580,#386);
#335=LINE('',#582,#387);
#336=LINE('',#584,#388);
#337=LINE('',#586,#389);
#338=LINE('',#588,#390);
#339=LINE('',#590,#391);
#340=LINE('',#592,#392);
#341=LINE('',#594,#393);
#342=LINE('',#596,#394);
#343=LINE('',#598,#395);
#344=LINE('',#600,#396);
#345=LINE('',#602,#397);
#346=LINE('',#603,#398);
#347=LINE('',#606,#399);
#348=LINE('',#607,#400);
#349=LINE('',#609,#401);
#350=LINE('',#612,#402);
#351=LINE('',#613,#403);
#352=LINE('',#615,#404);
#353=LINE('',#617,#405);
#354=LINE('',#619,#406);
#355=LINE('',#621,#407);
#356=LINE('',#623,#408);
#357=LINE('',#625,#409);
#358=LINE('',#627,#410);
#359=LINE('',#628,#411);
#360=LINE('',#630,#412);
#361=LINE('',#632,#413);
#362=LINE('',#634,#414);
#363=LINE('',#636,#415);
#364=LINE('',#638,#416);
#365=LINE('',#641,#417);
#366=LINE('',#644,#418);
#367=LINE('',#645,#419);
#368=LINE('',#647,#420);
#369=LINE('',#651,#421);
#370=VECTOR('',#447,1.);
#371=VECTOR('',#448,1.);
#372=VECTOR('',#449,1.);
#373=VECTOR('',#450,1.);
#374=VECTOR('',#453,1.);
#375=VECTOR('',#454,1.);
#376=VECTOR('',#455,1.);
#377=VECTOR('',#456,1.);
#378=VECTOR('',#459,1.);
#379=VECTOR('',#460,1.);
#380=VECTOR('',#461,1.);
#381=VECTOR('',#462,1.);
#382=VECTOR('',#465,1.);
#383=VECTOR('',#466,1.);
#384=VECTOR('',#467,1.);
#385=VECTOR('',#468,1.);
#386=VECTOR('',#471,1.);
#387=VECTOR('',#472,1.);
#388=VECTOR('',#473,1.);
#389=VECTOR('',#476,1.);
#390=VECTOR('',#477,1.);
#391=VECTOR('',#478,1.);
#392=VECTOR('',#479,1.);
#393=VECTOR('',#480,1.);
#394=VECTOR('',#481,1.);
#395=VECTOR('',#482,1.);
#396=VECTOR('',#485,1.);
#397=VECTOR('',#486,1.);
#398=VECTOR('',#487,1.);
#399=VECTOR('',#488,1.);
#400=VECTOR('',#489,1.);
#401=VECTOR('',#492,1.);
#402=VECTOR('',#493,1.);
#403=VECTOR('',#494,1.);
#404=VECTOR('',#497,1.);
#405=VECTOR('',#498,1.);
#406=VECTOR('',#499,1.);
#407=VECTOR('',#500,1.);
#408=VECTOR('',#501,1.);
#409=VECTOR('',#502,1.);
#410=VECTOR('',#503,1.);
#411=VECTOR('',#504,1.);
#412=VECTOR('',#505,1.);
#413=VECTOR('',#508,1.);
#414=VECTOR('',#511,1.);
#415=VECTOR('',#514,1.);
#416=VECTOR('',#517,1.);
#417=VECTOR('',#522,1.);
#418=VECTOR('',#527,1.);
#419=VECTOR('',#528,1.);
#420=VECTOR('',#531,1.);
#421=VECTOR('',#538,1.);
#422=AXIS2_PLACEMENT_3D('',#543,#445,#446);
#423=AXIS2_PLACEMENT_3D('',#552,#451,#452);
#424=AXIS2_PLACEMENT_3D('',#561,#457,#458);
#425=AXIS2_PLACEMENT_3D('',#570,#463,#464);
#426=AXIS2_PLACEMENT_3D('',#579,#469,#470);
#427=AXIS2_PLACEMENT_3D('',#585,#474,#475);
#428=AXIS2_PLACEMENT_3D('',#599,#483,#484);
#429=AXIS2_PLACEMENT_3D('',#608,#490,#491);
#430=AXIS2_PLACEMENT_3D('',#614,#495,#496);
#431=AXIS2_PLACEMENT_3D('',#631,#506,#507);
#432=AXIS2_PLACEMENT_3D('',#633,#509,#510);
#433=AXIS2_PLACEMENT_3D('',#635,#512,#513);
#434=AXIS2_PLACEMENT_3D('',#637,#515,#516);
#435=AXIS2_PLACEMENT_3D('',#639,#518,#519);
#436=AXIS2_PLACEMENT_3D('',#640,#520,#521);
#437=AXIS2_PLACEMENT_3D('',#642,#523,#524);
#438=AXIS2_PLACEMENT_3D('',#643,#525,#526);
#439=AXIS2_PLACEMENT_3D('',#646,#529,#530);
#440=AXIS2_PLACEMENT_3D('',#648,#532,#533);
#441=AXIS2_PLACEMENT_3D('',#649,#534,#535);
#442=AXIS2_PLACEMENT_3D('',#650,#536,#537);
#443=AXIS2_PLACEMENT_3D('',#652,#539,#540);
#444=AXIS2_PLACEMENT_3D('',#653,#541,#542);
#445=DIRECTION('',(0.,0.,1.));
#446=DIRECTION('',(1.,0.,0.));
#447=DIRECTION('',(0.,0.,-1.));
#448=DIRECTION('',(-6.12323399573671E-18,-1.,0.));
#449=DIRECTION('',(0.,0.,-1.));
#450=DIRECTION('',(-6.12323399573671E-18,-1.,0.));
#451=DIRECTION('',(1.,-6.12323399573671E-18,0.));
#452=DIRECTION('',(6.12323399573671E-18,1.,0.));
#453=DIRECTION('',(0.,0.,-1.));
#454=DIRECTION('',(1.,0.,0.));
#455=DIRECTION('',(0.,0.,-1.));
#456=DIRECTION('',(1.,0.,0.));
#457=DIRECTION('',(0.,1.,0.));
#458=DIRECTION('',(0.,0.,1.));
#459=DIRECTION('',(0.,0.,-1.));
#460=DIRECTION('',(1.,0.,0.));
#461=DIRECTION('',(0.,0.,-1.));
#462=DIRECTION('',(1.,0.,0.));
#463=DIRECTION('',(0.,1.,0.));
#464=DIRECTION('',(0.,0.,1.));
#465=DIRECTION('',(1.,0.,0.));
#466=DIRECTION('',(0.,0.,-1.));
#467=DIRECTION('',(1.,0.,0.));
#468=DIRECTION('',(0.,0.,-1.));
#469=DIRECTION('',(0.,1.,0.));
#470=DIRECTION('',(0.,0.,1.));
#471=DIRECTION('',(-1.,-1.23908819712629E-16,0.));
#472=DIRECTION('',(0.,0.,-1.));
#473=DIRECTION('',(-1.,-1.23908819712629E-16,0.));
#474=DIRECTION('',(1.23908819712629E-16,-1.,0.));
#475=DIRECTION('',(1.,1.23165366794353E-16,0.));
#476=DIRECTION('',(0.,1.,0.));
#477=DIRECTION('',(-1.,-1.73472347597681E-16,0.));
#478=DIRECTION('',(0.,-1.,0.));
#479=DIRECTION('',(1.,1.73472347597681E-16,0.));
#480=DIRECTION('',(0.,1.,0.));
#481=DIRECTION('',(-1.,-1.73472347597681E-16,0.));
#482=DIRECTION('',(0.,-1.,0.));
#483=DIRECTION('',(0.,0.,1.));
#484=DIRECTION('',(1.,0.,0.));
#485=DIRECTION('',(1.,5.20417042793042E-16,0.));
#486=DIRECTION('',(-8.67361737988404E-16,1.,0.));
#487=DIRECTION('',(-1.,-1.73472347597681E-16,0.));
#488=DIRECTION('',(0.,-1.,0.));
#489=DIRECTION('',(0.,1.,0.));
#490=DIRECTION('',(0.,0.,1.));
#491=DIRECTION('',(1.,0.,0.));
#492=DIRECTION('',(-1.,-1.73472347597681E-16,0.));
#493=DIRECTION('',(0.,1.,0.));
#494=DIRECTION('',(0.,-1.,0.));
#495=DIRECTION('',(0.,0.,-1.));
#496=DIRECTION('',(1.,0.,0.));
#497=DIRECTION('',(0.,-1.,0.));
#498=DIRECTION('',(-1.,-1.73472347597681E-16,0.));
#499=DIRECTION('',(0.,1.,0.));
#500=DIRECTION('',(1.,1.73472347597681E-16,0.));
#501=DIRECTION('',(0.,-1.,0.));
#502=DIRECTION('',(-1.,-1.73472347597681E-16,0.));
#503=DIRECTION('',(0.,1.,0.));
#504=DIRECTION('',(-8.67361737988404E-16,1.,0.));
#505=DIRECTION('',(1.,5.20417042793042E-16,0.));
#506=DIRECTION('',(0.,0.,1.));
#507=DIRECTION('',(1.,0.,0.));
#508=DIRECTION('',(0.,0.,-1.));
#509=DIRECTION('',(-1.,0.,0.));
#510=DIRECTION('',(0.,0.,1.));
#511=DIRECTION('',(0.,0.,-1.));
#512=DIRECTION('',(1.,0.,0.));
#513=DIRECTION('',(0.,0.,-1.));
#514=DIRECTION('',(0.,0.,-1.));
#515=DIRECTION('',(-1.,0.,0.));
#516=DIRECTION('',(0.,0.,1.));
#517=DIRECTION('',(0.,0.,-1.));
#518=DIRECTION('',(1.,0.,0.));
#519=DIRECTION('',(0.,0.,-1.));
#520=DIRECTION('',(0.,0.,-1.));
#521=DIRECTION('',(-1.,0.,0.));
#522=DIRECTION('',(0.,0.,-1.));
#523=DIRECTION('',(1.73472347597681E-16,-1.,0.));
#524=DIRECTION('',(1.,1.73472347597681E-16,0.));
#525=DIRECTION('',(1.73472347597681E-16,-1.,0.));
#526=DIRECTION('',(1.,1.73472347597681E-16,0.));
#527=DIRECTION('',(0.,0.,-1.));
#528=DIRECTION('',(0.,0.,-1.));
#529=DIRECTION('',(-1.73472347597681E-16,1.,0.));
#530=DIRECTION('',(-1.,-1.73472347597681E-16,0.));
#531=DIRECTION('',(0.,0.,-1.));
#532=DIRECTION('',(-1.,0.,0.));
#533=DIRECTION('',(0.,0.,1.));
#534=DIRECTION('',(1.73472347597681E-16,-1.,0.));
#535=DIRECTION('',(1.,1.73472347597681E-16,0.));
#536=DIRECTION('',(1.,0.,0.));
#537=DIRECTION('',(0.,0.,-1.));
#538=DIRECTION('',(0.,0.,-1.));
#539=DIRECTION('',(-1.,-8.67361737988404E-16,0.));
#540=DIRECTION('',(8.67361737988404E-16,-1.,0.));
#541=DIRECTION('',(-5.20417042793042E-16,1.,0.));
#542=DIRECTION('',(-1.,-5.20417042793042E-16,0.));
#543=CARTESIAN_POINT('',(0.,0.,0.));
#544=CARTESIAN_POINT('',(-8.67361737988404E-16,5.,5.));
#545=CARTESIAN_POINT('',(3.06161699786836E-17,5.,5.));
#546=CARTESIAN_POINT('',(-8.67361737988404E-16,5.,0.));
#547=CARTESIAN_POINT('',(6.12323399573672E-17,10.,5.));
#548=CARTESIAN_POINT('',(0.,10.,5.));
#549=CARTESIAN_POINT('',(0.,10.,5.));
#550=CARTESIAN_POINT('',(0.,10.,0.));
#551=CARTESIAN_POINT('',(6.12323399573672E-17,10.,0.));
#552=CARTESIAN_POINT('',(6.12323399573672E-17,10.,5.));
#553=CARTESIAN_POINT('',(300.,8.84708972748172E-14,5.));
#554=CARTESIAN_POINT('',(300.,8.84708972748172E-14,5.));
#555=CARTESIAN_POINT('',(300.,8.84708972748172E-14,0.));
#556=CARTESIAN_POINT('',(0.,0.,5.));
#557=CARTESIAN_POINT('',(280.,1.29674049276218E-13,5.));
#558=CARTESIAN_POINT('',(280.,1.29674049276218E-13,5.));
#559=CARTESIAN_POINT('',(280.,0.,0.));
#560=CARTESIAN_POINT('',(0.,0.,0.));
#561=CARTESIAN_POINT('',(0.,0.,5.));
#562=CARTESIAN_POINT('',(260.,1.65666091955785E-13,5.));
#563=CARTESIAN_POINT('',(260.,1.65666091955785E-13,5.));
#564=CARTESIAN_POINT('',(260.,1.65666091955785E-13,0.));
#565=CARTESIAN_POINT('',(0.,0.,5.));
#566=CARTESIAN_POINT('',(-5.,0.,5.));
#567=CARTESIAN_POINT('',(-5.,0.,5.));
#568=CARTESIAN_POINT('',(-5.,0.,0.));
#569=CARTESIAN_POINT('',(0.,0.,0.));
#570=CARTESIAN_POINT('',(0.,0.,5.));
#571=CARTESIAN_POINT('',(0.,0.,5.));
#572=CARTESIAN_POINT('',(320.,1.03028696685215E-13,5.));
#573=CARTESIAN_POINT('',(420.,0.,5.));
#574=CARTESIAN_POINT('',(320.,1.03028696685215E-13,5.));
#575=CARTESIAN_POINT('',(320.,0.,0.));
#576=CARTESIAN_POINT('',(0.,0.,0.));
#577=CARTESIAN_POINT('',(420.,0.,0.));
#578=CARTESIAN_POINT('',(420.,0.,5.));
#579=CARTESIAN_POINT('',(0.,0.,5.));
#580=CARTESIAN_POINT('',(420.,10.0000000000001,5.));
#581=CARTESIAN_POINT('',(402.679491924311,10.0000000000001,5.));
#582=CARTESIAN_POINT('',(402.679491924311,10.0000000000001,5.));
#583=CARTESIAN_POINT('',(402.679491924311,10.0000000000001,0.));
#584=CARTESIAN_POINT('',(420.,10.0000000000001,0.));
#585=CARTESIAN_POINT('',(420.,10.0000000000001,5.));
#586=CARTESIAN_POINT('',(260.,-4.99999999999993,5.));
#587=CARTESIAN_POINT('',(260.,-4.99999999999993,5.));
#588=CARTESIAN_POINT('',(325.,-4.99999999999999,5.));
#589=CARTESIAN_POINT('',(255.,-5.,5.));
#590=CARTESIAN_POINT('',(255.,-5.,5.));
#591=CARTESIAN_POINT('',(255.,-10.0000000000001,5.));
#592=CARTESIAN_POINT('',(255.,-10.0000000000001,5.));
#593=CARTESIAN_POINT('',(325.,-10.,5.));
#594=CARTESIAN_POINT('',(325.,-10.,5.));
#595=CARTESIAN_POINT('',(325.,-4.99999999999999,5.));
#596=CARTESIAN_POINT('',(325.,-4.99999999999999,5.));
#597=CARTESIAN_POINT('',(320.,-4.99999999999992,5.));
#598=CARTESIAN_POINT('',(320.,1.03028696685215E-13,5.));
#599=CARTESIAN_POINT('',(402.679491924311,-9.99999999999994,5.));
#600=CARTESIAN_POINT('',(-5.,5.,5.));
#601=CARTESIAN_POINT('',(-5.,5.,5.));
#602=CARTESIAN_POINT('',(-5.,0.,5.));
#603=CARTESIAN_POINT('',(325.,-4.99999999999999,5.));
#604=CARTESIAN_POINT('',(300.,-4.99999999999993,5.));
#605=CARTESIAN_POINT('',(280.,-4.99999999999993,5.));
#606=CARTESIAN_POINT('',(280.,1.29674049276218E-13,5.));
#607=CARTESIAN_POINT('',(300.,-4.99999999999993,5.));
#608=CARTESIAN_POINT('',(0.,0.,5.));
#609=CARTESIAN_POINT('',(325.,-4.99999999999999,0.));
#610=CARTESIAN_POINT('',(300.,-5.,0.));
#611=CARTESIAN_POINT('',(280.,-4.99999999999993,0.));
#612=CARTESIAN_POINT('',(300.,-4.99999999999993,0.));
#613=CARTESIAN_POINT('',(280.,1.29674049276218E-13,0.));
#614=CARTESIAN_POINT('',(402.679491924311,-9.99999999999994,0.));
#615=CARTESIAN_POINT('',(320.,1.03028696685215E-13,0.));
#616=CARTESIAN_POINT('',(320.,-4.99999999999992,0.));
#617=CARTESIAN_POINT('',(325.,-4.99999999999999,0.));
#618=CARTESIAN_POINT('',(325.,-4.99999999999999,0.));
#619=CARTESIAN_POINT('',(325.,-10.,0.));
#620=CARTESIAN_POINT('',(325.,-10.,0.));
#621=CARTESIAN_POINT('',(255.,-10.0000000000001,0.));
#622=CARTESIAN_POINT('',(255.,-10.0000000000001,0.));
#623=CARTESIAN_POINT('',(255.,-5.,0.));
#624=CARTESIAN_POINT('',(255.,-5.,0.));
#625=CARTESIAN_POINT('',(325.,-4.99999999999999,0.));
#626=CARTESIAN_POINT('',(260.,-5.,0.));
#627=CARTESIAN_POINT('',(260.,-4.99999999999993,0.));
#628=CARTESIAN_POINT('',(-5.,0.,0.));
#629=CARTESIAN_POINT('',(-5.,5.,0.));
#630=CARTESIAN_POINT('',(-5.,5.,0.));
#631=CARTESIAN_POINT('',(0.,0.,0.));
#632=CARTESIAN_POINT('',(260.,-4.99999999999993,5.));
#633=CARTESIAN_POINT('',(260.,-4.99999999999993,5.));
#634=CARTESIAN_POINT('',(280.,-4.99999999999993,5.));
#635=CARTESIAN_POINT('',(280.,1.29674049276218E-13,5.));
#636=CARTESIAN_POINT('',(300.,-4.99999999999993,5.));
#637=CARTESIAN_POINT('',(300.,-4.99999999999993,5.));
#638=CARTESIAN_POINT('',(320.,-4.99999999999992,5.));
#639=CARTESIAN_POINT('',(320.,1.03028696685215E-13,5.));
#640=CARTESIAN_POINT('',(402.679491924311,-9.99999999999994,5.));
#641=CARTESIAN_POINT('',(255.,-5.,5.));
#642=CARTESIAN_POINT('',(325.,-4.99999999999999,5.));
#643=CARTESIAN_POINT('',(325.,-4.99999999999999,5.));
#644=CARTESIAN_POINT('',(325.,-10.,5.));
#645=CARTESIAN_POINT('',(255.,-10.0000000000001,5.));
#646=CARTESIAN_POINT('',(255.,-10.0000000000001,5.));
#647=CARTESIAN_POINT('',(325.,-4.99999999999999,5.));
#648=CARTESIAN_POINT('',(325.,-10.,5.));
#649=CARTESIAN_POINT('',(325.,-4.99999999999999,5.));
#650=CARTESIAN_POINT('',(255.,-5.,5.));
#651=CARTESIAN_POINT('',(-5.,5.,5.));
#652=CARTESIAN_POINT('',(-5.,0.,5.));
#653=CARTESIAN_POINT('',(-5.,5.,5.));
#654=MECHANICAL_DESIGN_GEOMETRIC_PRESENTATION_REPRESENTATION('',(#24),#655);
#655=(
GEOMETRIC_REPRESENTATION_CONTEXT(3)
GLOBAL_UNCERTAINTY_ASSIGNED_CONTEXT((#656))
GLOBAL_UNIT_ASSIGNED_CONTEXT((#662,#658,#657))
REPRESENTATION_CONTEXT('Collector Frame Guide Side Single v2',
'TOP_LEVEL_ASSEMBLY_PART')
);
#656=UNCERTAINTY_MEASURE_WITH_UNIT(LENGTH_MEASURE(2.E-5),#662,
'DISTANCE_ACCURACY_VALUE','Maximum Tolerance applied to model');
#657=(
NAMED_UNIT(*)
SI_UNIT($,.STERADIAN.)
SOLID_ANGLE_UNIT()
);
#658=(
CONVERSION_BASED_UNIT('DEGREE',#660)
NAMED_UNIT(#659)
PLANE_ANGLE_UNIT()
);
#659=DIMENSIONAL_EXPONENTS(0.,0.,0.,0.,0.,0.,0.);
#660=PLANE_ANGLE_MEASURE_WITH_UNIT(PLANE_ANGLE_MEASURE(0.0174532925),#661);
#661=(
NAMED_UNIT(*)
PLANE_ANGLE_UNIT()
SI_UNIT($,.RADIAN.)
);
#662=(
LENGTH_UNIT()
NAMED_UNIT(*)
SI_UNIT(.MILLI.,.METRE.)
);
ENDSEC;
END-ISO-10303-21;
